Efinix/Trion/PrimitiveTest/src/sim/dsp_tb.vcd
$date
	Sat Jun  3 11:31:42 2023
$end
$version
	Icarus Verilog
$end
$timescale
	1s
$end
$scope module dsp_tb $end
$var wire 36 ! wX [35:0] $end
$var wire 36 " wRes [35:0] $end
$var reg 18 # rA [17:0] $end
$var reg 18 $ rB [17:0] $end
$var reg 1 % rSCLK $end
$var reg 1 & rSRST $end
$var reg 1 ' rnSRST $end
$scope module dsp $end
$var wire 18 ( iA [17:0] $end
$var wire 18 ) iB [17:0] $end
$var wire 1 % iCLK $end
$var wire 36 * oX [35:0] $end
$var wire 36 + wSum [35:0] $end
$var reg 36 , rSum [35:0] $end
$upscope $end
$scope task reset_init $end
$upscope $end
$upscope $end
$enddefinitions $end
#0
$dumpvars
bx ,
bx +
bx *
bx )
bx (
0'
1&
0%
bx $
bx #
bx "
bx !
$end
#2
b0 "
b0 +
b0 $
b0 )
b0 #
b0 (
1%
#4
0%
#6
b0 !
b0 *
b0 ,
1%
#8
0%
#10
b1 "
b1 +
b1 $
b1 )
b1 #
b1 (
1%
0&
1'
#12
0%
#14
b10 $
b10 )
b100 "
b100 +
b10 #
b10 (
b1 !
b1 *
b1 ,
1%
#16
0%
#18
b100 !
b100 *
b100 ,
b11 $
b11 )
b1001 "
b1001 +
b11 #
b11 (
1%
#20
0%
#22
b100 $
b100 )
b10000 "
b10000 +
b100 #
b100 (
b1001 !
b1001 *
b1001 ,
1%
#24
0%
#26
b10000 !
b10000 *
b10000 ,
b101 $
b101 )
b11001 "
b11001 +
b101 #
b101 (
1%
#28
0%
#30
b110 $
b110 )
b100100 "
b100100 +
b110 #
b110 (
b11001 !
b11001 *
b11001 ,
1%
#32
0%
#34
b100100 !
b100100 *
b100100 ,
b111 $
b111 )
b110001 "
b110001 +
b111 #
b111 (
1%
#36
0%
#38
b1000 $
b1000 )
b1000000 "
b1000000 +
b1000 #
b1000 (
b110001 !
b110001 *
b110001 ,
1%
#40
0%
#42
b1000000 !
b1000000 *
b1000000 ,
b1001 $
b1001 )
b1010001 "
b1010001 +
b1001 #
b1001 (
1%
#44
0%
#46
b1010 $
b1010 )
b1100100 "
b1100100 +
b1010 #
b1010 (
b1010001 !
b1010001 *
b1010001 ,
1%
#48
0%
#50
b1100100 !
b1100100 *
b1100100 ,
b1011 $
b1011 )
b1111001 "
b1111001 +
b1011 #
b1011 (
1%
#52
0%
#54
b1100 $
b1100 )
b10010000 "
b10010000 +
b1100 #
b1100 (
b1111001 !
b1111001 *
b1111001 ,
1%
#56
0%
#58
b10010000 !
b10010000 *
b10010000 ,
b1101 $
b1101 )
b10101001 "
b10101001 +
b1101 #
b1101 (
1%
#60
0%
#62
b1110 $
b1110 )
b11000100 "
b11000100 +
b1110 #
b1110 (
b10101001 !
b10101001 *
b10101001 ,
1%
#64
0%
#66
b11000100 !
b11000100 *
b11000100 ,
b1111 $
b1111 )
b11100001 "
b11100001 +
b1111 #
b1111 (
1%
#68
0%
#70
b10000 $
b10000 )
b100000000 "
b100000000 +
b10000 #
b10000 (
b11100001 !
b11100001 *
b11100001 ,
1%
#72
0%
#74
b100000000 !
b100000000 *
b100000000 ,
b10001 $
b10001 )
b100100001 "
b100100001 +
b10001 #
b10001 (
1%
#76
0%
#78
b10010 $
b10010 )
b101000100 "
b101000100 +
b10010 #
b10010 (
b100100001 !
b100100001 *
b100100001 ,
1%
#80
0%
#82
b101000100 !
b101000100 *
b101000100 ,
b10011 $
b10011 )
b101101001 "
b101101001 +
b10011 #
b10011 (
1%
#84
0%
#86
b10100 $
b10100 )
b110010000 "
b110010000 +
b10100 #
b10100 (
b101101001 !
b101101001 *
b101101001 ,
1%
#88
0%
#90
b110010000 !
b110010000 *
b110010000 ,
b10101 $
b10101 )
b110111001 "
b110111001 +
b10101 #
b10101 (
1%
#92
0%
#94
b10110 $
b10110 )
b111100100 "
b111100100 +
b10110 #
b10110 (
b110111001 !
b110111001 *
b110111001 ,
1%
#96
0%
#98
b111100100 !
b111100100 *
b111100100 ,
b10111 $
b10111 )
b1000010001 "
b1000010001 +
b10111 #
b10111 (
1%
#100
0%
#102
b11000 $
b11000 )
b1001000000 "
b1001000000 +
b11000 #
b11000 (
b1000010001 !
b1000010001 *
b1000010001 ,
1%
#104
0%
#106
b1001000000 !
b1001000000 *
b1001000000 ,
b11001 $
b11001 )
b1001110001 "
b1001110001 +
b11001 #
b11001 (
1%
#108
0%
#110
b11010 $
b11010 )
b1010100100 "
b1010100100 +
b11010 #
b11010 (
b1001110001 !
b1001110001 *
b1001110001 ,
1%
#112
0%
#114
b1010100100 !
b1010100100 *
b1010100100 ,
b11011 $
b11011 )
b1011011001 "
b1011011001 +
b11011 #
b11011 (
1%
#116
0%
#118
b11100 $
b11100 )
b1100010000 "
b1100010000 +
b11100 #
b11100 (
b1011011001 !
b1011011001 *
b1011011001 ,
1%
#120
0%
#122
b1100010000 !
b1100010000 *
b1100010000 ,
b11101 $
b11101 )
b1101001001 "
b1101001001 +
b11101 #
b11101 (
1%
#124
0%
#126
b11110 $
b11110 )
b1110000100 "
b1110000100 +
b11110 #
b11110 (
b1101001001 !
b1101001001 *
b1101001001 ,
1%
#128
0%
#130
b1110000100 !
b1110000100 *
b1110000100 ,
b11111 $
b11111 )
b1111000001 "
b1111000001 +
b11111 #
b11111 (
1%
#132
0%
#134
b100000 $
b100000 )
b10000000000 "
b10000000000 +
b100000 #
b100000 (
b1111000001 !
b1111000001 *
b1111000001 ,
1%
#136
0%
#138
b10000000000 !
b10000000000 *
b10000000000 ,
b100001 $
b100001 )
b10001000001 "
b10001000001 +
b100001 #
b100001 (
1%
#140
0%
#142
b100010 $
b100010 )
b10010000100 "
b10010000100 +
b100010 #
b100010 (
b10001000001 !
b10001000001 *
b10001000001 ,
1%
#144
0%
#146
b10010000100 !
b10010000100 *
b10010000100 ,
b100011 $
b100011 )
b10011001001 "
b10011001001 +
b100011 #
b100011 (
1%
#148
0%
#150
b100100 $
b100100 )
b10100010000 "
b10100010000 +
b100100 #
b100100 (
b10011001001 !
b10011001001 *
b10011001001 ,
1%
#152
0%
#154
b10100010000 !
b10100010000 *
b10100010000 ,
b100101 $
b100101 )
b10101011001 "
b10101011001 +
b100101 #
b100101 (
1%
#156
0%
#158
b100110 $
b100110 )
b10110100100 "
b10110100100 +
b100110 #
b100110 (
b10101011001 !
b10101011001 *
b10101011001 ,
1%
#160
0%
#162
b10110100100 !
b10110100100 *
b10110100100 ,
b100111 $
b100111 )
b10111110001 "
b10111110001 +
b100111 #
b100111 (
1%
#164
0%
#166
b101000 $
b101000 )
b11001000000 "
b11001000000 +
b101000 #
b101000 (
b10111110001 !
b10111110001 *
b10111110001 ,
1%
#168
0%
#170
b11001000000 !
b11001000000 *
b11001000000 ,
b101001 $
b101001 )
b11010010001 "
b11010010001 +
b101001 #
b101001 (
1%
#172
0%
#174
b101010 $
b101010 )
b11011100100 "
b11011100100 +
b101010 #
b101010 (
b11010010001 !
b11010010001 *
b11010010001 ,
1%
#176
0%
#178
b11011100100 !
b11011100100 *
b11011100100 ,
b101011 $
b101011 )
b11100111001 "
b11100111001 +
b101011 #
b101011 (
1%
#180
0%
#182
b101100 $
b101100 )
b11110010000 "
b11110010000 +
b101100 #
b101100 (
b11100111001 !
b11100111001 *
b11100111001 ,
1%
#184
0%
#186
b11110010000 !
b11110010000 *
b11110010000 ,
b101101 $
b101101 )
b11111101001 "
b11111101001 +
b101101 #
b101101 (
1%
#188
0%
#190
b101110 $
b101110 )
b100001000100 "
b100001000100 +
b101110 #
b101110 (
b11111101001 !
b11111101001 *
b11111101001 ,
1%
#192
0%
#194
b100001000100 !
b100001000100 *
b100001000100 ,
b101111 $
b101111 )
b100010100001 "
b100010100001 +
b101111 #
b101111 (
1%
#196
0%
#198
b110000 $
b110000 )
b100100000000 "
b100100000000 +
b110000 #
b110000 (
b100010100001 !
b100010100001 *
b100010100001 ,
1%
#200
0%
#202
b100100000000 !
b100100000000 *
b100100000000 ,
b110001 $
b110001 )
b100101100001 "
b100101100001 +
b110001 #
b110001 (
1%
#204
0%
#206
b110010 $
b110010 )
b100111000100 "
b100111000100 +
b110010 #
b110010 (
b100101100001 !
b100101100001 *
b100101100001 ,
1%
#208
0%
#210
b100111000100 !
b100111000100 *
b100111000100 ,
b110011 $
b110011 )
b101000101001 "
b101000101001 +
b110011 #
b110011 (
1%
#212
0%
#214
b110100 $
b110100 )
b101010010000 "
b101010010000 +
b110100 #
b110100 (
b101000101001 !
b101000101001 *
b101000101001 ,
1%
#216
0%
#218
b101010010000 !
b101010010000 *
b101010010000 ,
b110101 $
b110101 )
b101011111001 "
b101011111001 +
b110101 #
b110101 (
1%
#220
0%
#222
b110110 $
b110110 )
b101101100100 "
b101101100100 +
b110110 #
b110110 (
b101011111001 !
b101011111001 *
b101011111001 ,
1%
#224
0%
#226
b101101100100 !
b101101100100 *
b101101100100 ,
b110111 $
b110111 )
b101111010001 "
b101111010001 +
b110111 #
b110111 (
1%
#228
0%
#230
b111000 $
b111000 )
b110001000000 "
b110001000000 +
b111000 #
b111000 (
b101111010001 !
b101111010001 *
b101111010001 ,
1%
#232
0%
#234
b110001000000 !
b110001000000 *
b110001000000 ,
b111001 $
b111001 )
b110010110001 "
b110010110001 +
b111001 #
b111001 (
1%
#236
0%
#238
b111010 $
b111010 )
b110100100100 "
b110100100100 +
b111010 #
b111010 (
b110010110001 !
b110010110001 *
b110010110001 ,
1%
#240
0%
#242
b110100100100 !
b110100100100 *
b110100100100 ,
b111011 $
b111011 )
b110110011001 "
b110110011001 +
b111011 #
b111011 (
1%
#244
0%
#246
b111100 $
b111100 )
b111000010000 "
b111000010000 +
b111100 #
b111100 (
b110110011001 !
b110110011001 *
b110110011001 ,
1%
#248
0%
#250
b111000010000 !
b111000010000 *
b111000010000 ,
b111101 $
b111101 )
b111010001001 "
b111010001001 +
b111101 #
b111101 (
1%
#252
0%
#254
b111110 $
b111110 )
b111100000100 "
b111100000100 +
b111110 #
b111110 (
b111010001001 !
b111010001001 *
b111010001001 ,
1%
#256
0%
#258
b111100000100 !
b111100000100 *
b111100000100 ,
b111111 $
b111111 )
b111110000001 "
b111110000001 +
b111111 #
b111111 (
1%
#260
0%
#262
b1000000 $
b1000000 )
b1000000000000 "
b1000000000000 +
b1000000 #
b1000000 (
b111110000001 !
b111110000001 *
b111110000001 ,
1%
#264
0%
#266
b1000000000000 !
b1000000000000 *
b1000000000000 ,
b1000001 $
b1000001 )
b1000010000001 "
b1000010000001 +
b1000001 #
b1000001 (
1%
#268
0%
#270
b1000010 $
b1000010 )
b1000100000100 "
b1000100000100 +
b1000010 #
b1000010 (
b1000010000001 !
b1000010000001 *
b1000010000001 ,
1%
#272
0%
#274
b1000100000100 !
b1000100000100 *
b1000100000100 ,
b1000011 $
b1000011 )
b1000110001001 "
b1000110001001 +
b1000011 #
b1000011 (
1%
#276
0%
#278
b1000100 $
b1000100 )
b1001000010000 "
b1001000010000 +
b1000100 #
b1000100 (
b1000110001001 !
b1000110001001 *
b1000110001001 ,
1%
#280
0%
#282
b1001000010000 !
b1001000010000 *
b1001000010000 ,
b1000101 $
b1000101 )
b1001010011001 "
b1001010011001 +
b1000101 #
b1000101 (
1%
#284
0%
#286
b1000110 $
b1000110 )
b1001100100100 "
b1001100100100 +
b1000110 #
b1000110 (
b1001010011001 !
b1001010011001 *
b1001010011001 ,
1%
#288
0%
#290
b1001100100100 !
b1001100100100 *
b1001100100100 ,
b1000111 $
b1000111 )
b1001110110001 "
b1001110110001 +
b1000111 #
b1000111 (
1%
#292
0%
#294
b1001000 $
b1001000 )
b1010001000000 "
b1010001000000 +
b1001000 #
b1001000 (
b1001110110001 !
b1001110110001 *
b1001110110001 ,
1%
#296
0%
#298
b1010001000000 !
b1010001000000 *
b1010001000000 ,
b1001001 $
b1001001 )
b1010011010001 "
b1010011010001 +
b1001001 #
b1001001 (
1%
#300
0%
#302
b1001010 $
b1001010 )
b1010101100100 "
b1010101100100 +
b1001010 #
b1001010 (
b1010011010001 !
b1010011010001 *
b1010011010001 ,
1%
#304
0%
#306
b1010101100100 !
b1010101100100 *
b1010101100100 ,
b1001011 $
b1001011 )
b1010111111001 "
b1010111111001 +
b1001011 #
b1001011 (
1%
#308
0%
#310
b1001100 $
b1001100 )
b1011010010000 "
b1011010010000 +
b1001100 #
b1001100 (
b1010111111001 !
b1010111111001 *
b1010111111001 ,
1%
#312
0%
#314
b1011010010000 !
b1011010010000 *
b1011010010000 ,
b1001101 $
b1001101 )
b1011100101001 "
b1011100101001 +
b1001101 #
b1001101 (
1%
#316
0%
#318
b1001110 $
b1001110 )
b1011111000100 "
b1011111000100 +
b1001110 #
b1001110 (
b1011100101001 !
b1011100101001 *
b1011100101001 ,
1%
#320
0%
#322
b1011111000100 !
b1011111000100 *
b1011111000100 ,
b1001111 $
b1001111 )
b1100001100001 "
b1100001100001 +
b1001111 #
b1001111 (
1%
#324
0%
#326
b1010000 $
b1010000 )
b1100100000000 "
b1100100000000 +
b1010000 #
b1010000 (
b1100001100001 !
b1100001100001 *
b1100001100001 ,
1%
#328
0%
#330
b1100100000000 !
b1100100000000 *
b1100100000000 ,
b1010001 $
b1010001 )
b1100110100001 "
b1100110100001 +
b1010001 #
b1010001 (
1%
#332
0%
#334
b1010010 $
b1010010 )
b1101001000100 "
b1101001000100 +
b1010010 #
b1010010 (
b1100110100001 !
b1100110100001 *
b1100110100001 ,
1%
#336
0%
#338
b1101001000100 !
b1101001000100 *
b1101001000100 ,
b1010011 $
b1010011 )
b1101011101001 "
b1101011101001 +
b1010011 #
b1010011 (
1%
#340
0%
#342
b1010100 $
b1010100 )
b1101110010000 "
b1101110010000 +
b1010100 #
b1010100 (
b1101011101001 !
b1101011101001 *
b1101011101001 ,
1%
#344
0%
#346
b1101110010000 !
b1101110010000 *
b1101110010000 ,
b1010101 $
b1010101 )
b1110000111001 "
b1110000111001 +
b1010101 #
b1010101 (
1%
#348
0%
#350
b1010110 $
b1010110 )
b1110011100100 "
b1110011100100 +
b1010110 #
b1010110 (
b1110000111001 !
b1110000111001 *
b1110000111001 ,
1%
#352
0%
#354
b1110011100100 !
b1110011100100 *
b1110011100100 ,
b1010111 $
b1010111 )
b1110110010001 "
b1110110010001 +
b1010111 #
b1010111 (
1%
#356
0%
#358
b1011000 $
b1011000 )
b1111001000000 "
b1111001000000 +
b1011000 #
b1011000 (
b1110110010001 !
b1110110010001 *
b1110110010001 ,
1%
#360
0%
#362
b1111001000000 !
b1111001000000 *
b1111001000000 ,
b1011001 $
b1011001 )
b1111011110001 "
b1111011110001 +
b1011001 #
b1011001 (
1%
#364
0%
#366
b1011010 $
b1011010 )
b1111110100100 "
b1111110100100 +
b1011010 #
b1011010 (
b1111011110001 !
b1111011110001 *
b1111011110001 ,
1%
#368
0%
#370
b1111110100100 !
b1111110100100 *
b1111110100100 ,
b1011011 $
b1011011 )
b10000001011001 "
b10000001011001 +
b1011011 #
b1011011 (
1%
#372
0%
#374
b1011100 $
b1011100 )
b10000100010000 "
b10000100010000 +
b1011100 #
b1011100 (
b10000001011001 !
b10000001011001 *
b10000001011001 ,
1%
#376
0%
#378
b10000100010000 !
b10000100010000 *
b10000100010000 ,
b1011101 $
b1011101 )
b10000111001001 "
b10000111001001 +
b1011101 #
b1011101 (
1%
#380
0%
#382
b1011110 $
b1011110 )
b10001010000100 "
b10001010000100 +
b1011110 #
b1011110 (
b10000111001001 !
b10000111001001 *
b10000111001001 ,
1%
#384
0%
#386
b10001010000100 !
b10001010000100 *
b10001010000100 ,
b1011111 $
b1011111 )
b10001101000001 "
b10001101000001 +
b1011111 #
b1011111 (
1%
#388
0%
#390
b1100000 $
b1100000 )
b10010000000000 "
b10010000000000 +
b1100000 #
b1100000 (
b10001101000001 !
b10001101000001 *
b10001101000001 ,
1%
#392
0%
#394
b10010000000000 !
b10010000000000 *
b10010000000000 ,
b1100001 $
b1100001 )
b10010011000001 "
b10010011000001 +
b1100001 #
b1100001 (
1%
#396
0%
#398
b1100010 $
b1100010 )
b10010110000100 "
b10010110000100 +
b1100010 #
b1100010 (
b10010011000001 !
b10010011000001 *
b10010011000001 ,
1%
#400
0%
#402
b10010110000100 !
b10010110000100 *
b10010110000100 ,
b1100011 $
b1100011 )
b10011001001001 "
b10011001001001 +
b1100011 #
b1100011 (
1%
#404
0%
#406
b1100100 $
b1100100 )
b10011100010000 "
b10011100010000 +
b1100100 #
b1100100 (
b10011001001001 !
b10011001001001 *
b10011001001001 ,
1%
#408
0%
#410
b10011100010000 !
b10011100010000 *
b10011100010000 ,
b1100101 $
b1100101 )
b10011111011001 "
b10011111011001 +
b1100101 #
b1100101 (
1%
#412
0%
#414
b1100110 $
b1100110 )
b10100010100100 "
b10100010100100 +
b1100110 #
b1100110 (
b10011111011001 !
b10011111011001 *
b10011111011001 ,
1%
#416
0%
#418
b10100010100100 !
b10100010100100 *
b10100010100100 ,
b1100111 $
b1100111 )
b10100101110001 "
b10100101110001 +
b1100111 #
b1100111 (
1%
#420
0%
#422
b1101000 $
b1101000 )
b10101001000000 "
b10101001000000 +
b1101000 #
b1101000 (
b10100101110001 !
b10100101110001 *
b10100101110001 ,
1%
#424
0%
#426
b10101001000000 !
b10101001000000 *
b10101001000000 ,
b1101001 $
b1101001 )
b10101100010001 "
b10101100010001 +
b1101001 #
b1101001 (
1%
#428
0%
#430
b1101010 $
b1101010 )
b10101111100100 "
b10101111100100 +
b1101010 #
b1101010 (
b10101100010001 !
b10101100010001 *
b10101100010001 ,
1%
#432
0%
#434
b10101111100100 !
b10101111100100 *
b10101111100100 ,
b1101011 $
b1101011 )
b10110010111001 "
b10110010111001 +
b1101011 #
b1101011 (
1%
#436
0%
#438
b1101100 $
b1101100 )
b10110110010000 "
b10110110010000 +
b1101100 #
b1101100 (
b10110010111001 !
b10110010111001 *
b10110010111001 ,
1%
#440
0%
#442
b10110110010000 !
b10110110010000 *
b10110110010000 ,
b1101101 $
b1101101 )
b10111001101001 "
b10111001101001 +
b1101101 #
b1101101 (
1%
#444
0%
#446
b1101110 $
b1101110 )
b10111101000100 "
b10111101000100 +
b1101110 #
b1101110 (
b10111001101001 !
b10111001101001 *
b10111001101001 ,
1%
#448
0%
#450
b10111101000100 !
b10111101000100 *
b10111101000100 ,
b1101111 $
b1101111 )
b11000000100001 "
b11000000100001 +
b1101111 #
b1101111 (
1%
#452
0%
#454
b1110000 $
b1110000 )
b11000100000000 "
b11000100000000 +
b1110000 #
b1110000 (
b11000000100001 !
b11000000100001 *
b11000000100001 ,
1%
#456
0%
#458
b11000100000000 !
b11000100000000 *
b11000100000000 ,
b1110001 $
b1110001 )
b11000111100001 "
b11000111100001 +
b1110001 #
b1110001 (
1%
#460
0%
#462
b1110010 $
b1110010 )
b11001011000100 "
b11001011000100 +
b1110010 #
b1110010 (
b11000111100001 !
b11000111100001 *
b11000111100001 ,
1%
#464
0%
#466
b11001011000100 !
b11001011000100 *
b11001011000100 ,
b1110011 $
b1110011 )
b11001110101001 "
b11001110101001 +
b1110011 #
b1110011 (
1%
#468
0%
#470
b1110100 $
b1110100 )
b11010010010000 "
b11010010010000 +
b1110100 #
b1110100 (
b11001110101001 !
b11001110101001 *
b11001110101001 ,
1%
#472
0%
#474
b11010010010000 !
b11010010010000 *
b11010010010000 ,
b1110101 $
b1110101 )
b11010101111001 "
b11010101111001 +
b1110101 #
b1110101 (
1%
#476
0%
#478
b1110110 $
b1110110 )
b11011001100100 "
b11011001100100 +
b1110110 #
b1110110 (
b11010101111001 !
b11010101111001 *
b11010101111001 ,
1%
#480
0%
#482
b11011001100100 !
b11011001100100 *
b11011001100100 ,
b1110111 $
b1110111 )
b11011101010001 "
b11011101010001 +
b1110111 #
b1110111 (
1%
#484
0%
#486
b1111000 $
b1111000 )
b11100001000000 "
b11100001000000 +
b1111000 #
b1111000 (
b11011101010001 !
b11011101010001 *
b11011101010001 ,
1%
#488
0%
#490
b11100001000000 !
b11100001000000 *
b11100001000000 ,
b1111001 $
b1111001 )
b11100100110001 "
b11100100110001 +
b1111001 #
b1111001 (
1%
#492
0%
#494
b1111010 $
b1111010 )
b11101000100100 "
b11101000100100 +
b1111010 #
b1111010 (
b11100100110001 !
b11100100110001 *
b11100100110001 ,
1%
#496
0%
#498
b11101000100100 !
b11101000100100 *
b11101000100100 ,
b1111011 $
b1111011 )
b11101100011001 "
b11101100011001 +
b1111011 #
b1111011 (
1%
#500
0%
#502
b1111100 $
b1111100 )
b11110000010000 "
b11110000010000 +
b1111100 #
b1111100 (
b11101100011001 !
b11101100011001 *
b11101100011001 ,
1%
#504
0%
#506
b11110000010000 !
b11110000010000 *
b11110000010000 ,
b1111101 $
b1111101 )
b11110100001001 "
b11110100001001 +
b1111101 #
b1111101 (
1%
#508
0%
#510
b1111110 $
b1111110 )
b11111000000100 "
b11111000000100 +
b1111110 #
b1111110 (
b11110100001001 !
b11110100001001 *
b11110100001001 ,
1%
#512
0%
#514
b11111000000100 !
b11111000000100 *
b11111000000100 ,
b1111111 $
b1111111 )
b11111100000001 "
b11111100000001 +
b1111111 #
b1111111 (
1%
#516
0%
#518
b10000000 $
b10000000 )
b100000000000000 "
b100000000000000 +
b10000000 #
b10000000 (
b11111100000001 !
b11111100000001 *
b11111100000001 ,
1%
#520
0%
#522
b100000000000000 !
b100000000000000 *
b100000000000000 ,
b10000001 $
b10000001 )
b100000100000001 "
b100000100000001 +
b10000001 #
b10000001 (
1%
#524
0%
#526
b10000010 $
b10000010 )
b100001000000100 "
b100001000000100 +
b10000010 #
b10000010 (
b100000100000001 !
b100000100000001 *
b100000100000001 ,
1%
#528
0%
#530
b100001000000100 !
b100001000000100 *
b100001000000100 ,
b10000011 $
b10000011 )
b100001100001001 "
b100001100001001 +
b10000011 #
b10000011 (
1%
#532
0%
#534
b10000100 $
b10000100 )
b100010000010000 "
b100010000010000 +
b10000100 #
b10000100 (
b100001100001001 !
b100001100001001 *
b100001100001001 ,
1%
#536
0%
#538
b100010000010000 !
b100010000010000 *
b100010000010000 ,
b10000101 $
b10000101 )
b100010100011001 "
b100010100011001 +
b10000101 #
b10000101 (
1%
#540
0%
#542
b10000110 $
b10000110 )
b100011000100100 "
b100011000100100 +
b10000110 #
b10000110 (
b100010100011001 !
b100010100011001 *
b100010100011001 ,
1%
#544
0%
#546
b100011000100100 !
b100011000100100 *
b100011000100100 ,
b10000111 $
b10000111 )
b100011100110001 "
b100011100110001 +
b10000111 #
b10000111 (
1%
#548
0%
#550
b10001000 $
b10001000 )
b100100001000000 "
b100100001000000 +
b10001000 #
b10001000 (
b100011100110001 !
b100011100110001 *
b100011100110001 ,
1%
#552
0%
#554
b100100001000000 !
b100100001000000 *
b100100001000000 ,
b10001001 $
b10001001 )
b100100101010001 "
b100100101010001 +
b10001001 #
b10001001 (
1%
#556
0%
#558
b10001010 $
b10001010 )
b100101001100100 "
b100101001100100 +
b10001010 #
b10001010 (
b100100101010001 !
b100100101010001 *
b100100101010001 ,
1%
#560
0%
#562
b100101001100100 !
b100101001100100 *
b100101001100100 ,
b10001011 $
b10001011 )
b100101101111001 "
b100101101111001 +
b10001011 #
b10001011 (
1%
#564
0%
#566
b10001100 $
b10001100 )
b100110010010000 "
b100110010010000 +
b10001100 #
b10001100 (
b100101101111001 !
b100101101111001 *
b100101101111001 ,
1%
#568
0%
#570
b100110010010000 !
b100110010010000 *
b100110010010000 ,
b10001101 $
b10001101 )
b100110110101001 "
b100110110101001 +
b10001101 #
b10001101 (
1%
#572
0%
#574
b10001110 $
b10001110 )
b100111011000100 "
b100111011000100 +
b10001110 #
b10001110 (
b100110110101001 !
b100110110101001 *
b100110110101001 ,
1%
#576
0%
#578
b100111011000100 !
b100111011000100 *
b100111011000100 ,
b10001111 $
b10001111 )
b100111111100001 "
b100111111100001 +
b10001111 #
b10001111 (
1%
#580
0%
#582
b10010000 $
b10010000 )
b101000100000000 "
b101000100000000 +
b10010000 #
b10010000 (
b100111111100001 !
b100111111100001 *
b100111111100001 ,
1%
#584
0%
#586
b101000100000000 !
b101000100000000 *
b101000100000000 ,
b10010001 $
b10010001 )
b101001000100001 "
b101001000100001 +
b10010001 #
b10010001 (
1%
#588
0%
#590
b10010010 $
b10010010 )
b101001101000100 "
b101001101000100 +
b10010010 #
b10010010 (
b101001000100001 !
b101001000100001 *
b101001000100001 ,
1%
#592
0%
#594
b101001101000100 !
b101001101000100 *
b101001101000100 ,
b10010011 $
b10010011 )
b101010001101001 "
b101010001101001 +
b10010011 #
b10010011 (
1%
#596
0%
#598
b10010100 $
b10010100 )
b101010110010000 "
b101010110010000 +
b10010100 #
b10010100 (
b101010001101001 !
b101010001101001 *
b101010001101001 ,
1%
#600
0%
#602
b101010110010000 !
b101010110010000 *
b101010110010000 ,
b10010101 $
b10010101 )
b101011010111001 "
b101011010111001 +
b10010101 #
b10010101 (
1%
#604
0%
#606
b10010110 $
b10010110 )
b101011111100100 "
b101011111100100 +
b10010110 #
b10010110 (
b101011010111001 !
b101011010111001 *
b101011010111001 ,
1%
#608
0%
#610
b101011111100100 !
b101011111100100 *
b101011111100100 ,
b10010111 $
b10010111 )
b101100100010001 "
b101100100010001 +
b10010111 #
b10010111 (
1%
#612
0%
#614
b10011000 $
b10011000 )
b101101001000000 "
b101101001000000 +
b10011000 #
b10011000 (
b101100100010001 !
b101100100010001 *
b101100100010001 ,
1%
#616
0%
#618
b101101001000000 !
b101101001000000 *
b101101001000000 ,
b10011001 $
b10011001 )
b101101101110001 "
b101101101110001 +
b10011001 #
b10011001 (
1%
#620
0%
#622
b10011010 $
b10011010 )
b101110010100100 "
b101110010100100 +
b10011010 #
b10011010 (
b101101101110001 !
b101101101110001 *
b101101101110001 ,
1%
#624
0%
#626
b101110010100100 !
b101110010100100 *
b101110010100100 ,
b10011011 $
b10011011 )
b101110111011001 "
b101110111011001 +
b10011011 #
b10011011 (
1%
#628
0%
#630
b10011100 $
b10011100 )
b101111100010000 "
b101111100010000 +
b10011100 #
b10011100 (
b101110111011001 !
b101110111011001 *
b101110111011001 ,
1%
#632
0%
#634
b101111100010000 !
b101111100010000 *
b101111100010000 ,
b10011101 $
b10011101 )
b110000001001001 "
b110000001001001 +
b10011101 #
b10011101 (
1%
#636
0%
#638
b10011110 $
b10011110 )
b110000110000100 "
b110000110000100 +
b10011110 #
b10011110 (
b110000001001001 !
b110000001001001 *
b110000001001001 ,
1%
#640
0%
#642
b110000110000100 !
b110000110000100 *
b110000110000100 ,
b10011111 $
b10011111 )
b110001011000001 "
b110001011000001 +
b10011111 #
b10011111 (
1%
#644
0%
#646
b10100000 $
b10100000 )
b110010000000000 "
b110010000000000 +
b10100000 #
b10100000 (
b110001011000001 !
b110001011000001 *
b110001011000001 ,
1%
#648
0%
#650
b110010000000000 !
b110010000000000 *
b110010000000000 ,
b10100001 $
b10100001 )
b110010101000001 "
b110010101000001 +
b10100001 #
b10100001 (
1%
#652
0%
#654
b10100010 $
b10100010 )
b110011010000100 "
b110011010000100 +
b10100010 #
b10100010 (
b110010101000001 !
b110010101000001 *
b110010101000001 ,
1%
#656
0%
#658
b110011010000100 !
b110011010000100 *
b110011010000100 ,
b10100011 $
b10100011 )
b110011111001001 "
b110011111001001 +
b10100011 #
b10100011 (
1%
#660
0%
#662
b10100100 $
b10100100 )
b110100100010000 "
b110100100010000 +
b10100100 #
b10100100 (
b110011111001001 !
b110011111001001 *
b110011111001001 ,
1%
#664
0%
#666
b110100100010000 !
b110100100010000 *
b110100100010000 ,
b10100101 $
b10100101 )
b110101001011001 "
b110101001011001 +
b10100101 #
b10100101 (
1%
#668
0%
#670
b10100110 $
b10100110 )
b110101110100100 "
b110101110100100 +
b10100110 #
b10100110 (
b110101001011001 !
b110101001011001 *
b110101001011001 ,
1%
#672
0%
#674
b110101110100100 !
b110101110100100 *
b110101110100100 ,
b10100111 $
b10100111 )
b110110011110001 "
b110110011110001 +
b10100111 #
b10100111 (
1%
#676
0%
#678
b10101000 $
b10101000 )
b110111001000000 "
b110111001000000 +
b10101000 #
b10101000 (
b110110011110001 !
b110110011110001 *
b110110011110001 ,
1%
#680
0%
#682
b110111001000000 !
b110111001000000 *
b110111001000000 ,
b10101001 $
b10101001 )
b110111110010001 "
b110111110010001 +
b10101001 #
b10101001 (
1%
#684
0%
#686
b10101010 $
b10101010 )
b111000011100100 "
b111000011100100 +
b10101010 #
b10101010 (
b110111110010001 !
b110111110010001 *
b110111110010001 ,
1%
#688
0%
#690
b111000011100100 !
b111000011100100 *
b111000011100100 ,
b10101011 $
b10101011 )
b111001000111001 "
b111001000111001 +
b10101011 #
b10101011 (
1%
#692
0%
#694
b10101100 $
b10101100 )
b111001110010000 "
b111001110010000 +
b10101100 #
b10101100 (
b111001000111001 !
b111001000111001 *
b111001000111001 ,
1%
#696
0%
#698
b111001110010000 !
b111001110010000 *
b111001110010000 ,
b10101101 $
b10101101 )
b111010011101001 "
b111010011101001 +
b10101101 #
b10101101 (
1%
#700
0%
#702
b10101110 $
b10101110 )
b111011001000100 "
b111011001000100 +
b10101110 #
b10101110 (
b111010011101001 !
b111010011101001 *
b111010011101001 ,
1%
#704
0%
#706
b111011001000100 !
b111011001000100 *
b111011001000100 ,
b10101111 $
b10101111 )
b111011110100001 "
b111011110100001 +
b10101111 #
b10101111 (
1%
#708
0%
#710
b10110000 $
b10110000 )
b111100100000000 "
b111100100000000 +
b10110000 #
b10110000 (
b111011110100001 !
b111011110100001 *
b111011110100001 ,
1%
#712
0%
#714
b111100100000000 !
b111100100000000 *
b111100100000000 ,
b10110001 $
b10110001 )
b111101001100001 "
b111101001100001 +
b10110001 #
b10110001 (
1%
#716
0%
