Efinix/Titanium/Ti180MIPI25GRxHDMIV100/la0_waveform.vcd
#0 $dumpon
$date today $end
$timescale 1 ns $end
$scope module top $end
$var wire 1 0 MCsiRxController/genblk1[0].mCsiDualClkFIFO/ofull $end
$var wire 1 1 MCsiRxController/genblk1[0].mCsiDualClkFIFO/iWe $end
$var wire 8 2 MCsiRxController/genblk1[0].mCsiDualClkFIFO/iWd $end
$upscope $end
$enddefinitions $end
#0
$dumpvars
00
01
b00000000 2
$end
#128
11
b10000000 2
#608
01
#862
b00000000 2
#863
b10000000 2
#869
11
#1349
01
#1603
b00000000 2
#1604
b10000000 2
#1610
11
#2048
10
01
#3084
b00000000 2
#3085
b10000000 2
#3825
b00000000 2
#3826
b10000000 2
#4095
10
01
b10000000 2
