Efinix/Titanium/MemoryTest/Ti180_FMB_R1W1_k256m32_230125/la0_waveform.vcd
#0 $dumpon
$date today $end
$timescale 1 ns $end
$scope module top $end
$var wire 1 0 memory_checker_0/q_arvalid_cke $end
$var wire 1 1 memory_checker_0/q_awvalid_cke $end
$var wire 1 2 memory_checker_0/q_adrs_cke $end
$var wire 1 3 memory_checker_0/qCntRunCke $end
$var wire 1 4 memory_checker_0/qBurstMaxCke $end
$var wire 1 5 memory_checker_0/q_radrs_cke $end
$var wire 1 6 memory_checker_0/q_bready_cke $end
$var wire 1 7 memory_checker_0/q_rready_cke $end
$var wire 1 8 memory_checker_0/rCntRunSel $end
$var wire 1 9 memory_checker_0/rRvalid_mon $end
$var wire 1 a memory_checker_0/rBvalid_mon $end
$var wire 2 b memory_checker_0/rBresp_mon $end
$var wire 1 c memory_checker_0/q_wvalid_cke $end
$var wire 23 d memory_checker_0/rCntRun $end
$var wire 2 e memory_checker_0/rRresp_mon $end
$var wire 1 f memory_checker_0/rAWready_mon $end
$var wire 1 10 memory_checker_0/rARready_mon $end
$var wire 1 11 memory_checker_0/q_wseq_cke $end
$var wire 1 12 memory_checker_0/rRlast_mon $end
$var wire 1 13 memory_checker_0/q_wstart_cke $end
$var wire 1 14 memory_checker_0/q_wlast_cke $end
$var wire 6 15 memory_checker_0/rBid_mon $end
$var wire 6 16 memory_checker_0/rRid_mon $end
$var wire 1 17 memory_checker_0/r_wcs $end
$var wire 16 18 memory_checker_0/r_rdata[10] $end
$var wire 1 19 memory_checker_0/r_rstart $end
$var wire 16 1a memory_checker_0/r_rdata[4] $end
$var wire 1 1b memory_checker_0/r_rready $end
$var wire 3 1c memory_checker_0/r_wbank $end
$var wire 3 1d memory_checker_0/r_rbank $end
$var wire 1 1e memory_checker_0/rWready_mon $end
$var wire 16 1f memory_checker_0/r_rdata[3] $end
$var wire 16 20 memory_checker_0/r_rdata[13] $end
$var wire 1 21 memory_checker_0/r_rcs $end
$var wire 16 22 memory_checker_0/r_rdata[7] $end
$var wire 1 23 memory_checker_0/r_awvalid $end
$var wire 16 24 memory_checker_0/r_rdata[2] $end
$var wire 16 25 memory_checker_0/r_rdata[6] $end
$var wire 16 26 memory_checker_0/r_rdata[5] $end
$var wire 1 27 memory_checker_0/r_wvalid $end
$var wire 1 28 memory_checker_0/r_wlast $end
$var wire 1 29 memory_checker_0/r_bready $end
$var wire 17 2a memory_checker_0/r_rrow $end
$var wire 16 2b memory_checker_0/r_rdata[8] $end
$var wire 10 2c memory_checker_0/r_rcol $end
$var wire 16 2d memory_checker_0/r_rdata[11] $end
$var wire 16 2e memory_checker_0/r_rdata[12] $end
$var wire 17 2f memory_checker_0/r_wrow $end
$var wire 16 30 memory_checker_0/r_rdata[14] $end
$var wire 16 31 memory_checker_0/r_rdata[9] $end
$var wire 16 32 memory_checker_0/r_rdata[0] $end
$var wire 16 33 memory_checker_0/r_rdata[1] $end
$var wire 1 34 memory_checker_0/r_wstart $end
$var wire 16 35 memory_checker_0/r_rdata[15] $end
$var wire 10 36 memory_checker_0/r_wcol $end
$var wire 1 37 memory_checker_0/r_arvalid $end
$var wire 1 38 memory_checker_0/i_cfg_done $end
$var wire 16 39 memory_checker_0/r_wdata[14] $end
$var wire 16 3a memory_checker_0/r_wdata[4] $end
$var wire 16 3b memory_checker_0/r_wdata[11] $end
$var wire 16 3c memory_checker_0/r_wdata[12] $end
$var wire 16 3d memory_checker_0/r_wdata[8] $end
$var wire 16 3e memory_checker_0/r_wdata[13] $end
$var wire 16 3f memory_checker_0/r_wdata[15] $end
$var wire 16 40 memory_checker_0/r_wdata[0] $end
$var wire 16 41 memory_checker_0/r_wdata[1] $end
$var wire 16 42 memory_checker_0/r_wdata[3] $end
$var wire 16 43 memory_checker_0/r_wdata[7] $end
$var wire 16 44 memory_checker_0/r_wdata[10] $end
$var wire 16 45 memory_checker_0/r_wdata[6] $end
$var wire 16 46 memory_checker_0/r_wdata[5] $end
$var wire 16 47 memory_checker_0/r_wdata[2] $end
$var wire 16 48 memory_checker_0/r_wdata[9] $end
$var wire 1 49 memory_checker_0/q_rstart_cke $end
$upscope $end
$enddefinitions $end
#0
$dumpvars
00
11
02
03
04
05
06
07
18
09
0a
b00 b
0c
b00000000000000000000000 d
b00 e
0f
010
011
012
013
014
b000000 15
b000000 16
017
b0011110110101010 18
019
b0011110110100100 1a
01b
b000 1c
b000 1d
01e
b0011110110100011 1f
b0011110110101101 20
021
b0011110110100111 22
023
b0011110110100010 24
b0011110110100110 25
b0011110110100101 26
027
028
029
b00000000000000000 2a
b0011110110101000 2b
b0000000000 2c
b0011110110101011 2d
b0011110110101100 2e
b00000000000000000 2f
b0011110110101110 30
b0011110110101001 31
b0011110110100000 32
b0011110110100001 33
034
b0011110110101111 35
b0000000000 36
037
038
b0000000000001110 39
b0000000000000100 3a
b0000000000001011 3b
b0000000000001100 3c
b0000000000001000 3d
b0000000000001101 3e
b0000000000001111 3f
b0000000000000000 40
b0000000000000001 41
b0000000000000011 42
b0000000000000111 43
b0000000000001010 44
b0000000000000110 45
b0000000000000101 46
b0000000000000010 47
b0000000000001001 48
049
$end
#2048
138
#2049
01
1c
b00000000000000000000001 d
123
#2050
0c
b00000000000000000000010 d
127
#2051
b00000000000000000000011 d
113
#2052
b00000000000000000000100 d
110
111
013
134
#2053
b00000000000000000000101 d
11e
#2054
b00000000000000000000110 d
#2055
b00000000000000000000111 d
#2056
b00000000000000000001000 d
#2057
b00000000000000000001001 d
#2058
b00000000000000000001010 d
#2059
b00000000000000000001011 d
#2060
b00000000000000000001100 d
#2061
b00000000000000000001101 d
#2062
b00000000000000000001110 d
#2063
b00000000000000000001111 d
#2064
b00000000000000000010000 d
#2065
b00000000000000000010001 d
#2066
11
b00000000000000000010010 d
114
#2067
10
01
14
1c
b00000000000000000010011 d
1f
023
128
#2068
04
17
0c
b00000000000000000010100 d
0f
011
014
027
028
137
149
#2069
00
07
b00000000000000000010101 d
119
11b
01e
037
049
#2070
b00000000000000000010110 d
#2071
b00000000000000000010111 d
#2072
b00000000000000000011000 d
#2073
b00000000000000000011001 d
#2074
b00000000000000000011010 d
#2075
b00000000000000000011011 d
#2076
b00000000000000000011100 d
#2077
b00000000000000000011101 d
#2078
b00000000000000000011110 d
#2079
b00000000000000000011111 d
#2080
15
17
b00000000000000000100000 d
b10 e
149
#2081
05
07
19
b00000000000000000100001 d
112
b0000000000001010 18
019
b0000000000000100 1a
01b
b0000000000000011 1f
b0000000000001101 20
b0000000000000111 22
b0000000000000010 24
b0000000000000110 25
b0000000000000101 26
b00000000000100000 2a
b0000000000001000 2b
b0000000000001011 2d
b0000000000001100 2e
b0000000000001110 30
b0000000000001001 31
b0000000000000000 32
b0000000000000001 33
b0000000000001111 35
049
#2082
16
09
b00000000000000000100010 d
b00 e
012
#2083
12
1a
b00000000000000000100011 d
113
129
#2084
11
02
06
b00000000000000000100100 d
013
029
b00000000000100000 2f
034
b0000000000011110 39
b0000000000010100 3a
b0000000000011011 3b
b0000000000011100 3c
b0000000000011000 3d
b0000000000011101 3e
b0000000000011111 3f
b0000000000010000 40
b0000000000010001 41
b0000000000010011 42
b0000000000010111 43
b0000000000011010 44
b0000000000010110 45
b0000000000010101 46
b0000000000010010 47
b0000000000011001 48
#2085
01
0a
1c
b00000000000000000100101 d
113
123
#2086
0c
b00000000000000000100110 d
013
127
134
#2087
b00000000000000000100111 d
111
#2088
b00000000000000000101000 d
11e
#2089
b00000000000000000101001 d
#2090
b00000000000000000101010 d
#2091
b00000000000000000101011 d
#2092
b00000000000000000101100 d
#2093
b00000000000000000101101 d
#2094
b00000000000000000101110 d
#2095
b00000000000000000101111 d
#2096
b00000000000000000110000 d
#2097
b00000000000000000110001 d
#2098
b00000000000000000110010 d
#2099
b00000000000000000110011 d
#2100
b00000000000000000110100 d
#2101
11
b00000000000000000110101 d
114
#2102
10
01
14
1c
b00000000000000000110110 d
1f
023
128
#2103
04
17
0c
b00000000000000000110111 d
0f
011
014
027
028
137
149
#2104
00
07
b00000000000000000111000 d
119
11b
01e
037
049
#2105
b00000000000000000111001 d
#2106
b00000000000000000111010 d
#2107
b00000000000000000111011 d
#2108
b00000000000000000111100 d
#2109
b00000000000000000111101 d
#2110
b00000000000000000111110 d
#2111
b00000000000000000111111 d
#2112
b00000000000000001000000 d
#2113
b00000000000000001000001 d
#2114
b00000000000000001000010 d
#2115
b00000000000000001000011 d
#2116
b00000000000000001000100 d
#2117
b00000000000000001000101 d
#2118
b00000000000000001000110 d
#2119
b00000000000000001000111 d
#2120
b00000000000000001001000 d
#2121
b00000000000000001001001 d
#2122
b00000000000000001001010 d
#2123
b00000000000000001001011 d
#2124
b00000000000000001001100 d
#2125
b00000000000000001001101 d
#2126
b00000000000000001001110 d
b10 e
#2127
15
17
b00000000000000001001111 d
149
#2128
05
07
19
b00000000000000001010000 d
112
b0000000000011010 18
019
b0000000000010100 1a
01b
b0000000000010011 1f
b0000000000011101 20
b0000000000010111 22
b0000000000010010 24
b0000000000010110 25
b0000000000010101 26
b00000000001000000 2a
b0000000000011000 2b
b0000000000011011 2d
b0000000000011100 2e
b0000000000011110 30
b0000000000011001 31
b0000000000010000 32
b0000000000010001 33
b0000000000011111 35
049
#2129
16
09
b00000000000000001010001 d
b00 e
012
#2130
12
1a
b00000000000000001010010 d
113
129
#2131
11
02
06
b00000000000000001010011 d
013
029
b00000000001000000 2f
034
b0000000000101110 39
b0000000000100100 3a
b0000000000101011 3b
b0000000000101100 3c
b0000000000101000 3d
b0000000000101101 3e
b0000000000101111 3f
b0000000000100000 40
b0000000000100001 41
b0000000000100011 42
b0000000000100111 43
b0000000000101010 44
b0000000000100110 45
b0000000000100101 46
b0000000000100010 47
b0000000000101001 48
#2132
01
0a
1c
b00000000000000001010100 d
113
123
#2133
0c
b00000000000000001010101 d
013
127
134
#2134
b00000000000000001010110 d
111
#2135
b00000000000000001010111 d
11e
#2136
b00000000000000001011000 d
#2137
b00000000000000001011001 d
#2138
b00000000000000001011010 d
#2139
b00000000000000001011011 d
#2140
b00000000000000001011100 d
#2141
b00000000000000001011101 d
#2142
b00000000000000001011110 d
#2143
b00000000000000001011111 d
#2144
b00000000000000001100000 d
#2145
b00000000000000001100001 d
#2146
b00000000000000001100010 d
#2147
b00000000000000001100011 d
#2148
11
b00000000000000001100100 d
114
#2149
10
01
14
1c
b00000000000000001100101 d
1f
023
128
#2150
04
17
0c
b00000000000000001100110 d
0f
011
014
027
028
137
149
#2151
00
07
b00000000000000001100111 d
119
11b
01e
037
049
#2152
b00000000000000001101000 d
#2153
b00000000000000001101001 d
#2154
b00000000000000001101010 d
#2155
b00000000000000001101011 d
#2156
b00000000000000001101100 d
#2157
b00000000000000001101101 d
#2158
b00000000000000001101110 d
#2159
b00000000000000001101111 d
#2160
b00000000000000001110000 d
#2161
b00000000000000001110001 d
#2162
b00000000000000001110010 d
#2163
b00000000000000001110011 d
b10 e
#2164
15
17
b00000000000000001110100 d
149
#2165
05
07
19
b00000000000000001110101 d
112
b0000000000101010 18
019
b0000000000100100 1a
01b
b0000000000100011 1f
b0000000000101101 20
b0000000000100111 22
b0000000000100010 24
b0000000000100110 25
b0000000000100101 26
b00000000001100000 2a
b0000000000101000 2b
b0000000000101011 2d
b0000000000101100 2e
b0000000000101110 30
b0000000000101001 31
b0000000000100000 32
b0000000000100001 33
b0000000000101111 35
049
#2166
09
b00000000000000001110110 d
b00 e
012
#2167
b00000000000000001110111 d
#2168
b00000000000000001111000 d
#2169
b00000000000000001111001 d
#2170
b00000000000000001111010 d
#2171
b00000000000000001111011 d
#2172
b00000000000000001111100 d
#2173
b00000000000000001111101 d
#2174
16
b00000000000000001111110 d
#2175
12
1a
b00000000000000001111111 d
113
129
#2176
11
02
06
b00000000000000010000000 d
013
029
b00000000001100000 2f
034
b0000000000111110 39
b0000000000110100 3a
b0000000000111011 3b
b0000000000111100 3c
b0000000000111000 3d
b0000000000111101 3e
b0000000000111111 3f
b0000000000110000 40
b0000000000110001 41
b0000000000110011 42
b0000000000110111 43
b0000000000111010 44
b0000000000110110 45
b0000000000110101 46
b0000000000110010 47
b0000000000111001 48
#2177
01
0a
1c
b00000000000000010000001 d
113
123
#2178
0c
b00000000000000010000010 d
013
127
134
#2179
b00000000000000010000011 d
111
#2180
b00000000000000010000100 d
11e
#2181
b00000000000000010000101 d
#2182
b00000000000000010000110 d
#2183
b00000000000000010000111 d
#2184
b00000000000000010001000 d
#2185
b00000000000000010001001 d
#2186
b00000000000000010001010 d
#2187
b00000000000000010001011 d
#2188
b00000000000000010001100 d
#2189
b00000000000000010001101 d
#2190
b00000000000000010001110 d
#2191
b00000000000000010001111 d
#2192
b00000000000000010010000 d
#2193
11
b00000000000000010010001 d
114
#2194
10
01
14
1c
b00000000000000010010010 d
1f
023
128
#2195
04
17
0c
b00000000000000010010011 d
0f
011
014
027
028
137
149
#2196
00
07
b00000000000000010010100 d
119
11b
01e
037
049
#2197
b00000000000000010010101 d
#2198
b00000000000000010010110 d
#2199
b00000000000000010010111 d
#2200
b00000000000000010011000 d
#2201
b00000000000000010011001 d
#2202
b00000000000000010011010 d
#2203
b00000000000000010011011 d
#2204
b00000000000000010011100 d
#2205
b00000000000000010011101 d
#2206
b00000000000000010011110 d
#2207
b00000000000000010011111 d
#2208
b00000000000000010100000 d
#2209
b00000000000000010100001 d
#2210
b00000000000000010100010 d
#2211
b00000000000000010100011 d
#2212
b00000000000000010100100 d
#2213
b00000000000000010100101 d
#2214
b00000000000000010100110 d
#2215
b00000000000000010100111 d
#2216
b00000000000000010101000 d
b10 e
#2217
15
17
b00000000000000010101001 d
149
#2218
05
07
19
b00000000000000010101010 d
112
b0000000000111010 18
019
b0000000000110100 1a
01b
b0000000000110011 1f
b0000000000111101 20
b0000000000110111 22
b0000000000110010 24
b0000000000110110 25
b0000000000110101 26
b00000000010000000 2a
b0000000000111000 2b
b0000000000111011 2d
b0000000000111100 2e
b0000000000111110 30
b0000000000111001 31
b0000000000110000 32
b0000000000110001 33
b0000000000111111 35
049
#2219
16
09
b00000000000000010101011 d
012
#2220
12
1a
b00000000000000010101100 d
113
129
#2221
11
02
06
b00000000000000010101101 d
013
029
b00000000010000000 2f
034
b0000000001001110 39
b0000000001000100 3a
b0000000001001011 3b
b0000000001001100 3c
b0000000001001000 3d
b0000000001001101 3e
b0000000001001111 3f
b0000000001000000 40
b0000000001000001 41
b0000000001000011 42
b0000000001000111 43
b0000000001001010 44
b0000000001000110 45
b0000000001000101 46
b0000000001000010 47
b0000000001001001 48
#2222
01
0a
1c
b00000000000000010101110 d
113
123
#2223
0c
b00000000000000010101111 d
013
127
134
#2224
b00000000000000010110000 d
111
#2225
b00000000000000010110001 d
11e
#2226
b00000000000000010110010 d
#2227
b00000000000000010110011 d
#2228
b00000000000000010110100 d
#2229
b00000000000000010110101 d
#2230
b00000000000000010110110 d
#2231
b00000000000000010110111 d
#2232
b00000000000000010111000 d
#2233
b00000000000000010111001 d
#2234
b00000000000000010111010 d
#2235
b00000000000000010111011 d
#2236
b00000000000000010111100 d
#2237
b00000000000000010111101 d
#2238
11
b00000000000000010111110 d
114
#2239
10
01
14
1c
b00000000000000010111111 d
1f
023
128
#2240
04
17
0c
b00000000000000011000000 d
0f
011
014
027
028
137
149
#2241
00
07
b00000000000000011000001 d
119
11b
01e
037
049
#2242
b00000000000000011000010 d
#2243
b00000000000000011000011 d
#2244
b00000000000000011000100 d
#2245
b00000000000000011000101 d
#2246
b00000000000000011000110 d
#2247
b00000000000000011000111 d
#2248
b00000000000000011001000 d
#2249
b00000000000000011001001 d
#2250
b00000000000000011001010 d
#2251
b00000000000000011001011 d
#2252
b00000000000000011001100 d
#2253
b00000000000000011001101 d
#2254
15
17
b00000000000000011001110 d
149
#2255
05
07
19
b00000000000000011001111 d
112
b0000000001001010 18
019
b0000000001000100 1a
01b
b0000000001000011 1f
b0000000001001101 20
b0000000001000111 22
b0000000001000010 24
b0000000001000110 25
b0000000001000101 26
b00000000010100000 2a
b0000000001001000 2b
b0000000001001011 2d
b0000000001001100 2e
b0000000001001110 30
b0000000001001001 31
b0000000001000000 32
b0000000001000001 33
b0000000001001111 35
049
#2256
16
09
b00000000000000011010000 d
012
#2257
12
1a
b00000000000000011010001 d
113
129
#2258
11
02
06
b00000000000000011010010 d
013
029
b00000000010100000 2f
034
b0000000001011110 39
b0000000001010100 3a
b0000000001011011 3b
b0000000001011100 3c
b0000000001011000 3d
b0000000001011101 3e
b0000000001011111 3f
b0000000001010000 40
b0000000001010001 41
b0000000001010011 42
b0000000001010111 43
b0000000001011010 44
b0000000001010110 45
b0000000001010101 46
b0000000001010010 47
b0000000001011001 48
#2259
01
0a
1c
b00000000000000011010011 d
113
123
#2260
0c
b00000000000000011010100 d
013
127
134
#2261
b00000000000000011010101 d
111
#2262
b00000000000000011010110 d
11e
#2263
b00000000000000011010111 d
#2264
b00000000000000011011000 d
#2265
b00000000000000011011001 d
#2266
b00000000000000011011010 d
#2267
b00000000000000011011011 d
#2268
b00000000000000011011100 d
#2269
b00000000000000011011101 d
#2270
b00000000000000011011110 d
#2271
b00000000000000011011111 d
#2272
b00000000000000011100000 d
#2273
b00000000000000011100001 d
#2274
b00000000000000011100010 d
#2275
11
b00000000000000011100011 d
114
#2276
10
01
14
1c
b00000000000000011100100 d
1f
023
128
#2277
04
17
0c
b00000000000000011100101 d
0f
011
014
027
028
137
149
#2278
00
07
b00000000000000011100110 d
119
11b
01e
037
049
#2279
b00000000000000011100111 d
#2280
b00000000000000011101000 d
#2281
b00000000000000011101001 d
#2282
b00000000000000011101010 d
#2283
b00000000000000011101011 d
#2284
b00000000000000011101100 d
#2285
b00000000000000011101101 d
#2286
b00000000000000011101110 d
#2287
b00000000000000011101111 d
#2288
b00000000000000011110000 d
#2289
b00000000000000011110001 d
#2290
b00000000000000011110010 d
#2291
15
17
b00000000000000011110011 d
149
#2292
05
07
19
b00000000000000011110100 d
112
b0000000001011010 18
019
b0000000001010100 1a
01b
b0000000001010011 1f
b0000000001011101 20
b0000000001010111 22
b0000000001010010 24
b0000000001010110 25
b0000000001010101 26
b00000000011000000 2a
b0000000001011000 2b
b0000000001011011 2d
b0000000001011100 2e
b0000000001011110 30
b0000000001011001 31
b0000000001010000 32
b0000000001010001 33
b0000000001011111 35
049
#2293
16
09
b00000000000000011110101 d
012
#2294
12
1a
b00000000000000011110110 d
113
129
#2295
11
02
06
b00000000000000011110111 d
013
029
b00000000011000000 2f
034
b0000000001101110 39
b0000000001100100 3a
b0000000001101011 3b
b0000000001101100 3c
b0000000001101000 3d
b0000000001101101 3e
b0000000001101111 3f
b0000000001100000 40
b0000000001100001 41
b0000000001100011 42
b0000000001100111 43
b0000000001101010 44
b0000000001100110 45
b0000000001100101 46
b0000000001100010 47
b0000000001101001 48
#2296
01
0a
1c
b00000000000000011111000 d
113
123
#2297
0c
b00000000000000011111001 d
013
127
134
#2298
b00000000000000011111010 d
111
#2299
b00000000000000011111011 d
11e
#2300
b00000000000000011111100 d
#2301
b00000000000000011111101 d
#2302
b00000000000000011111110 d
#2303
b00000000000000011111111 d
#2304
b00000000000000100000000 d
#2305
b00000000000000100000001 d
#2306
b00000000000000100000010 d
#2307
b00000000000000100000011 d
#2308
b00000000000000100000100 d
#2309
b00000000000000100000101 d
#2310
b00000000000000100000110 d
#2311
b00000000000000100000111 d
#2312
11
b00000000000000100001000 d
114
#2313
10
01
14
1c
b00000000000000100001001 d
1f
023
128
#2314
04
17
0c
b00000000000000100001010 d
0f
011
014
027
028
137
149
#2315
00
07
b00000000000000100001011 d
119
11b
01e
037
049
#2316
b00000000000000100001100 d
#2317
b00000000000000100001101 d
#2318
b00000000000000100001110 d
#2319
b00000000000000100001111 d
#2320
b00000000000000100010000 d
#2321
b00000000000000100010001 d
#2322
b00000000000000100010010 d
#2323
b00000000000000100010011 d
#2324
b00000000000000100010100 d
#2325
b00000000000000100010101 d
#2326
b00000000000000100010110 d
#2327
b00000000000000100010111 d
#2328
15
17
b00000000000000100011000 d
149
#2329
05
07
19
b00000000000000100011001 d
112
b0000000001101010 18
019
b0000000001100100 1a
01b
b0000000001100011 1f
b0000000001101101 20
b0000000001100111 22
b0000000001100010 24
b0000000001100110 25
b0000000001100101 26
b00000000011100000 2a
b0000000001101000 2b
b0000000001101011 2d
b0000000001101100 2e
b0000000001101110 30
b0000000001101001 31
b0000000001100000 32
b0000000001100001 33
b0000000001101111 35
049
#2330
16
09
b00000000000000100011010 d
012
#2331
12
1a
b00000000000000100011011 d
113
129
#2332
11
02
06
b00000000000000100011100 d
013
029
b00000000011100000 2f
034
b0000000001111110 39
b0000000001110100 3a
b0000000001111011 3b
b0000000001111100 3c
b0000000001111000 3d
b0000000001111101 3e
b0000000001111111 3f
b0000000001110000 40
b0000000001110001 41
b0000000001110011 42
b0000000001110111 43
b0000000001111010 44
b0000000001110110 45
b0000000001110101 46
b0000000001110010 47
b0000000001111001 48
#2333
01
0a
1c
b00000000000000100011101 d
113
123
#2334
0c
b00000000000000100011110 d
013
127
134
#2335
b00000000000000100011111 d
111
#2336
b00000000000000100100000 d
11e
#2337
b00000000000000100100001 d
#2338
b00000000000000100100010 d
#2339
b00000000000000100100011 d
#2340
b00000000000000100100100 d
#2341
b00000000000000100100101 d
#2342
b00000000000000100100110 d
#2343
b00000000000000100100111 d
#2344
b00000000000000100101000 d
#2345
b00000000000000100101001 d
#2346
b00000000000000100101010 d
#2347
b00000000000000100101011 d
#2348
b00000000000000100101100 d
#2349
11
b00000000000000100101101 d
114
#2350
10
01
14
1c
b00000000000000100101110 d
1f
023
128
#2351
04
17
0c
b00000000000000100101111 d
0f
011
014
027
028
137
149
#2352
00
07
b00000000000000100110000 d
119
11b
01e
037
049
#2353
b00000000000000100110001 d
#2354
b00000000000000100110010 d
#2355
b00000000000000100110011 d
#2356
b00000000000000100110100 d
#2357
b00000000000000100110101 d
#2358
b00000000000000100110110 d
#2359
b00000000000000100110111 d
#2360
b00000000000000100111000 d
#2361
b00000000000000100111001 d
#2362
b00000000000000100111010 d
#2363
b00000000000000100111011 d
#2364
b00000000000000100111100 d
#2365
15
17
b00000000000000100111101 d
149
#2366
05
07
19
b00000000000000100111110 d
112
b0000000001111010 18
019
b0000000001110100 1a
01b
b0000000001110011 1f
b0000000001111101 20
b0000000001110111 22
b0000000001110010 24
b0000000001110110 25
b0000000001110101 26
b00000000100000000 2a
b0000000001111000 2b
b0000000001111011 2d
b0000000001111100 2e
b0000000001111110 30
b0000000001111001 31
b0000000001110000 32
b0000000001110001 33
b0000000001111111 35
049
#2367
16
09
b00000000000000100111111 d
012
#2368
12
1a
b00000000000000101000000 d
113
129
#2369
11
02
06
b00000000000000101000001 d
013
029
b00000000100000000 2f
034
b0000000010001110 39
b0000000010000100 3a
b0000000010001011 3b
b0000000010001100 3c
b0000000010001000 3d
b0000000010001101 3e
b0000000010001111 3f
b0000000010000000 40
b0000000010000001 41
b0000000010000011 42
b0000000010000111 43
b0000000010001010 44
b0000000010000110 45
b0000000010000101 46
b0000000010000010 47
b0000000010001001 48
#2370
01
0a
1c
b00000000000000101000010 d
113
123
#2371
0c
b00000000000000101000011 d
013
127
134
#2372
b00000000000000101000100 d
111
#2373
b00000000000000101000101 d
11e
#2374
b00000000000000101000110 d
#2375
b00000000000000101000111 d
#2376
b00000000000000101001000 d
#2377
b00000000000000101001001 d
#2378
b00000000000000101001010 d
#2379
b00000000000000101001011 d
#2380
b00000000000000101001100 d
#2381
b00000000000000101001101 d
#2382
b00000000000000101001110 d
#2383
b00000000000000101001111 d
#2384
b00000000000000101010000 d
#2385
b00000000000000101010001 d
#2386
11
b00000000000000101010010 d
114
#2387
10
01
14
1c
b00000000000000101010011 d
1f
023
128
#2388
04
17
0c
b00000000000000101010100 d
0f
011
014
027
028
137
149
#2389
00
07
b00000000000000101010101 d
119
11b
01e
037
049
#2390
b00000000000000101010110 d
#2391
b00000000000000101010111 d
#2392
b00000000000000101011000 d
#2393
b00000000000000101011001 d
#2394
b00000000000000101011010 d
#2395
b00000000000000101011011 d
#2396
b00000000000000101011100 d
#2397
b00000000000000101011101 d
#2398
b00000000000000101011110 d
#2399
b00000000000000101011111 d
#2400
b00000000000000101100000 d
#2401
b00000000000000101100001 d
#2402
15
17
b00000000000000101100010 d
149
#2403
05
07
19
b00000000000000101100011 d
112
b0000000010001010 18
019
b0000000010000100 1a
01b
b0000000010000011 1f
b0000000010001101 20
b0000000010000111 22
b0000000010000010 24
b0000000010000110 25
b0000000010000101 26
b00000000100100000 2a
b0000000010001000 2b
b0000000010001011 2d
b0000000010001100 2e
b0000000010001110 30
b0000000010001001 31
b0000000010000000 32
b0000000010000001 33
b0000000010001111 35
049
#2404
16
09
b00000000000000101100100 d
012
#2405
12
1a
b00000000000000101100101 d
113
129
#2406
11
02
06
b00000000000000101100110 d
013
029
b00000000100100000 2f
034
b0000000010011110 39
b0000000010010100 3a
b0000000010011011 3b
b0000000010011100 3c
b0000000010011000 3d
b0000000010011101 3e
b0000000010011111 3f
b0000000010010000 40
b0000000010010001 41
b0000000010010011 42
b0000000010010111 43
b0000000010011010 44
b0000000010010110 45
b0000000010010101 46
b0000000010010010 47
b0000000010011001 48
#2407
01
0a
1c
b00000000000000101100111 d
113
123
#2408
0c
b00000000000000101101000 d
013
127
134
#2409
b00000000000000101101001 d
111
#2410
b00000000000000101101010 d
11e
#2411
b00000000000000101101011 d
#2412
b00000000000000101101100 d
#2413
b00000000000000101101101 d
#2414
b00000000000000101101110 d
#2415
b00000000000000101101111 d
#2416
b00000000000000101110000 d
#2417
b00000000000000101110001 d
#2418
b00000000000000101110010 d
#2419
b00000000000000101110011 d
#2420
b00000000000000101110100 d
#2421
b00000000000000101110101 d
#2422
b00000000000000101110110 d
#2423
11
b00000000000000101110111 d
114
#2424
10
01
14
1c
b00000000000000101111000 d
1f
023
128
#2425
04
17
0c
b00000000000000101111001 d
0f
011
014
027
028
137
149
#2426
00
07
b00000000000000101111010 d
119
11b
01e
037
049
#2427
b00000000000000101111011 d
#2428
b00000000000000101111100 d
#2429
b00000000000000101111101 d
#2430
b00000000000000101111110 d
#2431
b00000000000000101111111 d
#2432
b00000000000000110000000 d
#2433
b00000000000000110000001 d
#2434
b00000000000000110000010 d
#2435
b00000000000000110000011 d
#2436
b00000000000000110000100 d
#2437
b00000000000000110000101 d
#2438
b00000000000000110000110 d
#2439
15
17
b00000000000000110000111 d
149
#2440
05
07
19
b00000000000000110001000 d
112
b0000000010011010 18
019
b0000000010010100 1a
01b
b0000000010010011 1f
b0000000010011101 20
b0000000010010111 22
b0000000010010010 24
b0000000010010110 25
b0000000010010101 26
b00000000101000000 2a
b0000000010011000 2b
b0000000010011011 2d
b0000000010011100 2e
b0000000010011110 30
b0000000010011001 31
b0000000010010000 32
b0000000010010001 33
b0000000010011111 35
049
#2441
16
09
b00000000000000110001001 d
012
#2442
12
1a
b00000000000000110001010 d
113
129
#2443
11
02
06
b00000000000000110001011 d
013
029
b00000000101000000 2f
034
b0000000010101110 39
b0000000010100100 3a
b0000000010101011 3b
b0000000010101100 3c
b0000000010101000 3d
b0000000010101101 3e
b0000000010101111 3f
b0000000010100000 40
b0000000010100001 41
b0000000010100011 42
b0000000010100111 43
b0000000010101010 44
b0000000010100110 45
b0000000010100101 46
b0000000010100010 47
b0000000010101001 48
#2444
01
0a
1c
b00000000000000110001100 d
113
123
#2445
0c
b00000000000000110001101 d
013
127
134
#2446
b00000000000000110001110 d
111
#2447
b00000000000000110001111 d
11e
#2448
b00000000000000110010000 d
#2449
b00000000000000110010001 d
#2450
b00000000000000110010010 d
#2451
b00000000000000110010011 d
#2452
b00000000000000110010100 d
#2453
b00000000000000110010101 d
#2454
b00000000000000110010110 d
#2455
b00000000000000110010111 d
#2456
b00000000000000110011000 d
#2457
b00000000000000110011001 d
#2458
b00000000000000110011010 d
#2459
b00000000000000110011011 d
#2460
11
b00000000000000110011100 d
114
#2461
10
01
14
1c
b00000000000000110011101 d
1f
023
128
#2462
04
17
0c
b00000000000000110011110 d
0f
011
014
027
028
137
149
#2463
00
07
b00000000000000110011111 d
119
11b
01e
037
049
#2464
b00000000000000110100000 d
#2465
b00000000000000110100001 d
#2466
b00000000000000110100010 d
#2467
b00000000000000110100011 d
#2468
b00000000000000110100100 d
#2469
b00000000000000110100101 d
#2470
b00000000000000110100110 d
#2471
b00000000000000110100111 d
#2472
b00000000000000110101000 d
#2473
b00000000000000110101001 d
#2474
b00000000000000110101010 d
#2475
b00000000000000110101011 d
#2476
15
17
b00000000000000110101100 d
149
#2477
05
07
19
b00000000000000110101101 d
112
b0000000010101010 18
019
b0000000010100100 1a
01b
b0000000010100011 1f
b0000000010101101 20
b0000000010100111 22
b0000000010100010 24
b0000000010100110 25
b0000000010100101 26
b00000000101100000 2a
b0000000010101000 2b
b0000000010101011 2d
b0000000010101100 2e
b0000000010101110 30
b0000000010101001 31
b0000000010100000 32
b0000000010100001 33
b0000000010101111 35
049
#2478
16
09
b00000000000000110101110 d
012
#2479
12
1a
b00000000000000110101111 d
113
129
#2480
11
02
06
b00000000000000110110000 d
013
029
b00000000101100000 2f
034
b0000000010111110 39
b0000000010110100 3a
b0000000010111011 3b
b0000000010111100 3c
b0000000010111000 3d
b0000000010111101 3e
b0000000010111111 3f
b0000000010110000 40
b0000000010110001 41
b0000000010110011 42
b0000000010110111 43
b0000000010111010 44
b0000000010110110 45
b0000000010110101 46
b0000000010110010 47
b0000000010111001 48
#2481
01
0a
1c
b00000000000000110110001 d
113
123
#2482
0c
b00000000000000110110010 d
013
127
134
#2483
b00000000000000110110011 d
111
#2484
b00000000000000110110100 d
11e
#2485
b00000000000000110110101 d
