Efinix/Titanium/MemoryTest/Ti180_FMB_R1W1_k256m32_230125/la0_waveform.vcd
#0 $dumpon
$date today $end
$timescale 1 ns $end
$scope module top $end
$var wire 16 0 memory_checker_0/axi4_write_sequence/r_wdata[8] $end
$var wire 16 1 memory_checker_0/axi4_write_sequence/r_wdata[12] $end
$var wire 16 2 memory_checker_0/axi4_write_sequence/r_wdata[15] $end
$var wire 2 3 memory_checker_0/axi4_write_sequence/q_bresp $end
$var wire 16 4 memory_checker_0/axi4_write_sequence/r_wdata[9] $end
$var wire 16 5 memory_checker_0/axi4_write_sequence/r_wdata[14] $end
$var wire 16 6 memory_checker_0/axi4_write_sequence/r_wdata[4] $end
$var wire 16 7 memory_checker_0/axi4_write_sequence/r_wdata[7] $end
$var wire 16 8 memory_checker_0/axi4_write_sequence/r_wdata[11] $end
$var wire 1 9 memory_checker_0/axi4_write_sequence/r_wstart $end
$var wire 16 a memory_checker_0/axi4_write_sequence/r_wdata[0] $end
$var wire 1 b memory_checker_0/axi4_write_sequence/q_awready $end
$var wire 1 c memory_checker_0/axi4_write_sequence/r_awvalid $end
$var wire 16 d memory_checker_0/axi4_write_sequence/r_wdata[10] $end
$var wire 4 e memory_checker_0/axi4_write_sequence/rBurstCnt $end
$var wire 16 f memory_checker_0/axi4_write_sequence/r_wdata[5] $end
$var wire 16 10 memory_checker_0/axi4_write_sequence/r_wdata[13] $end
$var wire 16 11 memory_checker_0/axi4_write_sequence/r_wdata[1] $end
$var wire 1 12 memory_checker_0/axi4_write_sequence/r_bready $end
$var wire 17 13 memory_checker_0/axi4_write_sequence/r_wrow $end
$var wire 1 14 memory_checker_0/axi4_write_sequence/r_wdone $end
$var wire 1 15 memory_checker_0/axi4_write_sequence/r_wlast $end
$var wire 16 16 memory_checker_0/axi4_write_sequence/r_wdata[2] $end
$var wire 1 17 memory_checker_0/axi4_write_sequence/q_wready $end
$var wire 1 18 memory_checker_0/axi4_write_sequence/qBurstMaxCke $end
$var wire 1 19 memory_checker_0/axi4_write_sequence/r_wvalid $end
$var wire 16 1a memory_checker_0/axi4_write_sequence/r_wdata[3] $end
$var wire 1 1b memory_checker_0/axi4_write_sequence/q_bvalid $end
$var wire 16 1c memory_checker_0/axi4_write_sequence/r_wdata[6] $end
$var wire 16 1d memory_checker_0/axi4_read_sequence/r_rdata[1] $end
$var wire 1 1e memory_checker_0/axi4_read_sequence/q_rvalid $end
$var wire 16 1f memory_checker_0/axi4_read_sequence/r_rdata[0] $end
$var wire 1 20 memory_checker_0/axi4_read_sequence/q_rrast $end
$var wire 16 21 memory_checker_0/axi4_read_sequence/r_rdata[3] $end
$var wire 16 22 memory_checker_0/axi4_read_sequence/r_rdata[5] $end
$var wire 1 23 memory_checker_0/axi4_read_sequence/r_rstart $end
$var wire 16 24 memory_checker_0/axi4_read_sequence/r_rdata[9] $end
$var wire 16 25 memory_checker_0/axi4_read_sequence/r_rdata[12] $end
$var wire 1 26 memory_checker_0/axi4_read_sequence/r_rready $end
$var wire 16 27 memory_checker_0/axi4_read_sequence/r_rdata[8] $end
$var wire 16 28 memory_checker_0/axi4_read_sequence/r_rdata[2] $end
$var wire 16 29 memory_checker_0/axi4_read_sequence/r_rdata[13] $end
$var wire 2 2a memory_checker_0/axi4_read_sequence/q_rresp $end
$var wire 16 2b memory_checker_0/axi4_read_sequence/r_rdata[15] $end
$var wire 16 2c memory_checker_0/axi4_read_sequence/r_rdata[10] $end
$var wire 17 2d memory_checker_0/axi4_read_sequence/r_rrow $end
$var wire 16 2e memory_checker_0/axi4_read_sequence/r_rdata[6] $end
$var wire 16 2f memory_checker_0/axi4_read_sequence/r_rdata[14] $end
$var wire 16 30 memory_checker_0/axi4_read_sequence/r_rdata[4] $end
$var wire 16 31 memory_checker_0/axi4_read_sequence/r_rdata[11] $end
$var wire 1 32 memory_checker_0/axi4_read_sequence/r_arvalid $end
$var wire 1 33 memory_checker_0/axi4_read_sequence/q_arready $end
$var wire 16 34 memory_checker_0/axi4_read_sequence/r_rdata[7] $end
$var wire 1 35 ddr_reset_sequencer/r_ddr_init_done $end
$var wire 1 36 memory_checker_0/iRST $end
$upscope $end
$enddefinitions $end
#0
$dumpvars
b0000000000001000 0
b0000000000001100 1
b0000000000001111 2
b00 3
b0000000000001001 4
b0000000000001110 5
b0000000000000100 6
b0000000000000111 7
b0000000000001011 8
09
b0000000000000000 a
0b
0c
b0000000000001010 d
b0000 e
b0000000000000101 f
b0000000000001101 10
b0000000000000001 11
012
b00000000000000000 13
014
015
b0000000000000010 16
017
018
019
b0000000000000011 1a
01b
b0000000000000110 1c
b0100100000000001 1d
01e
b0100100000000000 1f
020
b0100100000000011 21
b0100100000000101 22
023
b0100100000001001 24
b0100100000001100 25
026
b0100100000001000 27
b0100100000000010 28
b0100100000001101 29
b00 2a
b0100100000001111 2b
b0100100000001010 2c
b00000000000000000 2d
b0100100000000110 2e
b0100100000001110 2f
b0100100000000100 30
b0100100000001011 31
032
033
b0100100000000111 34
035
136
$end
#1024
135
036
#1025
1c
#1026
119
#1027
133
#1028
117
#1029
b0001 e
#1030
b0010 e
#1031
b0011 e
#1032
b0100 e
#1033
b0101 e
#1034
b0110 e
#1035
b0111 e
#1036
b1000 e
#1037
b1001 e
#1038
b1010 e
#1039
b1011 e
#1040
b1100 e
#1041
b1101 e
#1042
1b
b1110 e
#1043
19
0b
0c
b1111 e
115
118
#1044
b0000 e
015
017
018
019
#1063
11b
#1064
112
#1065
b0000000000011000 0
b0000000000011100 1
b0000000000011111 2
b0000000000011001 4
b0000000000011110 5
b0000000000010100 6
b0000000000010111 7
b0000000000011011 8
09
b0000000000010000 a
b0000000000011010 d
b0000000000010101 f
b0000000000011101 10
b0000000000010001 11
012
b00000000000100000 13
114
b0000000000010010 16
b0000000000010011 1a
01b
b0000000000010110 1c
#1066
1c
014
132
#1067
119
123
126
032
#1068
117
#1069
b0001 e
#1070
b0010 e
#1071
b0011 e
#1072
b0100 e
#1073
b0101 e
#1074
b0110 e
#1075
b0111 e
#1076
b1000 e
#1077
b1001 e
11e
#1078
b1010 e
b0000000000000001 1d
b0000000000000000 1f
b0000000000000011 21
b0000000000000101 22
b0000000000001001 24
b0000000000001100 25
b0000000000001000 27
b0000000000000010 28
b0000000000001101 29
b0000000000001111 2b
b0000000000001010 2c
b0000000000000110 2e
b0000000000001110 2f
b0000000000000100 30
b0000000000001011 31
b0000000000000111 34
#1079
b1011 e
#1080
b1100 e
#1081
b1101 e
01e
#1082
1b
b1110 e
#1083
19
0b
0c
b1111 e
115
118
#1084
b0000 e
015
017
018
019
11e
#1088
01e
#1090
11e
#1094
01e
#1096
11e
#1099
120
#1100
01e
020
023
026
b00000000000100000 2d
#1110
11b
#1111
112
#1112
b0000000000101000 0
b0000000000101100 1
b0000000000101111 2
b0000000000101001 4
b0000000000101110 5
b0000000000100100 6
b0000000000100111 7
b0000000000101011 8
09
b0000000000100000 a
b0000000000101010 d
b0000000000100101 f
b0000000000101101 10
b0000000000100001 11
012
b00000000001000000 13
114
b0000000000100010 16
b0000000000100011 1a
01b
b0000000000100110 1c
#1113
1c
014
132
#1114
119
123
126
032
#1115
117
#1116
b0001 e
#1117
b0010 e
#1118
b0011 e
#1119
b0100 e
#1120
b0101 e
#1121
b0110 e
#1122
b0111 e
#1123
b1000 e
#1124
b1001 e
11e
#1125
b1010 e
b0000000000010001 1d
b0000000000010000 1f
b0000000000010011 21
b0000000000010101 22
b0000000000011001 24
b0000000000011100 25
b0000000000011000 27
b0000000000010010 28
b0000000000011101 29
b0000000000011111 2b
b0000000000011010 2c
b0000000000010110 2e
b0000000000011110 2f
b0000000000010100 30
b0000000000011011 31
b0000000000010111 34
#1126
b1011 e
#1127
b1100 e
#1128
b1101 e
01e
#1129
1b
b1110 e
#1130
19
0b
0c
b1111 e
115
118
#1131
b0000 e
015
017
018
019
11e
#1135
01e
#1137
11e
#1141
01e
#1143
11e
#1146
120
#1147
01e
020
023
026
b00000000001000000 2d
#1157
11b
#1158
112
#1159
b0000000000111000 0
b0000000000111100 1
b0000000000111111 2
b0000000000111001 4
b0000000000111110 5
b0000000000110100 6
b0000000000110111 7
b0000000000111011 8
09
b0000000000110000 a
b0000000000111010 d
b0000000000110101 f
b0000000000111101 10
b0000000000110001 11
012
b00000000001100000 13
114
b0000000000110010 16
b0000000000110011 1a
01b
b0000000000110110 1c
#1160
1c
014
132
#1161
119
123
126
032
#1162
117
#1163
b0001 e
#1164
b0010 e
#1165
b0011 e
#1166
b0100 e
#1167
b0101 e
#1168
b0110 e
#1169
b0111 e
#1170
b1000 e
#1171
b1001 e
11e
#1172
b1010 e
b0000000000100001 1d
b0000000000100000 1f
b0000000000100011 21
b0000000000100101 22
b0000000000101001 24
b0000000000101100 25
b0000000000101000 27
b0000000000100010 28
b0000000000101101 29
b0000000000101111 2b
b0000000000101010 2c
b0000000000100110 2e
b0000000000101110 2f
b0000000000100100 30
b0000000000101011 31
b0000000000100111 34
#1173
b1011 e
#1174
b1100 e
#1175
b1101 e
01e
#1176
1b
b1110 e
#1177
19
0b
0c
b1111 e
115
118
#1178
b0000 e
015
017
018
019
11e
#1182
01e
#1184
11e
#1188
01e
#1190
11e
#1193
120
#1194
01e
020
023
026
b00000000001100000 2d
#1204
11b
#1205
112
#1206
b0000000001001000 0
b0000000001001100 1
b0000000001001111 2
b0000000001001001 4
b0000000001001110 5
b0000000001000100 6
b0000000001000111 7
b0000000001001011 8
09
b0000000001000000 a
b0000000001001010 d
b0000000001000101 f
b0000000001001101 10
b0000000001000001 11
012
b00000000010000000 13
114
b0000000001000010 16
b0000000001000011 1a
01b
b0000000001000110 1c
#1207
1c
014
132
#1208
119
123
126
032
#1209
117
#1210
b0001 e
#1211
b0010 e
#1212
b0011 e
#1213
b0100 e
#1214
b0101 e
#1215
b0110 e
#1216
b0111 e
#1217
b1000 e
#1218
b1001 e
#1219
b1010 e
#1220
b1011 e
#1221
b1100 e
#1222
b1101 e
#1223
1b
b1110 e
#1224
19
0b
0c
b1111 e
115
118
#1225
b0000 e
015
017
018
019
#1236
11e
#1237
b0000000000110001 1d
b0000000000110000 1f
b0000000000110011 21
b0000000000110101 22
b0000000000111001 24
b0000000000111100 25
b0000000000111000 27
b0000000000110010 28
b0000000000111101 29
b0000000000111111 2b
b0000000000111010 2c
b0000000000110110 2e
b0000000000111110 2f
b0000000000110100 30
b0000000000111011 31
b0000000000110111 34
#1240
01e
#1243
11e
#1247
01e
#1249
11e
#1253
01e
#1256
11e
#1259
120
#1260
01e
020
023
026
b00000000010000000 2d
#1269
11b
#1270
112
#1271
b0000000001011000 0
b0000000001011100 1
b0000000001011111 2
b0000000001011001 4
b0000000001011110 5
b0000000001010100 6
b0000000001010111 7
b0000000001011011 8
09
b0000000001010000 a
b0000000001011010 d
b0000000001010101 f
b0000000001011101 10
b0000000001010001 11
012
b00000000010100000 13
114
b0000000001010010 16
b0000000001010011 1a
01b
b0000000001010110 1c
#1272
1c
014
132
#1273
119
123
126
032
#1274
117
#1275
b0001 e
#1276
b0010 e
#1277
b0011 e
#1278
b0100 e
#1279
b0101 e
#1280
b0110 e
#1281
b0111 e
#1282
b1000 e
#1283
b1001 e
#1284
b1010 e
#1285
b1011 e
11e
#1286
b1100 e
b0000000001000001 1d
b0000000001000000 1f
b0000000001000011 21
b0000000001000101 22
b0000000001001001 24
b0000000001001100 25
b0000000001001000 27
b0000000001000010 28
b0000000001001101 29
b0000000001001111 2b
b0000000001001010 2c
b0000000001000110 2e
b0000000001001110 2f
b0000000001000100 30
b0000000001001011 31
b0000000001000111 34
#1287
b1101 e
#1288
1b
b1110 e
#1289
19
0b
0c
b1111 e
115
118
01e
#1290
b0000 e
015
017
018
019
#1291
11e
#1295
01e
#1297
11e
#1301
01e
#1304
11e
#1307
120
#1308
01e
020
023
026
b00000000010100000 2d
#1318
11b
#1319
112
#1320
b0000000001101000 0
b0000000001101100 1
b0000000001101111 2
b0000000001101001 4
b0000000001101110 5
b0000000001100100 6
b0000000001100111 7
b0000000001101011 8
09
b0000000001100000 a
b0000000001101010 d
b0000000001100101 f
b0000000001101101 10
b0000000001100001 11
012
b00000000011000000 13
114
b0000000001100010 16
b0000000001100011 1a
01b
b0000000001100110 1c
#1321
1c
014
132
#1322
119
123
126
032
#1323
117
#1324
b0001 e
#1325
b0010 e
#1326
b0011 e
#1327
b0100 e
#1328
b0101 e
#1329
b0110 e
#1330
b0111 e
#1331
b1000 e
#1332
b1001 e
11e
#1333
b1010 e
b0000000001010001 1d
b0000000001010000 1f
b0000000001010011 21
b0000000001010101 22
b0000000001011001 24
b0000000001011100 25
b0000000001011000 27
b0000000001010010 28
b0000000001011101 29
b0000000001011111 2b
b0000000001011010 2c
b0000000001010110 2e
b0000000001011110 2f
b0000000001010100 30
b0000000001011011 31
b0000000001010111 34
#1334
b1011 e
#1335
b1100 e
#1336
b1101 e
01e
#1337
1b
b1110 e
#1338
19
0b
0c
b1111 e
115
118
#1339
b0000 e
015
017
018
019
11e
#1343
01e
#1345
11e
#1349
01e
#1351
11e
#1354
120
#1355
01e
020
023
026
b00000000011000000 2d
#1365
11b
#1366
112
#1367
b0000000001111000 0
b0000000001111100 1
b0000000001111111 2
b0000000001111001 4
b0000000001111110 5
b0000000001110100 6
b0000000001110111 7
b0000000001111011 8
09
b0000000001110000 a
b0000000001111010 d
b0000000001110101 f
b0000000001111101 10
b0000000001110001 11
012
b00000000011100000 13
114
b0000000001110010 16
b0000000001110011 1a
01b
b0000000001110110 1c
#1368
1c
014
132
#1369
119
123
126
032
#1370
117
#1371
b0001 e
#1372
b0010 e
#1373
b0011 e
#1374
b0100 e
#1375
b0101 e
#1376
b0110 e
#1377
b0111 e
#1378
b1000 e
#1379
b1001 e
11e
#1380
b1010 e
b0000000001100001 1d
b0000000001100000 1f
b0000000001100011 21
b0000000001100101 22
b0000000001101001 24
b0000000001101100 25
b0000000001101000 27
b0000000001100010 28
b0000000001101101 29
b0000000001101111 2b
b0000000001101010 2c
b0000000001100110 2e
b0000000001101110 2f
b0000000001100100 30
b0000000001101011 31
b0000000001100111 34
#1381
b1011 e
#1382
b1100 e
#1383
b1101 e
01e
#1384
1b
b1110 e
#1385
19
0b
0c
b1111 e
115
118
#1386
b0000 e
015
017
018
019
11e
#1390
01e
#1392
11e
#1396
01e
#1405
11e
#1408
120
#1409
01e
020
023
026
b00000000011100000 2d
#1419
11b
#1420
112
#1421
b0000000010001000 0
b0000000010001100 1
b0000000010001111 2
b0000000010001001 4
b0000000010001110 5
b0000000010000100 6
b0000000010000111 7
b0000000010001011 8
09
b0000000010000000 a
b0000000010001010 d
b0000000010000101 f
b0000000010001101 10
b0000000010000001 11
012
b00000000100000000 13
114
b0000000010000010 16
b0000000010000011 1a
01b
b0000000010000110 1c
#1422
1c
014
132
#1423
119
123
126
032
#1424
117
#1425
b0001 e
#1426
b0010 e
#1427
b0011 e
#1428
b0100 e
#1429
b0101 e
#1430
b0110 e
#1431
b0111 e
#1432
b1000 e
#1433
b1001 e
11e
#1434
b1010 e
b0000000001110001 1d
b0000000001110000 1f
b0000000001110011 21
b0000000001110101 22
b0000000001111001 24
b0000000001111100 25
b0000000001111000 27
b0000000001110010 28
b0000000001111101 29
b0000000001111111 2b
b0000000001111010 2c
b0000000001110110 2e
b0000000001111110 2f
b0000000001110100 30
b0000000001111011 31
b0000000001110111 34
#1435
b1011 e
#1436
b1100 e
#1437
b1101 e
01e
#1438
1b
b1110 e
#1439
19
0b
0c
b1111 e
115
118
#1440
b0000 e
015
017
018
019
11e
#1444
01e
#1446
11e
#1450
01e
#1452
11e
#1455
120
#1456
01e
020
023
026
b00000000100000000 2d
#1466
11b
#1467
112
#1468
b0000000010011000 0
b0000000010011100 1
b0000000010011111 2
b0000000010011001 4
b0000000010011110 5
b0000000010010100 6
b0000000010010111 7
b0000000010011011 8
09
b0000000010010000 a
b0000000010011010 d
b0000000010010101 f
b0000000010011101 10
b0000000010010001 11
012
b00000000100100000 13
114
b0000000010010010 16
b0000000010010011 1a
01b
b0000000010010110 1c
#1469
1c
014
132
#1470
119
123
126
032
#1471
117
#1472
b0001 e
#1473
b0010 e
#1474
b0011 e
#1475
b0100 e
#1476
b0101 e
#1477
b0110 e
#1478
b0111 e
#1479
b1000 e
#1480
b1001 e
11e
#1481
b1010 e
b0000000010000001 1d
b0000000010000000 1f
b0000000010000011 21
b0000000010000101 22
b0000000010001001 24
b0000000010001100 25
b0000000010001000 27
b0000000010000010 28
b0000000010001101 29
b0000000010001111 2b
b0000000010001010 2c
b0000000010000110 2e
b0000000010001110 2f
b0000000010000100 30
b0000000010001011 31
b0000000010000111 34
#1482
b1011 e
#1483
b1100 e
#1484
b1101 e
01e
#1485
1b
b1110 e
#1486
19
0b
0c
b1111 e
115
118
#1487
b0000 e
015
017
018
019
11e
#1491
01e
#1493
11e
#1497
01e
#1499
11e
#1502
120
#1503
01e
020
023
026
b00000000100100000 2d
#1513
11b
#1514
112
#1515
b0000000010101000 0
b0000000010101100 1
b0000000010101111 2
b0000000010101001 4
b0000000010101110 5
b0000000010100100 6
b0000000010100111 7
b0000000010101011 8
09
b0000000010100000 a
b0000000010101010 d
b0000000010100101 f
b0000000010101101 10
b0000000010100001 11
012
b00000000101000000 13
114
b0000000010100010 16
b0000000010100011 1a
01b
b0000000010100110 1c
#1516
1c
014
132
#1517
119
123
126
032
#1518
117
#1519
b0001 e
#1520
b0010 e
#1521
b0011 e
#1522
b0100 e
#1523
b0101 e
#1524
b0110 e
#1525
b0111 e
#1526
b1000 e
#1527
b1001 e
11e
#1528
b1010 e
b0000000010010001 1d
b0000000010010000 1f
b0000000010010011 21
b0000000010010101 22
b0000000010011001 24
b0000000010011100 25
b0000000010011000 27
b0000000010010010 28
b0000000010011101 29
b0000000010011111 2b
b0000000010011010 2c
b0000000010010110 2e
b0000000010011110 2f
b0000000010010100 30
b0000000010011011 31
b0000000010010111 34
#1529
b1011 e
#1530
b1100 e
#1531
b1101 e
01e
#1532
1b
b1110 e
#1533
19
0b
0c
b1111 e
115
118
#1534
b0000 e
015
017
018
019
11e
#1538
01e
#1540
11e
#1544
01e
#1546
11e
#1549
120
#1550
01e
020
023
026
b00000000101000000 2d
#1560
11b
#1561
112
#1562
b0000000010111000 0
b0000000010111100 1
b0000000010111111 2
b0000000010111001 4
b0000000010111110 5
b0000000010110100 6
b0000000010110111 7
b0000000010111011 8
09
b0000000010110000 a
b0000000010111010 d
b0000000010110101 f
b0000000010111101 10
b0000000010110001 11
012
b00000000101100000 13
114
b0000000010110010 16
b0000000010110011 1a
01b
b0000000010110110 1c
#1563
1c
014
132
#1564
119
123
126
032
#1565
117
#1566
b0001 e
#1567
b0010 e
#1568
b0011 e
#1569
b0100 e
#1570
b0101 e
#1571
b0110 e
#1572
b0111 e
#1573
b1000 e
#1574
b1001 e
11e
#1575
b1010 e
b0000000010100001 1d
b0000000010100000 1f
b0000000010100011 21
b0000000010100101 22
b0000000010101001 24
b0000000010101100 25
b0000000010101000 27
b0000000010100010 28
b0000000010101101 29
b0000000010101111 2b
b0000000010101010 2c
b0000000010100110 2e
b0000000010101110 2f
b0000000010100100 30
b0000000010101011 31
b0000000010100111 34
#1576
b1011 e
#1577
b1100 e
#1578
b1101 e
01e
#1579
1b
b1110 e
#1580
19
0b
0c
b1111 e
115
118
#1581
b0000 e
015
017
018
019
11e
#1585
01e
#1587
11e
#1591
01e
#1593
11e
#1596
120
#1597
01e
020
023
026
b00000000101100000 2d
#1607
11b
#1608
112
#1609
b0000000011001000 0
b0000000011001100 1
b0000000011001111 2
b0000000011001001 4
b0000000011001110 5
b0000000011000100 6
b0000000011000111 7
b0000000011001011 8
09
b0000000011000000 a
b0000000011001010 d
b0000000011000101 f
b0000000011001101 10
b0000000011000001 11
012
b00000000110000000 13
114
b0000000011000010 16
b0000000011000011 1a
01b
b0000000011000110 1c
#1610
1c
014
132
#1611
119
123
126
032
#1612
117
#1613
b0001 e
#1614
b0010 e
#1615
b0011 e
#1616
b0100 e
#1617
b0101 e
#1618
b0110 e
#1619
b0111 e
#1620
b1000 e
#1621
b1001 e
11e
#1622
b1010 e
b0000000010110001 1d
b0000000010110000 1f
b0000000010110011 21
b0000000010110101 22
b0000000010111001 24
b0000000010111100 25
b0000000010111000 27
b0000000010110010 28
b0000000010111101 29
b0000000010111111 2b
b0000000010111010 2c
b0000000010110110 2e
b0000000010111110 2f
b0000000010110100 30
b0000000010111011 31
b0000000010110111 34
#1623
b1011 e
#1624
b1100 e
#1625
b1101 e
01e
#1626
1b
b1110 e
#1627
19
0b
0c
b1111 e
115
118
#1628
b0000 e
015
017
018
019
11e
#1632
01e
#1634
11e
#1638
01e
#1640
11e
#1643
120
#1644
01e
020
023
026
b00000000110000000 2d
#1664
11b
#1665
112
#1666
b0000000011011000 0
b0000000011011100 1
b0000000011011111 2
b0000000011011001 4
b0000000011011110 5
b0000000011010100 6
b0000000011010111 7
b0000000011011011 8
09
b0000000011010000 a
b0000000011011010 d
b0000000011010101 f
b0000000011011101 10
b0000000011010001 11
012
b00000000110100000 13
114
b0000000011010010 16
b0000000011010011 1a
01b
b0000000011010110 1c
#1667
1c
014
132
#1668
119
123
126
032
#1669
117
#1670
b0001 e
#1671
b0010 e
#1672
b0011 e
#1673
b0100 e
#1674
b0101 e
#1675
b0110 e
#1676
b0111 e
#1677
b1000 e
#1678
b1001 e
11e
#1679
b1010 e
b0000000011000001 1d
b0000000011000000 1f
b0000000011000011 21
b0000000011000101 22
b0000000011001001 24
b0000000011001100 25
b0000000011001000 27
b0000000011000010 28
b0000000011001101 29
b0000000011001111 2b
b0000000011001010 2c
b0000000011000110 2e
b0000000011001110 2f
b0000000011000100 30
b0000000011001011 31
b0000000011000111 34
#1680
b1011 e
#1681
b1100 e
#1682
b1101 e
01e
#1683
1b
b1110 e
#1684
19
0b
0c
b1111 e
115
118
#1685
b0000 e
015
017
018
019
11e
#1689
01e
#1691
11e
#1695
01e
#1697
11e
#1700
120
#1701
01e
020
023
026
b00000000110100000 2d
#1711
11b
#1712
112
#1713
b0000000011101000 0
b0000000011101100 1
b0000000011101111 2
b0000000011101001 4
b0000000011101110 5
b0000000011100100 6
b0000000011100111 7
b0000000011101011 8
09
b0000000011100000 a
b0000000011101010 d
b0000000011100101 f
b0000000011101101 10
b0000000011100001 11
012
b00000000111000000 13
114
b0000000011100010 16
b0000000011100011 1a
01b
b0000000011100110 1c
#1714
1c
014
132
#1715
119
123
126
032
#1716
117
#1717
b0001 e
#1718
b0010 e
#1719
b0011 e
#1720
b0100 e
#1721
b0101 e
#1722
b0110 e
#1723
b0111 e
#1724
b1000 e
#1725
b1001 e
#1726
b1010 e
#1727
b1011 e
#1728
b1100 e
#1729
b1101 e
#1730
1b
b1110 e
#1731
19
0b
0c
b1111 e
115
118
#1732
b0000 e
015
017
018
019
#1743
11e
#1744
b0000000011010001 1d
b0000000011010000 1f
b0000000011010011 21
b0000000011010101 22
b0000000011011001 24
b0000000011011100 25
b0000000011011000 27
b0000000011010010 28
b0000000011011101 29
b0000000011011111 2b
b0000000011011010 2c
b0000000011010110 2e
b0000000011011110 2f
b0000000011010100 30
b0000000011011011 31
b0000000011010111 34
#1747
01e
#1750
11e
#1754
01e
#1756
11e
#1760
01e
#1763
11e
#1766
120
#1767
01e
020
023
026
b00000000111000000 2d
#1776
11b
#1777
112
#1778
b0000000011111000 0
b0000000011111100 1
b0000000011111111 2
b0000000011111001 4
b0000000011111110 5
b0000000011110100 6
b0000000011110111 7
b0000000011111011 8
09
b0000000011110000 a
b0000000011111010 d
b0000000011110101 f
b0000000011111101 10
b0000000011110001 11
012
b00000000111100000 13
114
b0000000011110010 16
b0000000011110011 1a
01b
b0000000011110110 1c
#1779
1c
014
132
#1780
119
123
126
032
#1781
117
#1782
b0001 e
#1783
b0010 e
#1784
b0011 e
#1785
b0100 e
#1786
b0101 e
#1787
b0110 e
#1788
b0111 e
#1789
b1000 e
#1790
b1001 e
11e
#1791
b1010 e
b0000000011100001 1d
b0000000011100000 1f
b0000000011100011 21
b0000000011100101 22
b0000000011101001 24
b0000000011101100 25
b0000000011101000 27
b0000000011100010 28
b0000000011101101 29
b0000000011101111 2b
b0000000011101010 2c
b0000000011100110 2e
b0000000011101110 2f
b0000000011100100 30
b0000000011101011 31
b0000000011100111 34
#1792
b1011 e
#1793
b1100 e
#1794
b1101 e
01e
#1795
1b
b1110 e
#1796
19
0b
0c
b1111 e
115
118
#1797
b0000 e
015
017
018
019
11e
#1801
01e
#1803
11e
#1807
01e
#1809
11e
#1812
120
#1813
01e
020
023
026
b00000000111100000 2d
#1823
11b
#1824
112
#1825
b0000000100001000 0
b0000000100001100 1
b0000000100001111 2
b0000000100001001 4
b0000000100001110 5
b0000000100000100 6
b0000000100000111 7
b0000000100001011 8
09
b0000000100000000 a
b0000000100001010 d
b0000000100000101 f
b0000000100001101 10
b0000000100000001 11
012
b00000001000000000 13
114
b0000000100000010 16
b0000000100000011 1a
01b
b0000000100000110 1c
#1826
1c
014
132
#1827
119
123
126
032
#1828
117
#1829
b0001 e
#1830
b0010 e
#1831
b0011 e
#1832
b0100 e
#1833
b0101 e
#1834
b0110 e
#1835
b0111 e
#1836
b1000 e
#1837
b1001 e
11e
#1838
b1010 e
b0000000011110001 1d
b0000000011110000 1f
b0000000011110011 21
b0000000011110101 22
b0000000011111001 24
b0000000011111100 25
b0000000011111000 27
b0000000011110010 28
b0000000011111101 29
b0000000011111111 2b
b0000000011111010 2c
b0000000011110110 2e
b0000000011111110 2f
b0000000011110100 30
b0000000011111011 31
b0000000011110111 34
#1839
b1011 e
#1840
b1100 e
#1841
b1101 e
01e
#1842
1b
b1110 e
#1843
19
0b
0c
b1111 e
115
118
#1844
b0000 e
015
017
018
019
11e
#1848
01e
#1850
11e
#1854
01e
#1857
11e
#1860
120
#1861
01e
020
023
026
b00000001000000000 2d
#1870
11b
#1871
112
#1872
b0000000100011000 0
b0000000100011100 1
b0000000100011111 2
b0000000100011001 4
b0000000100011110 5
b0000000100010100 6
b0000000100010111 7
b0000000100011011 8
09
b0000000100010000 a
b0000000100011010 d
b0000000100010101 f
b0000000100011101 10
b0000000100010001 11
012
b00000001000100000 13
114
b0000000100010010 16
b0000000100010011 1a
01b
b0000000100010110 1c
#1873
1c
014
132
#1874
119
123
126
032
#1875
117
#1876
b0001 e
#1877
b0010 e
#1878
b0011 e
#1879
b0100 e
#1880
b0101 e
#1881
b0110 e
#1882
b0111 e
#1883
b1000 e
#1884
b1001 e
11e
#1885
b1010 e
b0000000100000001 1d
b0000000100000000 1f
b0000000100000011 21
b0000000100000101 22
b0000000100001001 24
b0000000100001100 25
b0000000100001000 27
b0000000100000010 28
b0000000100001101 29
b0000000100001111 2b
b0000000100001010 2c
b0000000100000110 2e
b0000000100001110 2f
b0000000100000100 30
b0000000100001011 31
b0000000100000111 34
#1886
b1011 e
#1887
b1100 e
#1888
b1101 e
01e
#1889
1b
b1110 e
#1890
19
0b
0c
b1111 e
115
118
#1891
b0000 e
015
017
018
019
11e
#1895
01e
#1897
11e
#1901
01e
#1903
11e
#1906
120
#1907
01e
020
023
026
b00000001000100000 2d
#1917
11b
#1918
112
#1919
b0000000100101000 0
b0000000100101100 1
b0000000100101111 2
b0000000100101001 4
b0000000100101110 5
b0000000100100100 6
b0000000100100111 7
b0000000100101011 8
09
b0000000100100000 a
b0000000100101010 d
b0000000100100101 f
b0000000100101101 10
b0000000100100001 11
012
b00000001001000000 13
114
b0000000100100010 16
b0000000100100011 1a
01b
b0000000100100110 1c
#1920
1c
014
132
#1921
119
123
126
032
#1922
117
#1923
b0001 e
#1924
b0010 e
#1925
b0011 e
#1926
b0100 e
#1927
b0101 e
#1928
b0110 e
#1929
b0111 e
#1930
b1000 e
#1931
b1001 e
11e
#1932
b1010 e
b0000000100010001 1d
b0000000100010000 1f
b0000000100010011 21
b0000000100010101 22
b0000000100011001 24
b0000000100011100 25
b0000000100011000 27
b0000000100010010 28
b0000000100011101 29
b0000000100011111 2b
b0000000100011010 2c
b0000000100010110 2e
b0000000100011110 2f
b0000000100010100 30
b0000000100011011 31
b0000000100010111 34
#1933
b1011 e
#1934
b1100 e
#1935
b1101 e
01e
#1936
1b
b1110 e
#1937
19
0b
0c
b1111 e
115
118
#1938
b0000 e
015
017
018
019
11e
#1942
01e
#1944
11e
#1948
01e
#1950
11e
#1953
120
#1954
01e
020
023
026
b00000001001000000 2d
#1964
11b
#1965
112
#1966
b0000000100111000 0
b0000000100111100 1
b0000000100111111 2
b0000000100111001 4
b0000000100111110 5
b0000000100110100 6
b0000000100110111 7
b0000000100111011 8
09
b0000000100110000 a
b0000000100111010 d
b0000000100110101 f
b0000000100111101 10
b0000000100110001 11
012
b00000001001100000 13
114
b0000000100110010 16
b0000000100110011 1a
01b
b0000000100110110 1c
#1967
1c
014
132
#1968
119
123
126
032
#1969
117
#1970
b0001 e
#1971
b0010 e
#1972
b0011 e
#1973
b0100 e
#1974
b0101 e
#1975
b0110 e
#1976
b0111 e
#1977
b1000 e
#1978
b1001 e
11e
#1979
b1010 e
b0000000100100001 1d
b0000000100100000 1f
b0000000100100011 21
b0000000100100101 22
b0000000100101001 24
b0000000100101100 25
b0000000100101000 27
b0000000100100010 28
b0000000100101101 29
b0000000100101111 2b
b0000000100101010 2c
b0000000100100110 2e
b0000000100101110 2f
b0000000100100100 30
b0000000100101011 31
b0000000100100111 34
#1980
b1011 e
#1981
b1100 e
#1982
b1101 e
01e
#1983
1b
b1110 e
#1984
19
0b
0c
b1111 e
115
118
#1985
b0000 e
015
017
018
019
11e
#1989
01e
#1991
11e
#1995
01e
#1997
11e
#2000
120
#2001
01e
020
023
026
b00000001001100000 2d
