Efinix/Titanium/MemoryTest/Ti180_FMB_R1W1_k256m32_230125/la0_waveform.vcd
#0 $dumpon
$date today $end
$timescale 1 ns $end
$scope module top $end
$var wire 1 0 memory_checker_0/iRlast_mon $end
$var wire 2 1 memory_checker_0/iBresp_mon $end
$var wire 6 2 memory_checker_0/iBid_mon $end
$var wire 2 3 memory_checker_0/iRresp_mon $end
$var wire 6 4 memory_checker_0/iRid_mon $end
$var wire 1 5 memory_checker_0/iARready_mon $end
$var wire 1 6 memory_checker_0/iWready_mon $end
$var wire 1 7 memory_checker_0/iAWready_mon $end
$var wire 1 8 memory_checker_0/iRvalid_mon $end
$var wire 1 9 memory_checker_0/iBvalid_mon $end
$var wire 1 a memory_checker_0/oARvalid_mon $end
$var wire 1 b memory_checker_0/oWlast_mon $end
$var wire 1 c memory_checker_0/oWvalid_mon $end
$var wire 1 d memory_checker_0/oRcs_mon $end
$var wire 3 e memory_checker_0/oWbank_mon $end
$var wire 3 f memory_checker_0/oRbank_mon $end
$var wire 10 10 memory_checker_0/oRcol_mon $end
$var wire 17 11 memory_checker_0/oRrow_mon $end
$var wire 32 12 memory_checker_0/oRdata_mon $end
$var wire 1 13 memory_checker_0/oRready_mon $end
$var wire 1 14 memory_checker_0/oWcs_mon $end
$var wire 32 15 memory_checker_0/oWdata_mon $end
$var wire 10 16 memory_checker_0/oWcol_mon $end
$var wire 1 17 memory_checker_0/oAWvalid_mon $end
$var wire 1 18 memory_checker_0/oBready_mon $end
$var wire 17 19 memory_checker_0/oWrow_mon $end
$var wire 1 1a memory_checker_0/iRST $end
$upscope $end
$enddefinitions $end
#0
$dumpvars
00
b00 1
b000000 2
b00 3
b000000 4
05
06
07
08
09
0a
0b
0c
0d
b000 e
b000 f
b0000000000 10
b00000000000000000 11
b00000000000000000000000000000000 12
013
014
b00000000000000000000000000000000 15
b0000000000 16
017
018
b00000000000000000 19
11a
$end
#2048
01a
#2050
1a
1b
1c
117
#2052
15
#2053
16
17
0a
#2054
b10 1
07
0c
b00000000000000000000000000000001 15
017
#2055
06
117
#2056
1c
#2057
16
#2058
0c
#2059
06
#2060
16
1c
#2061
0c
#2062
b10 3
06
#2063
16
1c
b11111111111111111111111111111111 12
#2064
18
0c
#2065
06
113
#2066
10
16
1c
#2067
00
b00 3
08
0c
#2068
06
b00000000000000000000000000000000 12
013
#2069
16
1c
#2070
0c
#2071
06
#2072
16
1c
#2073
0c
#2074
06
#2075
16
1c
#2076
0c
#2077
06
#2078
16
1c
#2079
0c
#2080
06
#2081
16
1c
#2082
0c
#2083
06
#2084
16
1c
#2085
0c
#2086
06
#2087
16
1c
#2088
0c
#2089
06
#2090
16
1c
#2091
0c
#2092
06
#2093
16
1c
#2094
0c
#2095
06
#2096
16
1c
#2097
0c
#2098
06
#2099
16
1c
#2100
0c
#2101
06
#2102
1c
#4095
00
b10 1
b000000 2
b00 3
b000000 4
15
06
07
08
09
0a
1b
1c
0d
b000 e
b000 f
b0000000000 10
b00000000000000000 11
b00000000000000000000000000000000 12
013
014
b00000000000000000000000000000001 15
b0000000000 16
117
018
b00000000000000000 19
01a
