Efinix/Titanium/MemoryTest/Ti180_FMB_R1W1_k256m32_230125/la0_waveform.vcd
#0 $dumpon
$date today $end
$timescale 1 ns $end
$scope module top $end
$var wire 1 0 ddr_reset_sequencer/r_ddr_init_done $end
$var wire 3 1 memory_checker_0/axi4_read_sequence/axi4_adrs_generator/rBank $end
$var wire 10 2 memory_checker_0/axi4_read_sequence/axi4_adrs_generator/rCol $end
$var wire 14 3 memory_checker_0/axi4_read_sequence/axi4_adrs_generator/rRow $end
$var wire 1 4 memory_checker_0/axi4_read_sequence/q_arready $end
$var wire 1 5 memory_checker_0/axi4_read_sequence/q_rrast $end
$var wire 2 6 memory_checker_0/axi4_read_sequence/q_rresp $end
$var wire 1 7 memory_checker_0/axi4_read_sequence/q_rvalid $end
$var wire 8 8 memory_checker_0/axi4_read_sequence/rRSpeedMeas $end
$var wire 1 9 memory_checker_0/axi4_read_sequence/r_arvalid $end
$var wire 32 a memory_checker_0/axi4_read_sequence/r_rdata[0] $end
$var wire 32 b memory_checker_0/axi4_read_sequence/r_rdata[10] $end
$var wire 32 c memory_checker_0/axi4_read_sequence/r_rdata[11] $end
$var wire 32 d memory_checker_0/axi4_read_sequence/r_rdata[12] $end
$var wire 32 e memory_checker_0/axi4_read_sequence/r_rdata[13] $end
$var wire 32 f memory_checker_0/axi4_read_sequence/r_rdata[14] $end
$var wire 32 10 memory_checker_0/axi4_read_sequence/r_rdata[15] $end
$var wire 32 11 memory_checker_0/axi4_read_sequence/r_rdata[1] $end
$var wire 32 12 memory_checker_0/axi4_read_sequence/r_rdata[2] $end
$var wire 32 13 memory_checker_0/axi4_read_sequence/r_rdata[3] $end
$var wire 32 14 memory_checker_0/axi4_read_sequence/r_rdata[4] $end
$var wire 32 15 memory_checker_0/axi4_read_sequence/r_rdata[5] $end
$var wire 32 16 memory_checker_0/axi4_read_sequence/r_rdata[6] $end
$var wire 32 17 memory_checker_0/axi4_read_sequence/r_rdata[7] $end
$var wire 32 18 memory_checker_0/axi4_read_sequence/r_rdata[8] $end
$var wire 32 19 memory_checker_0/axi4_read_sequence/r_rdata[9] $end
$var wire 1 1a memory_checker_0/axi4_read_sequence/r_rready $end
$var wire 1 1b memory_checker_0/axi4_read_sequence/r_rstart $end
$var wire 1 1c memory_checker_0/axi4_read_sequence/r_rvalid $end
$var wire 3 1d memory_checker_0/axi4_write_sequence/axi4_adrs_generator/rBank $end
$var wire 10 1e memory_checker_0/axi4_write_sequence/axi4_adrs_generator/rCol $end
$var wire 14 1f memory_checker_0/axi4_write_sequence/axi4_adrs_generator/rRow $end
$var wire 1 20 memory_checker_0/axi4_write_sequence/qBurstMaxCke $end
$var wire 1 21 memory_checker_0/axi4_write_sequence/q_awready $end
$var wire 2 22 memory_checker_0/axi4_write_sequence/q_bresp $end
$var wire 1 23 memory_checker_0/axi4_write_sequence/q_bvalid $end
$var wire 1 24 memory_checker_0/axi4_write_sequence/q_wready $end
$var wire 3 25 memory_checker_0/axi4_write_sequence/rABuffAdrs $end
$var wire 8 26 memory_checker_0/axi4_write_sequence/rABuff[0] $end
$var wire 8 27 memory_checker_0/axi4_write_sequence/rABuff[1] $end
$var wire 8 28 memory_checker_0/axi4_write_sequence/rABuff[2] $end
$var wire 8 29 memory_checker_0/axi4_write_sequence/rABuff[3] $end
$var wire 8 2a memory_checker_0/axi4_write_sequence/rABuff[4] $end
$var wire 8 2b memory_checker_0/axi4_write_sequence/rABuff[5] $end
$var wire 8 2c memory_checker_0/axi4_write_sequence/rABuff[6] $end
$var wire 8 2d memory_checker_0/axi4_write_sequence/rABuff[7] $end
$var wire 4 2e memory_checker_0/axi4_write_sequence/rBurstCnt $end
$var wire 11 2f memory_checker_0/axi4_write_sequence/rTotalAverage $end
$var wire 8 30 memory_checker_0/axi4_write_sequence/rWSpeedMeas $end
$var wire 1 31 memory_checker_0/axi4_write_sequence/r_awvalid $end
$var wire 1 32 memory_checker_0/axi4_write_sequence/r_bready $end
$var wire 32 33 memory_checker_0/axi4_write_sequence/r_wdata[0] $end
$var wire 32 34 memory_checker_0/axi4_write_sequence/r_wdata[10] $end
$var wire 32 35 memory_checker_0/axi4_write_sequence/r_wdata[11] $end
$var wire 32 36 memory_checker_0/axi4_write_sequence/r_wdata[12] $end
$var wire 32 37 memory_checker_0/axi4_write_sequence/r_wdata[13] $end
$var wire 32 38 memory_checker_0/axi4_write_sequence/r_wdata[14] $end
$var wire 32 39 memory_checker_0/axi4_write_sequence/r_wdata[15] $end
$var wire 32 3a memory_checker_0/axi4_write_sequence/r_wdata[1] $end
$var wire 32 3b memory_checker_0/axi4_write_sequence/r_wdata[2] $end
$var wire 32 3c memory_checker_0/axi4_write_sequence/r_wdata[3] $end
$var wire 32 3d memory_checker_0/axi4_write_sequence/r_wdata[4] $end
$var wire 32 3e memory_checker_0/axi4_write_sequence/r_wdata[5] $end
$var wire 32 3f memory_checker_0/axi4_write_sequence/r_wdata[6] $end
$var wire 32 40 memory_checker_0/axi4_write_sequence/r_wdata[7] $end
$var wire 32 41 memory_checker_0/axi4_write_sequence/r_wdata[8] $end
$var wire 32 42 memory_checker_0/axi4_write_sequence/r_wdata[9] $end
$var wire 1 43 memory_checker_0/axi4_write_sequence/r_wdone $end
$var wire 1 44 memory_checker_0/axi4_write_sequence/r_wlast $end
$var wire 1 45 memory_checker_0/axi4_write_sequence/r_wstart $end
$var wire 1 46 memory_checker_0/axi4_write_sequence/r_wvalid $end
$var wire 1 47 memory_checker_0/iRST $end
$var wire 8 48 memory_checker_0/axi4_write_sequence/qTotalAverage $end
$upscope $end
$enddefinitions $end
#0
$dumpvars
10
b011 1
b0000100000 2
b01100011000000 3
14
05
b00 6
17
b00100101 8
09
b11101011010100010110001101010000 a
b11101011010000010110001101011010 b
b11101011010000010110001101011011 c
b11101011010100010110001101011100 d
b11101011010000010110001101011101 e
b11101011010100010110001101011110 f
b11101011011000010110001101011111 10
b11101011010000010110001101010001 11
b11101011010100010110001101010010 12
b11101011010000010110001101010011 13
b11101011010101010110001101010100 14
b11101011010000010110001101010101 15
b11101011010100010110001101010110 16
b11101011010000010110001101010111 17
b11101011010100010110001101011000 18
b11101011010000010110001101011001 19
11a
11b
01c
b011 1d
b0000100000 1e
b01100100000000 1f
020
021
b00 22
023
024
b100 25
b01001101 26
b00111000 27
b00111111 28
b01000011 29
b00111000 2a
b00111110 2b
b00111000 2c
b01000001 2d
b0000 2e
b00111110110 2f
b00100101 30
031
032
b10001010011000010110010100000000 33
b10001010011000010110010100001010 34
b10001010011000010110010100001011 35
b10001010011000010110010100001100 36
b10001010011000010110010100001101 37
b10001010011000010110010100001110 38
b10001010011000010110010100001111 39
b10001010011000010110010100000001 3a
b10001010011000010110010100000010 3b
b10001010011000010110010100000011 3c
b10001010011000010110010100000100 3d
b10001010011000010110010100000101 3e
b10001010011000010110010100000110 3f
b10001010011000010110010100000111 40
b10001010011000010110010100001000 41
b10001010011000010110010100001001 42
043
044
145
046
047
b00111110 48
$end
#1
b00100110 8
b11101011011000010110001101100000 a
b11101011011000010110001101101010 b
b11101011011000010110001101101011 c
b11101011011000010110001101101100 d
b11101011011000010110001101101101 e
b11101011011000010110001101101110 f
b11101011011000010110001101101111 10
b11101011011000010110001101100001 11
b11101011011000010110001101100010 12
b11101011011000010110001101100011 13
b11101011011000010110001101100100 14
b11101011011000010110001101100101 15
b11101011011000010110001101100110 16
b11101011011000010110001101100111 17
b11101011011000010110001101101000 18
b11101011011000010110001101101001 19
11c
b00100110 30
#2
07
b00100111 8
b11101011011000010110001101110000 a
b11101011011000010110001101111010 b
b11101011011000010110001101111011 c
b11101011011000010110001101111100 d
b11101011011000010110001101111101 e
b11101011011000010110001101111110 f
b11101011011000010110001101111111 10
b11101011011000010110001101110001 11
b11101011011100010110001101110010 12
b11101011011000010110001101110011 13
b11101011011000010110001101110100 14
b11101011011000010110001101110101 15
b11101011011000010110001101110110 16
b11101011011000010110001101110111 17
b11101011011000010110001101111000 18
b11101011011000010110001101111001 19
b00100111 30
#3
b00101000 8
01c
b00101000 30
#4
17
b00101001 8
b00101001 30
#5
b00101010 8
b11101011000000010110001110000000 a
b11101011000000010110001110001010 b
b11101011010000010110001110001011 c
b11101011000000010110001110001100 d
b11101011011000010110001110001101 e
b11101011000000010110001110001110 f
b11101011010000010110001110001111 10
b11101011010000010110001110000001 11
b11101011000000010110001110000010 12
b11101011010000010110001110000011 13
b11101011000000010110001110000100 14
b11101011010000010110001110000101 15
b11101011000000010110001110000110 16
b11101011010000010110001110000111 17
b11101011000000010110001110001000 18
b11101011010000010110001110001001 19
11c
b00101010 30
#6
07
b00101011 8
b11101011000100010110001110010000 a
b11101011000100010110001110011010 b
b11101011010000010110001110011011 c
b11101011000000010110001110011100 d
b11101011010000010110001110011101 e
b11101011000000010110001110011110 f
b11101011011000010110001110011111 10
b11101011010000010110001110010001 11
b11101011000100010110001110010010 12
b11101011010000010110001110010011 13
b11101011000101010110001110010100 14
b11101011010000010110001110010101 15
b11101011000100010110001110010110 16
b11101011010000010110001110010111 17
b11101011000000010110001110011000 18
b11101011010000010110001110011001 19
b00101011 30
#7
b00101100 8
01c
b00101100 30
#8
b00101101 8
b00101101 30
#9
17
b00101110 8
b00101110 30
#10
b00101111 8
b11101011001000010110001110100000 a
b11101011001000010110001110101010 b
b11101011011000010110001110101011 c
b11101011001000010110001110101100 d
b11101011011000010110001110101101 e
b11101011001000010110001110101110 f
b11101011011000010110001110101111 10
b11101011011000010110001110100001 11
b11101011001000010110001110100010 12
b11101011011000010110001110100011 13
b11101011001000010110001110100100 14
b11101011011000010110001110100101 15
b11101011001000010110001110100110 16
b11101011011000010110001110100111 17
b11101011001000010110001110101000 18
b11101011011000010110001110101001 19
11c
b00101111 30
#11
07
b00110000 8
b11101011001000010110001110110000 a
b11101011001000010110001110111010 b
b11101011011000010110001110111011 c
b11101011001000010110001110111100 d
b11101011011000010110001110111101 e
b11101011001000010110001110111110 f
b11101011011000010110001110111111 10
b11101011011000010110001110110001 11
b11101011001100010110001110110010 12
b11101011011000010110001110110011 13
b11101011001000010110001110110100 14
b11101011011000010110001110110101 15
b11101011001000010110001110110110 16
b11101011011000010110001110110111 17
b11101011001000010110001110111000 18
b11101011011000010110001110111001 19
b00110000 30
#12
b00110001 8
01c
b00110001 30
#13
17
b00110010 8
b00110010 30
#14
b00110011 8
b11101011010000010110001111000000 a
b11101011010000010110001111001010 b
b11101011010000010110001111001011 c
b11101011010000010110001111001100 d
b11101011010000010110001111001101 e
b11101011010000010110001111001110 f
b11101011010000010110001111001111 10
b11101011010000010110001111000001 11
b11101011010000010110001111000010 12
b11101011010000010110001111000011 13
b11101011010001010110001111000100 14
b11101011010000010110001111000101 15
b11101011010000010110001111000110 16
b11101011010000010110001111000111 17
b11101011010000010110001111001000 18
b11101011010000010110001111001001 19
11c
b00110011 30
#15
07
b00110100 8
b11101011010000010110001111010000 a
b11101011010000010110001111011010 b
b11101011010000010110001111011011 c
b11101011010000010110001111011100 d
b11101011010000010110001111011101 e
b11101011010000010110001111011110 f
b11101011011000010110001111011111 10
b11101011010000010110001111010001 11
b11101011010100010110001111010010 12
b11101011010000010110001111010011 13
b11101011010101010110001111010100 14
b11101011010000010110001111010101 15
b11101011010000010110001111010110 16
b11101011010000010110001111010111 17
b11101011010000010110001111011000 18
b11101011010000010110001111011001 19
b00110100 30
#16
b00110101 8
01c
b00110101 30
#17
17
b00110110 8
b00110110 30
#18
15
b00110111 8
b11101011011000010110001111100000 a
b11101011011000010110001111101010 b
b11101011011000010110001111101011 c
b11101011011000010110001111101100 d
b11101011011000010110001111101101 e
b11101011011000010110001111101110 f
b11101011011000010110001111101111 10
b11101011011000010110001111100001 11
b11101011011000010110001111100010 12
b11101011011000010110001111100011 13
b11101011011001010110001111100100 14
b11101011011000010110001111100101 15
b11101011011001010110001111100110 16
b11101011011000010110001111100111 17
b11101011011000010110001111101000 18
b11101011011000010110001111101001 19
11c
b00110111 30
#19
b01100100000000 3
05
07
b00111000 8
b11101011011000010110001111110000 a
b11101011011000010110001111111010 b
b11101011011000010110001111111011 c
b11101011011000010110001111111100 d
b11101011011000010110001111111101 e
b11101011011000010110001111111110 f
b11101011011000010110001111111111 10
b11101011011000010110001111110001 11
b11101011011000010110001111110010 12
b11101011011000010110001111110011 13
b11101011011000010110001111110100 14
b11101011011000010110001111110101 15
b11101011011000010110001111110110 16
b11101011011000010110001111110111 17
b11101011011000010110001111111000 18
b11101011011000010110001111111001 19
01a
01b
b00111000 30
#20
b00000000 8
01c
b00111001 30
#21
b00111010 30
#22
b00111011 30
#23
b00111100 30
#24
b00111101 30
#25
b00111110 30
#26
b00111111 30
#27
b01000000 30
#28
b01000001 30
#29
b01000010 30
#30
b01000011 30
#31
b01000100 30
#32
b01000101 30
#33
b01000110 30
#34
b01000111 30
#35
123
b01001000 30
#36
b01001001 30
132
#37
b01100101000000 1f
023
b101 25
b01001001 2a
b01001010 30
032
143
045
#38
19
b01000000111 2f
b00000000 30
131
043
145
b01000000 48
#39
09
11a
11b
124
146
#40
b00000001 8
b0001 2e
b00000001 30
b10001010011000010110010100010000 33
b10001010011000010110010100011010 34
b10001010011000010110010100011011 35
b10001010011000010110010100011100 36
b10001010011000010110010100011101 37
b10001010011000010110010100011110 38
b10001010011000010110010100011111 39
b10001010011000010110010100010001 3a
b10001010011000010110010100010010 3b
b10001010011000010110010100010011 3c
b10001010011000010110010100010100 3d
b10001010011000010110010100010101 3e
b10001010011000010110010100010110 3f
b10001010011000010110010100010111 40
b10001010011000010110010100011000 41
b10001010011000010110010100011001 42
#41
b00000010 8
b0010 2e
b00000010 30
b10001010011000010110010100100000 33
b10001010011000010110010100101010 34
b10001010011000010110010100101011 35
b10001010011000010110010100101100 36
b10001010011000010110010100101101 37
b10001010011000010110010100101110 38
b10001010011000010110010100101111 39
b10001010011000010110010100100001 3a
b10001010011000010110010100100010 3b
b10001010011000010110010100100011 3c
b10001010011000010110010100100100 3d
b10001010011000010110010100100101 3e
b10001010011000010110010100100110 3f
b10001010011000010110010100100111 40
b10001010011000010110010100101000 41
b10001010011000010110010100101001 42
#42
b00000011 8
b0011 2e
b00000011 30
b10001010011000010110010100110000 33
b10001010011000010110010100111010 34
b10001010011000010110010100111011 35
b10001010011000010110010100111100 36
b10001010011000010110010100111101 37
b10001010011000010110010100111110 38
b10001010011000010110010100111111 39
b10001010011000010110010100110001 3a
b10001010011000010110010100110010 3b
b10001010011000010110010100110011 3c
b10001010011000010110010100110100 3d
b10001010011000010110010100110101 3e
b10001010011000010110010100110110 3f
b10001010011000010110010100110111 40
b10001010011000010110010100111000 41
b10001010011000010110010100111001 42
#43
b00000100 8
b0100 2e
b00000100 30
b10001010011000010110010101000000 33
b10001010011000010110010101001010 34
b10001010011000010110010101001011 35
b10001010011000010110010101001100 36
b10001010011000010110010101001101 37
b10001010011000010110010101001110 38
b10001010011000010110010101001111 39
b10001010011000010110010101000001 3a
b10001010011000010110010101000010 3b
b10001010011000010110010101000011 3c
b10001010011000010110010101000100 3d
b10001010011000010110010101000101 3e
b10001010011000010110010101000110 3f
b10001010011000010110010101000111 40
b10001010011000010110010101001000 41
b10001010011000010110010101001001 42
#44
b00000101 8
b0101 2e
b00000101 30
b10001010011000010110010101010000 33
b10001010011000010110010101011010 34
b10001010011000010110010101011011 35
b10001010011000010110010101011100 36
b10001010011000010110010101011101 37
b10001010011000010110010101011110 38
b10001010011000010110010101011111 39
b10001010011000010110010101010001 3a
b10001010011000010110010101010010 3b
b10001010011000010110010101010011 3c
b10001010011000010110010101010100 3d
b10001010011000010110010101010101 3e
b10001010011000010110010101010110 3f
b10001010011000010110010101010111 40
b10001010011000010110010101011000 41
b10001010011000010110010101011001 42
#45
b00000110 8
b0110 2e
b00000110 30
b10001010011000010110010101100000 33
b10001010011000010110010101101010 34
b10001010011000010110010101101011 35
b10001010011000010110010101101100 36
b10001010011000010110010101101101 37
b10001010011000010110010101101110 38
b10001010011000010110010101101111 39
b10001010011000010110010101100001 3a
b10001010011000010110010101100010 3b
b10001010011000010110010101100011 3c
b10001010011000010110010101100100 3d
b10001010011000010110010101100101 3e
b10001010011000010110010101100110 3f
b10001010011000010110010101100111 40
b10001010011000010110010101101000 41
b10001010011000010110010101101001 42
#46
b00000111 8
b0111 2e
b00000111 30
b10001010011000010110010101110000 33
b10001010011000010110010101111010 34
b10001010011000010110010101111011 35
b10001010011000010110010101111100 36
b10001010011000010110010101111101 37
b10001010011000010110010101111110 38
b10001010011000010110010101111111 39
b10001010011000010110010101110001 3a
b10001010011000010110010101110010 3b
b10001010011000010110010101110011 3c
b10001010011000010110010101110100 3d
b10001010011000010110010101110101 3e
b10001010011000010110010101110110 3f
b10001010011000010110010101110111 40
b10001010011000010110010101111000 41
b10001010011000010110010101111001 42
#47
17
b00001000 8
b1000 2e
b00001000 30
b10001010011000010110010110000000 33
b10001010011000010110010110001010 34
b10001010011000010110010110001011 35
b10001010011000010110010110001100 36
b10001010011000010110010110001101 37
b10001010011000010110010110001110 38
b10001010011000010110010110001111 39
b10001010011000010110010110000001 3a
b10001010011000010110010110000010 3b
b10001010011000010110010110000011 3c
b10001010011000010110010110000100 3d
b10001010011000010110010110000101 3e
b10001010011000010110010110000110 3f
b10001010011000010110010110000111 40
b10001010011000010110010110001000 41
b10001010011000010110010110001001 42
#48
b00001001 8
b11101110010000010110010000000000 a
b11101110010000010110010000001010 b
b11101110011000010110010000001011 c
b11101110010000010110010000001100 d
b11101110011000010110010000001101 e
b11101110010000010110010000001110 f
b11101110010000010110010000001111 10
b11101110011000010110010000000001 11
b11101110000000010110010000000010 12
b11101110011000010110010000000011 13
b11101110010000010110010000000100 14
b11101110011000010110010000000101 15
b11101110010000010110010000000110 16
b11101110011000010110010000000111 17
b11101110010000010110010000001000 18
b11101110011000010110010000001001 19
11c
b1001 2e
b00001001 30
b10001010011000010110010110010000 33
b10001010011000010110010110011010 34
b10001010011000010110010110011011 35
b10001010011000010110010110011100 36
b10001010011000010110010110011101 37
b10001010011000010110010110011110 38
b10001010011000010110010110011111 39
b10001010011000010110010110010001 3a
b10001010011000010110010110010010 3b
b10001010011000010110010110010011 3c
b10001010011000010110010110010100 3d
b10001010011000010110010110010101 3e
b10001010011000010110010110010110 3f
b10001010011000010110010110010111 40
b10001010011000010110010110011000 41
b10001010011000010110010110011001 42
#49
07
b00001010 8
b11101110010100010110010000010000 a
b11101110000100010110010000011010 b
b11101110010000010110010000011011 c
b11101110010100010110010000011100 d
b11101110011000010110010000011101 e
b11101110000100010110010000011110 f
b11101110011000010110010000011111 10
b11101110010000010110010000010001 11
b11101110000100010110010000010010 12
b11101110010000010110010000010011 13
b11101110000101010110010000010100 14
b11101110010000010110010000010101 15
b11101110000100010110010000010110 16
b11101110010000010110010000010111 17
b11101110000100010110010000011000 18
b11101110010000010110010000011001 19
b1010 2e
b00001010 30
b10001010011000010110010110100000 33
b10001010011000010110010110101010 34
b10001010011000010110010110101011 35
b10001010011000010110010110101100 36
b10001010011000010110010110101101 37
b10001010011000010110010110101110 38
b10001010011000010110010110101111 39
b10001010011000010110010110100001 3a
b10001010011000010110010110100010 3b
b10001010011000010110010110100011 3c
b10001010011000010110010110100100 3d
b10001010011000010110010110100101 3e
b10001010011000010110010110100110 3f
b10001010011000010110010110100111 40
b10001010011000010110010110101000 41
b10001010011000010110010110101001 42
#50
b00001011 8
01c
b1011 2e
b00001011 30
b10001010011000010110010110110000 33
b10001010011000010110010110111010 34
b10001010011000010110010110111011 35
b10001010011000010110010110111100 36
b10001010011000010110010110111101 37
b10001010011000010110010110111110 38
b10001010011000010110010110111111 39
b10001010011000010110010110110001 3a
b10001010011000010110010110110010 3b
b10001010011000010110010110110011 3c
b10001010011000010110010110110100 3d
b10001010011000010110010110110101 3e
b10001010011000010110010110110110 3f
b10001010011000010110010110110111 40
b10001010011000010110010110111000 41
b10001010011000010110010110111001 42
#51
17
b00001100 8
b1100 2e
b00001100 30
b10001010011000010110010111000000 33
b10001010011000010110010111001010 34
b10001010011000010110010111001011 35
b10001010011000010110010111001100 36
b10001010011000010110010111001101 37
b10001010011000010110010111001110 38
b10001010011000010110010111001111 39
b10001010011000010110010111000001 3a
b10001010011000010110010111000010 3b
b10001010011000010110010111000011 3c
b10001010011000010110010111000100 3d
b10001010011000010110010111000101 3e
b10001010011000010110010111000110 3f
b10001010011000010110010111000111 40
b10001010011000010110010111001000 41
b10001010011000010110010111001001 42
#52
b00001101 8
b11101110011000010110010000100000 a
b11101110001000010110010000101010 b
b11101110011000010110010000101011 c
b11101110011000010110010000101100 d
b11101110011000010110010000101101 e
b11101110011000010110010000101110 f
b11101110011000010110010000101111 10
b11101110011000010110010000100001 11
b11101110001000010110010000100010 12
b11101110011000010110010000100011 13
b11101110001000010110010000100100 14
b11101110011000010110010000100101 15
b11101110001000010110010000100110 16
b11101110011000010110010000100111 17
b11101110001000010110010000101000 18
b11101110011000010110010000101001 19
11c
b1101 2e
b00001101 30
b10001010011000010110010111010000 33
b10001010011000010110010111011010 34
b10001010011000010110010111011011 35
b10001010011000010110010111011100 36
b10001010011000010110010111011101 37
b10001010011000010110010111011110 38
b10001010011000010110010111011111 39
b10001010011000010110010111010001 3a
b10001010011000010110010111010010 3b
b10001010011000010110010111010011 3c
b10001010011000010110010111010100 3d
b10001010011000010110010111010101 3e
b10001010011000010110010111010110 3f
b10001010011000010110010111010111 40
b10001010011000010110010111011000 41
b10001010011000010110010111011001 42
#53
07
b00001110 8
b11101110001000010110010000110000 a
b11101110011000010110010000111010 b
b11101110011000010110010000111011 c
b11101110011000010110010000111100 d
b11101110011000010110010000111101 e
b11101110001000010110010000111110 f
b11101110011000010110010000111111 10
b11101110011000010110010000110001 11
b11101110001100010110010000110010 12
b11101110011000010110010000110011 13
b11101110001100010110010000110100 14
b11101110011000010110010000110101 15
b11101110001000010110010000110110 16
b11101110011000010110010000110111 17
b11101110001100010110010000111000 18
b11101110011000010110010000111001 19
121
b1110 2e
b00001110 30
b10001010011000010110010111100000 33
b10001010011000010110010111101010 34
b10001010011000010110010111101011 35
b10001010011000010110010111101100 36
b10001010011000010110010111101101 37
b10001010011000010110010111101110 38
b10001010011000010110010111101111 39
b10001010011000010110010111100001 3a
b10001010011000010110010111100010 3b
b10001010011000010110010111100011 3c
b10001010011000010110010111100100 3d
b10001010011000010110010111100101 3e
b10001010011000010110010111100110 3f
b10001010011000010110010111100111 40
b10001010011000010110010111101000 41
b10001010011000010110010111101001 42
#54
b00001111 8
01c
120
021
b1111 2e
b00001111 30
031
b10001010011000010110010111110000 33
b10001010011000010110010111111010 34
b10001010011000010110010111111011 35
b10001010011000010110010111111100 36
b10001010011000010110010111111101 37
b10001010011000010110010111111110 38
b10001010011000010110010111111111 39
b10001010011000010110010111110001 3a
b10001010011000010110010111110010 3b
b10001010011000010110010111110011 3c
b10001010011000010110010111110100 3d
b10001010011000010110010111110101 3e
b10001010011000010110010111110110 3f
b10001010011000010110010111110111 40
b10001010011000010110010111111000 41
b10001010011000010110010111111001 42
144
#55
17
b00010000 8
020
024
b0000 2e
b00010000 30
b10001010011000010110011000000000 33
b10001010011000010110011000001010 34
b10001010011000010110011000001011 35
b10001010011000010110011000001100 36
b10001010011000010110011000001101 37
b10001010011000010110011000001110 38
b10001010011000010110011000001111 39
b10001010011000010110011000000001 3a
b10001010011000010110011000000010 3b
b10001010011000010110011000000011 3c
b10001010011000010110011000000100 3d
b10001010011000010110011000000101 3e
b10001010011000010110011000000110 3f
b10001010011000010110011000000111 40
b10001010011000010110011000001000 41
b10001010011000010110011000001001 42
044
046
#56
b00010001 8
b11101110010000010110010001000000 a
b11101110010000010110010001001010 b
b11101110011000010110010001001011 c
b11101110010000010110010001001100 d
b11101110011000010110010001001101 e
b11101110010000010110010001001110 f
b11101110010000010110010001001111 10
b11101110011000010110010001000001 11
b11101110010000010110010001000010 12
b11101110010000010110010001000011 13
b11101110010001010110010001000100 14
b11101110010000010110010001000101 15
b11101110010000010110010001000110 16
b11101110010000010110010001000111 17
b11101110010000010110010001001000 18
b11101110011000010110010001001001 19
11c
b00010001 30
#57
07
b00010010 8
b11101110010100010110010001010000 a
b11101110010100010110010001011010 b
b11101110010000010110010001011011 c
b11101110010000010110010001011100 d
b11101110010000010110010001011101 e
b11101110010100010110010001011110 f
b11101110011000010110010001011111 10
b11101110010000010110010001010001 11
b11101110010100010110010001010010 12
b11101110010000010110010001010011 13
b11101110010100010110010001010100 14
b11101110010000010110010001010101 15
b11101110010100010110010001010110 16
b11101110010000010110010001010111 17
b11101110010100010110010001011000 18
b11101110010000010110010001011001 19
b00010010 30
#58
b00010011 8
01c
b00010011 30
#59
17
b00010100 8
b00010100 30
#60
b00010101 8
b11101110011000010110010001100000 a
b11101110011000010110010001101010 b
b11101110011000010110010001101011 c
b11101110011000010110010001101100 d
b11101110011000010110010001101101 e
b11101110011000010110010001101110 f
b11101110011000010110010001101111 10
b11101110011000010110010001100001 11
b11101110011000010110010001100010 12
b11101110011000010110010001100011 13
b11101110011001010110010001100100 14
b11101110011000010110010001100101 15
b11101110011001010110010001100110 16
b11101110011000010110010001100111 17
b11101110011000010110010001101000 18
b11101110011000010110010001101001 19
11c
b00010101 30
#61
07
b00010110 8
b11101110011000010110010001110000 a
b11101110011000010110010001111010 b
b11101110011000010110010001111011 c
b11101110011000010110010001111100 d
b11101110011000010110010001111101 e
b11101110011000010110010001111110 f
b11101110011000010110010001111111 10
b11101110011000010110010001110001 11
b11101110011000010110010001110010 12
b11101110011000010110010001110011 13
b11101110011000010110010001110100 14
b11101110011000010110010001110101 15
b11101110011000010110010001110110 16
b11101110011000010110010001110111 17
b11101110011000010110010001111000 18
b11101110011000010110010001111001 19
b00010110 30
#62
b00010111 8
01c
b00010111 30
#63
17
b00011000 8
b00011000 30
#64
b00011001 8
b11101110000000010110010010000000 a
b11101110000000010110010010001010 b
b11101110010000010110010010001011 c
b11101110000000010110010010001100 d
b11101110011000010110010010001101 e
b11101110000000010110010010001110 f
b11101110010000010110010010001111 10
b11101110010000010110010010000001 11
b11101110000000010110010010000010 12
b11101110010000010110010010000011 13
b11101110000000010110010010000100 14
b11101110011000010110010010000101 15
b11101110000000010110010010000110 16
b11101110010000010110010010000111 17
b11101110000000010110010010001000 18
b11101110010000010110010010001001 19
11c
b00011001 30
#65
07
b00011010 8
b11101110000000010110010010010000 a
b11101110000100010110010010011010 b
b11101110010000010110010010011011 c
b11101110000000010110010010011100 d
b11101110010000010110010010011101 e
b11101110000000010110010010011110 f
b11101110011000010110010010011111 10
b11101110010000010110010010010001 11
b11101110000100010110010010010010 12
b11101110010000010110010010010011 13
b11101110000100010110010010010100 14
b11101110010000010110010010010101 15
b11101110000000010110010010010110 16
b11101110010000010110010010010111 17
b11101110000100010110010010011000 18
b11101110010000010110010010011001 19
b00011010 30
#66
b00011011 8
01c
b00011011 30
#67
b00011100 8
b00011100 30
#68
17
b00011101 8
b00011101 30
#69
b00011110 8
b11101110001000010110010010100000 a
b11101110001000010110010010101010 b
b11101110011000010110010010101011 c
b11101110001000010110010010101100 d
b11101110011000010110010010101101 e
b11101110001000010110010010101110 f
b11101110011000010110010010101111 10
b11101110011000010110010010100001 11
b11101110001000010110010010100010 12
b11101110011000010110010010100011 13
b11101110001000010110010010100100 14
b11101110011000010110010010100101 15
b11101110001000010110010010100110 16
b11101110011000010110010010100111 17
b11101110001000010110010010101000 18
b11101110011000010110010010101001 19
11c
b00011110 30
#70
07
b00011111 8
b11101110001000010110010010110000 a
b11101110001000010110010010111010 b
b11101110011000010110010010111011 c
b11101110001000010110010010111100 d
b11101110011000010110010010111101 e
b11101110001000010110010010111110 f
b11101110011000010110010010111111 10
b11101110011000010110010010110001 11
b11101110001000010110010010110010 12
b11101110011000010110010010110011 13
b11101110001000010110010010110100 14
b11101110011000010110010010110101 15
b11101110001000010110010010110110 16
b11101110011000010110010010110111 17
b11101110001000010110010010111000 18
b11101110011000010110010010111001 19
b00011111 30
#71
b00100000 8
01c
b00100000 30
#72
17
b00100001 8
b00100001 30
#73
b00100010 8
b11101110010000010110010011000000 a
b11101110010000010110010011001010 b
b11101110010000010110010011001011 c
b11101110010000010110010011001100 d
b11101110010000010110010011001101 e
b11101110010000010110010011001110 f
b11101110010000010110010011001111 10
b11101110010000010110010011000001 11
b11101110010000010110010011000010 12
b11101110010000010110010011000011 13
b11101110010000010110010011000100 14
b11101110010000010110010011000101 15
b11101110010000010110010011000110 16
b11101110010000010110010011000111 17
b11101110010000010110010011001000 18
b11101110010000010110010011001001 19
11c
b00100010 30
#74
07
b00100011 8
b11101110010000010110010011010000 a
b11101110010000010110010011011010 b
b11101110010000010110010011011011 c
b11101110010000010110010011011100 d
b11101110010000010110010011011101 e
b11101110010000010110010011011110 f
b11101110011000010110010011011111 10
b11101110010000010110010011010001 11
b11101110010100010110010011010010 12
b11101110010000010110010011010011 13
b11101110010000010110010011010100 14
b11101110010000010110010011010101 15
b11101110010000010110010011010110 16
b11101110010000010110010011010111 17
b11101110010000010110010011011000 18
b11101110010000010110010011011001 19
b00100011 30
#75
b00100100 8
01c
b00100100 30
#76
17
b00100101 8
b00100101 30
#77
15
b00100110 8
b11101110011000010110010011100000 a
b11101110011000010110010011101010 b
b11101110011000010110010011101011 c
b11101110011000010110010011101100 d
b11101110011000010110010011101101 e
b11101110011000010110010011101110 f
b11101110011000010110010011101111 10
b11101110011000010110010011100001 11
b11101110011000010110010011100010 12
b11101110011000010110010011100011 13
b11101110011000010110010011100100 14
b11101110011000010110010011100101 15
b11101110011001010110010011100110 16
b11101110011000010110010011100111 17
b11101110011000010110010011101000 18
b11101110011000010110010011101001 19
11c
b00100110 30
