Efinix/Titanium/MemoryTest/Ti180_FMB_R1W1_k256m32_230125/la0_waveform.vcd
#0 $dumpon
$date today $end
$timescale 1 ns $end
$scope module top $end
$var wire 1 0 ddr_reset_sequencer/r_ddr_init_done $end
$var wire 1 1 memory_checker_0/axi4_read_sequence/q_arready $end
$var wire 1 2 memory_checker_0/axi4_read_sequence/q_rrast $end
$var wire 2 3 memory_checker_0/axi4_read_sequence/q_rresp $end
$var wire 1 4 memory_checker_0/axi4_read_sequence/q_rvalid $end
$var wire 8 5 memory_checker_0/axi4_read_sequence/rRSpeedMeas $end
$var wire 1 6 memory_checker_0/axi4_read_sequence/r_arvalid $end
$var wire 16 7 memory_checker_0/axi4_read_sequence/r_rdata[0] $end
$var wire 16 8 memory_checker_0/axi4_read_sequence/r_rdata[10] $end
$var wire 16 9 memory_checker_0/axi4_read_sequence/r_rdata[11] $end
$var wire 16 a memory_checker_0/axi4_read_sequence/r_rdata[12] $end
$var wire 16 b memory_checker_0/axi4_read_sequence/r_rdata[13] $end
$var wire 16 c memory_checker_0/axi4_read_sequence/r_rdata[14] $end
$var wire 16 d memory_checker_0/axi4_read_sequence/r_rdata[15] $end
$var wire 16 e memory_checker_0/axi4_read_sequence/r_rdata[1] $end
$var wire 16 f memory_checker_0/axi4_read_sequence/r_rdata[2] $end
$var wire 16 10 memory_checker_0/axi4_read_sequence/r_rdata[3] $end
$var wire 16 11 memory_checker_0/axi4_read_sequence/r_rdata[4] $end
$var wire 16 12 memory_checker_0/axi4_read_sequence/r_rdata[5] $end
$var wire 16 13 memory_checker_0/axi4_read_sequence/r_rdata[6] $end
$var wire 16 14 memory_checker_0/axi4_read_sequence/r_rdata[7] $end
$var wire 16 15 memory_checker_0/axi4_read_sequence/r_rdata[8] $end
$var wire 16 16 memory_checker_0/axi4_read_sequence/r_rdata[9] $end
$var wire 1 17 memory_checker_0/axi4_read_sequence/r_rready $end
$var wire 1 18 memory_checker_0/axi4_read_sequence/r_rstart $end
$var wire 1 19 memory_checker_0/axi4_write_sequence/qBurstMaxCke $end
$var wire 1 1a memory_checker_0/axi4_write_sequence/q_awready $end
$var wire 2 1b memory_checker_0/axi4_write_sequence/q_bresp $end
$var wire 1 1c memory_checker_0/axi4_write_sequence/q_bvalid $end
$var wire 1 1d memory_checker_0/axi4_write_sequence/q_wready $end
$var wire 4 1e memory_checker_0/axi4_write_sequence/rBurstCnt $end
$var wire 8 1f memory_checker_0/axi4_write_sequence/rWSpeedMeas $end
$var wire 1 20 memory_checker_0/axi4_write_sequence/r_awvalid $end
$var wire 1 21 memory_checker_0/axi4_write_sequence/r_bready $end
$var wire 16 22 memory_checker_0/axi4_write_sequence/r_wdata[0] $end
$var wire 16 23 memory_checker_0/axi4_write_sequence/r_wdata[10] $end
$var wire 16 24 memory_checker_0/axi4_write_sequence/r_wdata[11] $end
$var wire 16 25 memory_checker_0/axi4_write_sequence/r_wdata[12] $end
$var wire 16 26 memory_checker_0/axi4_write_sequence/r_wdata[13] $end
$var wire 16 27 memory_checker_0/axi4_write_sequence/r_wdata[14] $end
$var wire 16 28 memory_checker_0/axi4_write_sequence/r_wdata[15] $end
$var wire 16 29 memory_checker_0/axi4_write_sequence/r_wdata[1] $end
$var wire 16 2a memory_checker_0/axi4_write_sequence/r_wdata[2] $end
$var wire 16 2b memory_checker_0/axi4_write_sequence/r_wdata[3] $end
$var wire 16 2c memory_checker_0/axi4_write_sequence/r_wdata[4] $end
$var wire 16 2d memory_checker_0/axi4_write_sequence/r_wdata[5] $end
$var wire 16 2e memory_checker_0/axi4_write_sequence/r_wdata[6] $end
$var wire 16 2f memory_checker_0/axi4_write_sequence/r_wdata[7] $end
$var wire 16 30 memory_checker_0/axi4_write_sequence/r_wdata[8] $end
$var wire 16 31 memory_checker_0/axi4_write_sequence/r_wdata[9] $end
$var wire 1 32 memory_checker_0/axi4_write_sequence/r_wdone $end
$var wire 1 33 memory_checker_0/axi4_write_sequence/r_wlast $end
$var wire 1 34 memory_checker_0/axi4_write_sequence/r_wstart $end
$var wire 1 35 memory_checker_0/axi4_write_sequence/r_wvalid $end
$var wire 1 36 memory_checker_0/iRST $end
$var wire 14 37 memory_checker_0/axi4_write_sequence/axi4_adrs_generator/rRow $end
$var wire 10 38 memory_checker_0/axi4_write_sequence/axi4_adrs_generator/rCol $end
$var wire 3 39 memory_checker_0/axi4_write_sequence/axi4_adrs_generator/rBank $end
$var wire 14 3a memory_checker_0/axi4_read_sequence/axi4_adrs_generator/rRow $end
$var wire 10 3b memory_checker_0/axi4_read_sequence/axi4_adrs_generator/rCol $end
$var wire 3 3c memory_checker_0/axi4_read_sequence/axi4_adrs_generator/rBank $end
$upscope $end
$enddefinitions $end
#0
$dumpvars
10
11
12
b00 3
14
b01100111 5
06
b0010111111110000 7
b0010111111111010 8
b0010111111111011 9
b0010111111111100 a
b0010111111111101 b
b0010111111111110 c
b0010111111111111 d
b0010111111110001 e
b0010111111110010 f
b0010111111110011 10
b0010111111110100 11
b0010111111110101 12
b0010111111110110 13
b0010111111110111 14
b0010111111111000 15
b0010111111111001 16
117
118
019
01a
b00 1b
01c
01d
b0000 1e
b01100111 1f
020
021
b0011000000000000 22
b0011000000001010 23
b0011000000001011 24
b0011000000001100 25
b0011000000001101 26
b0011000000001110 27
b0011000000001111 28
b0011000000000001 29
b0011000000000010 2a
b0011000000000011 2b
b0011000000000100 2c
b0011000000000101 2d
b0011000000000110 2e
b0011000000000111 2f
b0011000000001000 30
b0011000000001001 31
032
033
134
035
036
b10000000000000 37
b0001000000 38
b011 39
b01111111100000 3a
b0001000000 3b
b011 3c
$end
#1
02
04
b01101000 5
017
018
b01101000 1f
b10000000000000 3a
#2
b00000000 5
b01101001 1f
#3
b01101010 1f
#4
b01101011 1f
#5
b01101100 1f
#6
b01101101 1f
#7
b01101110 1f
#8
b01101111 1f
#9
b01110000 1f
#10
b01110001 1f
#11
b01110010 1f
#12
b01110011 1f
#13
b01110100 1f
#14
b01110101 1f
#15
b01110110 1f
#16
b01110111 1f
#17
b01111000 1f
#18
b01111001 1f
#19
b01111010 1f
#20
b01111011 1f
#21
b01111100 1f
#22
b01111101 1f
#23
11c
b01111110 1f
#24
b01111111 1f
121
#25
01c
b10000000 1f
021
b0011000000010000 22
b0011000000011010 23
b0011000000011011 24
b0011000000011100 25
b0011000000011101 26
b0011000000011110 27
b0011000000011111 28
b0011000000010001 29
b0011000000010010 2a
b0011000000010011 2b
b0011000000010100 2c
b0011000000010101 2d
b0011000000010110 2e
b0011000000010111 2f
b0011000000011000 30
b0011000000011001 31
132
034
b10000000100000 37
#26
16
b00000000 1f
120
032
134
#27
06
117
118
135
#28
b00000001 5
11d
b00000001 1f
#29
b00000010 5
b0001 1e
b00000010 1f
#30
b00000011 5
b0010 1e
b00000011 1f
#31
b00000100 5
b0011 1e
b00000100 1f
#32
b00000101 5
b0100 1e
b00000101 1f
#33
b00000110 5
b0101 1e
b00000110 1f
#34
b00000111 5
b0110 1e
b00000111 1f
#35
b00001000 5
b0111 1e
b00001000 1f
#36
b00001001 5
b1000 1e
b00001001 1f
#37
b00001010 5
b1001 1e
b00001010 1f
#38
b00001011 5
b1010 1e
b00001011 1f
#39
b00001100 5
b1011 1e
b00001100 1f
#40
b00001101 5
b1100 1e
b00001101 1f
#41
b00001110 5
b1101 1e
b00001110 1f
#42
b00001111 5
11a
b1110 1e
b00001111 1f
#43
b00010000 5
119
01a
b1111 1e
b00010000 1f
020
133
#44
b00010001 5
019
01d
b0000 1e
b00010001 1f
033
035
#45
14
b00010010 5
b00010010 1f
#46
b00010011 5
b0011000000000000 7
b0011000000001010 8
b0011000000001011 9
b0011000000001100 a
b0011000000001101 b
b0011000000001110 c
b0011000000001111 d
b0011000000000001 e
b0011000000000010 f
b0011000000000011 10
b0011000000000100 11
b0011000000000101 12
b0011000000000110 13
b0011000000000111 14
b0011000000001000 15
b0011000000001001 16
b00010011 1f
#47
04
b00010100 5
b00010100 1f
#48
14
b00010101 5
b00010101 1f
#49
b00010110 5
b00010110 1f
#50
04
b00010111 5
b00010111 1f
#51
b00011000 5
b00011000 1f
#52
b00011001 5
b00011001 1f
#53
b00011010 5
b00011010 1f
#54
b00011011 5
b00011011 1f
#55
b00011100 5
b00011100 1f
#56
b00011101 5
b00011101 1f
#57
b00011110 5
b00011110 1f
#58
14
b00011111 5
b00011111 1f
#59
b00100000 5
b00100000 1f
#60
04
b00100001 5
b00100001 1f
#61
14
b00100010 5
b00100010 1f
#62
b00100011 5
b00100011 1f
#63
04
b00100100 5
b00100100 1f
#64
b00100101 5
b00100101 1f
#65
b00100110 5
b00100110 1f
#66
b00100111 5
b00100111 1f
#67
b00101000 5
b00101000 1f
#68
b00101001 5
b00101001 1f
#69
b00101010 5
b00101010 1f
#70
b00101011 5
b00101011 1f
#71
14
b00101100 5
b00101100 1f
#72
b00101101 5
b00101101 1f
#73
04
b00101110 5
b00101110 1f
#74
14
b00101111 5
b00101111 1f
#75
b00110000 5
b00110000 1f
#76
04
b00110001 5
b00110001 1f
#77
b00110010 5
b00110010 1f
#78
b00110011 5
b00110011 1f
#79
b00110100 5
b00110100 1f
#80
b00110101 5
b00110101 1f
#81
b00110110 5
b00110110 1f
#82
b00110111 5
b00110111 1f
#83
14
b00111000 5
b00111000 1f
#84
b00111001 5
b00111001 1f
#85
04
b00111010 5
b00111010 1f
#86
14
b00111011 5
b00111011 1f
#87
12
b00111100 5
b00111100 1f
#88
02
04
b00111101 5
017
018
b00111101 1f
b10000000100000 3a
#89
b00000000 5
b00111110 1f
#90
b00111111 1f
#91
b01000000 1f
#92
b01000001 1f
#93
b01000010 1f
#94
b01000011 1f
#95
b01000100 1f
#96
b01000101 1f
#97
b01000110 1f
#98
b01000111 1f
#99
b01001000 1f
#100
b01001001 1f
#101
b01001010 1f
#102
b01001011 1f
#103
b01001100 1f
#104
b01001101 1f
#105
b01001110 1f
#106
b01001111 1f
#107
b01010000 1f
#108
b01010001 1f
#109
b01010010 1f
#110
11c
b01010011 1f
#111
b01010100 1f
121
#112
01c
b01010101 1f
021
b0011000000100000 22
b0011000000101010 23
b0011000000101011 24
b0011000000101100 25
b0011000000101101 26
b0011000000101110 27
b0011000000101111 28
b0011000000100001 29
b0011000000100010 2a
b0011000000100011 2b
b0011000000100100 2c
b0011000000100101 2d
b0011000000100110 2e
b0011000000100111 2f
b0011000000101000 30
b0011000000101001 31
132
034
b10000001000000 37
#113
16
b00000000 1f
120
032
134
#114
06
117
118
135
#115
b00000001 5
11d
b00000001 1f
#116
b00000010 5
b0001 1e
b00000010 1f
#117
b00000011 5
b0010 1e
b00000011 1f
#118
b00000100 5
b0011 1e
b00000100 1f
#119
b00000101 5
b0100 1e
b00000101 1f
#120
b00000110 5
b0101 1e
b00000110 1f
#121
b00000111 5
b0110 1e
b00000111 1f
#122
b00001000 5
b0111 1e
b00001000 1f
#123
b00001001 5
b1000 1e
b00001001 1f
#124
b00001010 5
b1001 1e
b00001010 1f
#125
b00001011 5
b1010 1e
b00001011 1f
#126
b00001100 5
b1011 1e
b00001100 1f
#127
b00001101 5
b1100 1e
b00001101 1f
#128
b00001110 5
b1101 1e
b00001110 1f
#129
b00001111 5
11a
b1110 1e
b00001111 1f
#130
b00010000 5
119
01a
b1111 1e
b00010000 1f
020
133
#131
b00010001 5
019
01d
b0000 1e
b00010001 1f
033
035
#132
14
b00010010 5
b00010010 1f
#133
b00010011 5
b0011000000010000 7
b0011000000011010 8
b0011000000011011 9
b0011000000011100 a
b0011000000011101 b
b0011000000011110 c
b0011000000011111 d
b0011000000010001 e
b0011000000010010 f
b0011000000010011 10
b0011000000010100 11
b0011000000010101 12
b0011000000010110 13
b0011000000010111 14
b0011000000011000 15
b0011000000011001 16
b00010011 1f
#134
04
b00010100 5
b00010100 1f
#135
14
b00010101 5
b00010101 1f
#136
b00010110 5
b00010110 1f
#137
04
b00010111 5
b00010111 1f
#138
b00011000 5
b00011000 1f
#139
b00011001 5
b00011001 1f
#140
b00011010 5
b00011010 1f
#141
b00011011 5
b00011011 1f
#142
b00011100 5
b00011100 1f
#143
b00011101 5
b00011101 1f
#144
b00011110 5
b00011110 1f
#145
14
b00011111 5
b00011111 1f
#146
b00100000 5
b00100000 1f
#147
04
b00100001 5
b00100001 1f
#148
14
b00100010 5
b00100010 1f
#149
b00100011 5
b00100011 1f
#150
04
b00100100 5
b00100100 1f
#151
b00100101 5
b00100101 1f
#152
b00100110 5
b00100110 1f
#153
b00100111 5
b00100111 1f
#154
b00101000 5
b00101000 1f
#155
b00101001 5
b00101001 1f
#156
b00101010 5
b00101010 1f
#157
b00101011 5
b00101011 1f
#158
14
b00101100 5
b00101100 1f
#159
b00101101 5
b00101101 1f
#160
04
b00101110 5
b00101110 1f
#161
14
b00101111 5
b00101111 1f
#162
b00110000 5
b00110000 1f
#163
04
b00110001 5
b00110001 1f
#164
b00110010 5
b00110010 1f
#165
b00110011 5
b00110011 1f
#166
b00110100 5
b00110100 1f
#167
b00110101 5
b00110101 1f
#168
b00110110 5
b00110110 1f
#169
b00110111 5
b00110111 1f
#170
14
b00111000 5
b00111000 1f
#171
b00111001 5
b00111001 1f
#172
04
b00111010 5
b00111010 1f
#173
14
b00111011 5
b00111011 1f
#174
12
b00111100 5
b00111100 1f
#175
02
04
b00111101 5
017
018
b00111101 1f
b10000001000000 3a
#176
b00000000 5
b00111110 1f
#177
b00111111 1f
#178
b01000000 1f
#179
b01000001 1f
#180
b01000010 1f
#181
b01000011 1f
#182
b01000100 1f
#183
b01000101 1f
#184
b01000110 1f
#185
b01000111 1f
#186
b01001000 1f
#187
b01001001 1f
#188
b01001010 1f
#189
b01001011 1f
#190
b01001100 1f
#191
b01001101 1f
#192
b01001110 1f
#193
b01001111 1f
#194
b01010000 1f
#195
b01010001 1f
#196
b01010010 1f
#197
11c
b01010011 1f
#198
b01010100 1f
121
#199
01c
b01010101 1f
021
b0011000000110000 22
b0011000000111010 23
b0011000000111011 24
b0011000000111100 25
b0011000000111101 26
b0011000000111110 27
b0011000000111111 28
b0011000000110001 29
b0011000000110010 2a
b0011000000110011 2b
b0011000000110100 2c
b0011000000110101 2d
b0011000000110110 2e
b0011000000110111 2f
b0011000000111000 30
b0011000000111001 31
132
034
b10000001100000 37
#200
16
b00000000 1f
120
032
134
#201
06
117
118
135
#202
b00000001 5
11d
b00000001 1f
#203
b00000010 5
b0001 1e
b00000010 1f
#204
b00000011 5
b0010 1e
b00000011 1f
#205
b00000100 5
b0011 1e
b00000100 1f
#206
b00000101 5
b0100 1e
b00000101 1f
#207
b00000110 5
b0101 1e
b00000110 1f
#208
b00000111 5
b0110 1e
b00000111 1f
#209
b00001000 5
b0111 1e
b00001000 1f
#210
b00001001 5
b1000 1e
b00001001 1f
#211
b00001010 5
b1001 1e
b00001010 1f
#212
b00001011 5
b1010 1e
b00001011 1f
#213
b00001100 5
b1011 1e
b00001100 1f
#214
b00001101 5
b1100 1e
b00001101 1f
#215
b00001110 5
b1101 1e
b00001110 1f
#216
b00001111 5
11a
b1110 1e
b00001111 1f
#217
b00010000 5
119
01a
b1111 1e
b00010000 1f
020
133
#218
b00010001 5
019
01d
b0000 1e
b00010001 1f
033
035
#219
14
b00010010 5
b00010010 1f
#220
b00010011 5
b0011000000100000 7
b0011000000101010 8
b0011000000101011 9
b0011000000101100 a
b0011000000101101 b
b0011000000101110 c
b0011000000101111 d
b0011000000100001 e
b0011000000100010 f
b0011000000100011 10
b0011000000100100 11
b0011000000100101 12
b0011000000100110 13
b0011000000100111 14
b0011000000101000 15
b0011000000101001 16
b00010011 1f
#221
04
b00010100 5
b00010100 1f
#222
14
b00010101 5
b00010101 1f
#223
b00010110 5
b00010110 1f
#224
04
b00010111 5
b00010111 1f
#225
b00011000 5
b00011000 1f
#226
b00011001 5
b00011001 1f
#227
b00011010 5
b00011010 1f
#228
b00011011 5
b00011011 1f
#229
b00011100 5
b00011100 1f
#230
b00011101 5
b00011101 1f
#231
b00011110 5
b00011110 1f
#232
14
b00011111 5
b00011111 1f
#233
b00100000 5
b00100000 1f
#234
04
b00100001 5
b00100001 1f
#235
14
b00100010 5
b00100010 1f
#236
b00100011 5
b00100011 1f
#237
04
b00100100 5
b00100100 1f
#238
b00100101 5
b00100101 1f
#239
b00100110 5
b00100110 1f
#240
b00100111 5
b00100111 1f
#241
b00101000 5
b00101000 1f
#242
b00101001 5
b00101001 1f
#243
b00101010 5
b00101010 1f
#244
b00101011 5
b00101011 1f
#245
14
b00101100 5
b00101100 1f
#246
b00101101 5
b00101101 1f
#247
04
b00101110 5
b00101110 1f
#248
14
b00101111 5
b00101111 1f
#249
b00110000 5
b00110000 1f
#250
04
b00110001 5
b00110001 1f
#251
b00110010 5
b00110010 1f
#252
b00110011 5
b00110011 1f
#253
b00110100 5
b00110100 1f
#254
b00110101 5
b00110101 1f
#255
b00110110 5
b00110110 1f
#256
b00110111 5
b00110111 1f
#257
b00111000 5
b00111000 1f
#258
14
b00111001 5
b00111001 1f
#259
b00111010 5
b00111010 1f
#260
b00111011 5
b00111011 1f
#261
12
b00111100 5
b00111100 1f
#262
02
04
b00111101 5
017
018
b00111101 1f
b10000001100000 3a
#263
b00000000 5
b00111110 1f
#264
b00111111 1f
#265
b01000000 1f
#266
b01000001 1f
#267
b01000010 1f
#268
b01000011 1f
#269
b01000100 1f
#270
b01000101 1f
#271
b01000110 1f
#272
b01000111 1f
#273
b01001000 1f
#274
b01001001 1f
#275
b01001010 1f
#276
b01001011 1f
#277
b01001100 1f
#278
b01001101 1f
#279
b01001110 1f
#280
b01001111 1f
#281
b01010000 1f
#282
b01010001 1f
#283
b01010010 1f
#284
11c
b01010011 1f
#285
b01010100 1f
121
#286
01c
b01010101 1f
021
b0011000001000000 22
b0011000001001010 23
b0011000001001011 24
b0011000001001100 25
b0011000001001101 26
b0011000001001110 27
b0011000001001111 28
b0011000001000001 29
b0011000001000010 2a
b0011000001000011 2b
b0011000001000100 2c
b0011000001000101 2d
b0011000001000110 2e
b0011000001000111 2f
b0011000001001000 30
b0011000001001001 31
132
034
b10000010000000 37
#287
16
b00000000 1f
120
032
134
#288
06
117
118
135
#289
b00000001 5
11d
b00000001 1f
#290
b00000010 5
b0001 1e
b00000010 1f
#291
b00000011 5
b0010 1e
b00000011 1f
#292
b00000100 5
b0011 1e
b00000100 1f
#293
b00000101 5
b0100 1e
b00000101 1f
#294
b00000110 5
b0101 1e
b00000110 1f
#295
b00000111 5
b0110 1e
b00000111 1f
#296
b00001000 5
b0111 1e
b00001000 1f
#297
b00001001 5
b1000 1e
b00001001 1f
#298
b00001010 5
b1001 1e
b00001010 1f
#299
b00001011 5
b1010 1e
b00001011 1f
#300
b00001100 5
b1011 1e
b00001100 1f
#301
b00001101 5
b1100 1e
b00001101 1f
#302
b00001110 5
b1101 1e
b00001110 1f
#303
b00001111 5
11a
b1110 1e
b00001111 1f
#304
b00010000 5
119
01a
b1111 1e
b00010000 1f
020
133
#305
b00010001 5
019
01d
b0000 1e
b00010001 1f
033
035
#306
14
b00010010 5
b00010010 1f
#307
b00010011 5
b0011000000110000 7
b0011000000111010 8
b0011000000111011 9
b0011000000111100 a
b0011000000111101 b
b0011000000111110 c
b0011000000111111 d
b0011000000110001 e
b0011000000110010 f
b0011000000110011 10
b0011000000110100 11
b0011000000110101 12
b0011000000110110 13
b0011000000110111 14
b0011000000111000 15
b0011000000111001 16
b00010011 1f
#308
04
b00010100 5
b00010100 1f
#309
14
b00010101 5
b00010101 1f
#310
b00010110 5
b00010110 1f
#311
04
b00010111 5
b00010111 1f
#312
b00011000 5
b00011000 1f
#313
b00011001 5
b00011001 1f
#314
b00011010 5
b00011010 1f
#315
b00011011 5
b00011011 1f
#316
b00011100 5
b00011100 1f
#317
b00011101 5
b00011101 1f
#318
b00011110 5
b00011110 1f
#319
14
b00011111 5
b00011111 1f
#320
b00100000 5
b00100000 1f
#321
04
b00100001 5
b00100001 1f
#322
14
b00100010 5
b00100010 1f
#323
b00100011 5
b00100011 1f
#324
04
b00100100 5
b00100100 1f
#325
b00100101 5
b00100101 1f
#326
b00100110 5
b00100110 1f
#327
b00100111 5
b00100111 1f
#328
b00101000 5
b00101000 1f
#329
b00101001 5
b00101001 1f
#330
b00101010 5
b00101010 1f
#331
b00101011 5
b00101011 1f
#332
14
b00101100 5
b00101100 1f
#333
b00101101 5
b00101101 1f
#334
04
b00101110 5
b00101110 1f
#335
14
b00101111 5
b00101111 1f
#336
b00110000 5
b00110000 1f
#337
04
b00110001 5
b00110001 1f
#338
b00110010 5
b00110010 1f
#339
b00110011 5
b00110011 1f
#340
b00110100 5
b00110100 1f
#341
b00110101 5
b00110101 1f
#342
b00110110 5
b00110110 1f
#343
b00110111 5
b00110111 1f
#344
14
b00111000 5
b00111000 1f
#345
b00111001 5
b00111001 1f
#346
04
b00111010 5
b00111010 1f
#347
14
b00111011 5
b00111011 1f
#348
12
b00111100 5
b00111100 1f
#349
02
04
b00111101 5
017
018
b00111101 1f
b10000010000000 3a
#350
b00000000 5
b00111110 1f
#351
b00111111 1f
#352
b01000000 1f
#353
b01000001 1f
#354
b01000010 1f
#355
b01000011 1f
#356
b01000100 1f
#357
b01000101 1f
#358
b01000110 1f
#359
b01000111 1f
#360
b01001000 1f
#361
b01001001 1f
#362
b01001010 1f
#363
b01001011 1f
#364
b01001100 1f
#365
b01001101 1f
#366
b01001110 1f
#367
b01001111 1f
#368
b01010000 1f
#369
b01010001 1f
#370
b01010010 1f
#371
11c
b01010011 1f
#372
b01010100 1f
121
#373
01c
b01010101 1f
021
b0011000001010000 22
b0011000001011010 23
b0011000001011011 24
b0011000001011100 25
b0011000001011101 26
b0011000001011110 27
b0011000001011111 28
b0011000001010001 29
b0011000001010010 2a
b0011000001010011 2b
b0011000001010100 2c
b0011000001010101 2d
b0011000001010110 2e
b0011000001010111 2f
b0011000001011000 30
b0011000001011001 31
132
034
b10000010100000 37
#374
16
b00000000 1f
120
032
134
#375
06
117
118
135
#376
b00000001 5
11d
b00000001 1f
#377
b00000010 5
b0001 1e
b00000010 1f
#378
b00000011 5
b0010 1e
b00000011 1f
#379
b00000100 5
b0011 1e
b00000100 1f
#380
b00000101 5
b0100 1e
b00000101 1f
#381
b00000110 5
b0101 1e
b00000110 1f
#382
b00000111 5
b0110 1e
b00000111 1f
#383
b00001000 5
b0111 1e
b00001000 1f
#384
b00001001 5
b1000 1e
b00001001 1f
#385
b00001010 5
b1001 1e
b00001010 1f
#386
b00001011 5
b1010 1e
b00001011 1f
#387
b00001100 5
b1011 1e
b00001100 1f
#388
b00001101 5
b1100 1e
b00001101 1f
#389
b00001110 5
b1101 1e
b00001110 1f
#390
b00001111 5
11a
b1110 1e
b00001111 1f
#391
b00010000 5
119
01a
b1111 1e
b00010000 1f
020
133
#392
b00010001 5
019
01d
b0000 1e
b00010001 1f
033
035
#393
14
b00010010 5
b00010010 1f
#394
b00010011 5
b0011000001000000 7
b0011000001001010 8
b0011000001001011 9
b0011000001001100 a
b0011000001001101 b
b0011000001001110 c
b0011000001001111 d
b0011000001000001 e
b0011000001000010 f
b0011000001000011 10
b0011000001000100 11
b0011000001000101 12
b0011000001000110 13
b0011000001000111 14
b0011000001001000 15
b0011000001001001 16
b00010011 1f
#395
04
b00010100 5
b00010100 1f
#396
14
b00010101 5
b00010101 1f
#397
b00010110 5
b00010110 1f
#398
04
b00010111 5
b00010111 1f
#399
b00011000 5
b00011000 1f
#400
b00011001 5
b00011001 1f
#401
b00011010 5
b00011010 1f
#402
b00011011 5
b00011011 1f
#403
b00011100 5
b00011100 1f
#404
b00011101 5
b00011101 1f
#405
b00011110 5
b00011110 1f
#406
14
b00011111 5
b00011111 1f
#407
b00100000 5
b00100000 1f
#408
04
b00100001 5
b00100001 1f
#409
14
b00100010 5
b00100010 1f
#410
b00100011 5
b00100011 1f
#411
04
b00100100 5
b00100100 1f
#412
b00100101 5
b00100101 1f
#413
b00100110 5
b00100110 1f
#414
b00100111 5
b00100111 1f
#415
b00101000 5
b00101000 1f
#416
b00101001 5
b00101001 1f
#417
b00101010 5
b00101010 1f
#418
b00101011 5
b00101011 1f
#419
14
b00101100 5
b00101100 1f
#420
b00101101 5
b00101101 1f
#421
04
b00101110 5
b00101110 1f
#422
14
b00101111 5
b00101111 1f
#423
b00110000 5
b00110000 1f
#424
04
b00110001 5
b00110001 1f
#425
b00110010 5
b00110010 1f
#426
b00110011 5
b00110011 1f
#427
b00110100 5
b00110100 1f
#428
b00110101 5
b00110101 1f
#429
b00110110 5
b00110110 1f
#430
b00110111 5
b00110111 1f
#431
14
b00111000 5
b00111000 1f
#432
b00111001 5
b00111001 1f
#433
04
b00111010 5
b00111010 1f
#434
14
b00111011 5
b00111011 1f
#435
12
b00111100 5
b00111100 1f
#436
02
04
b00111101 5
017
018
b00111101 1f
b10000010100000 3a
#437
b00000000 5
b00111110 1f
#438
b00111111 1f
#439
b01000000 1f
#440
b01000001 1f
#441
b01000010 1f
#442
b01000011 1f
#443
b01000100 1f
#444
b01000101 1f
#445
b01000110 1f
#446
b01000111 1f
#447
b01001000 1f
#448
b01001001 1f
#449
b01001010 1f
#450
b01001011 1f
#451
b01001100 1f
#452
b01001101 1f
#453
b01001110 1f
#454
b01001111 1f
#455
b01010000 1f
#456
b01010001 1f
#457
b01010010 1f
#458
11c
b01010011 1f
#459
b01010100 1f
121
#460
01c
b01010101 1f
021
b0011000001100000 22
b0011000001101010 23
b0011000001101011 24
b0011000001101100 25
b0011000001101101 26
b0011000001101110 27
b0011000001101111 28
b0011000001100001 29
b0011000001100010 2a
b0011000001100011 2b
b0011000001100100 2c
b0011000001100101 2d
b0011000001100110 2e
b0011000001100111 2f
b0011000001101000 30
b0011000001101001 31
132
034
b10000011000000 37
#461
16
b00000000 1f
120
032
134
#462
06
117
118
135
#463
b00000001 5
11d
b00000001 1f
#464
b00000010 5
b0001 1e
b00000010 1f
#465
b00000011 5
b0010 1e
b00000011 1f
#466
b00000100 5
b0011 1e
b00000100 1f
#467
b00000101 5
b0100 1e
b00000101 1f
#468
b00000110 5
b0101 1e
b00000110 1f
#469
b00000111 5
b0110 1e
b00000111 1f
#470
b00001000 5
b0111 1e
b00001000 1f
#471
b00001001 5
b1000 1e
b00001001 1f
#472
b00001010 5
b1001 1e
b00001010 1f
#473
b00001011 5
b1010 1e
b00001011 1f
#474
b00001100 5
b1011 1e
b00001100 1f
#475
b00001101 5
b1100 1e
b00001101 1f
#476
b00001110 5
b1101 1e
b00001110 1f
#477
b00001111 5
11a
b1110 1e
b00001111 1f
#478
b00010000 5
119
01a
b1111 1e
b00010000 1f
020
133
#479
b00010001 5
019
01d
b0000 1e
b00010001 1f
033
035
#480
14
b00010010 5
b00010010 1f
#481
b00010011 5
b0011000001010000 7
b0011000001011010 8
b0011000001011011 9
b0011000001011100 a
b0011000001011101 b
b0011000001011110 c
b0011000001011111 d
b0011000001010001 e
b0011000001010010 f
b0011000001010011 10
b0011000001010100 11
b0011000001010101 12
b0011000001010110 13
b0011000001010111 14
b0011000001011000 15
b0011000001011001 16
b00010011 1f
#482
04
b00010100 5
b00010100 1f
#483
14
b00010101 5
b00010101 1f
#484
b00010110 5
b00010110 1f
#485
04
b00010111 5
b00010111 1f
#486
b00011000 5
b00011000 1f
#487
b00011001 5
b00011001 1f
#488
b00011010 5
b00011010 1f
#489
b00011011 5
b00011011 1f
#490
b00011100 5
b00011100 1f
#491
b00011101 5
b00011101 1f
#492
b00011110 5
b00011110 1f
#493
14
b00011111 5
b00011111 1f
#494
b00100000 5
b00100000 1f
#495
04
b00100001 5
b00100001 1f
#496
14
b00100010 5
b00100010 1f
#497
b00100011 5
b00100011 1f
#498
04
b00100100 5
b00100100 1f
#499
b00100101 5
b00100101 1f
#500
b00100110 5
b00100110 1f
#501
b00100111 5
b00100111 1f
#502
b00101000 5
b00101000 1f
#503
b00101001 5
b00101001 1f
#504
b00101010 5
b00101010 1f
#505
b00101011 5
b00101011 1f
#506
14
b00101100 5
b00101100 1f
#507
b00101101 5
b00101101 1f
#508
04
b00101110 5
b00101110 1f
#509
14
b00101111 5
b00101111 1f
#510
b00110000 5
b00110000 1f
#511
04
b00110001 5
b00110001 1f
#512
b00110010 5
b00110010 1f
#513
b00110011 5
b00110011 1f
#514
b00110100 5
b00110100 1f
#515
b00110101 5
b00110101 1f
#516
b00110110 5
b00110110 1f
#517
b00110111 5
b00110111 1f
#518
14
b00111000 5
b00111000 1f
#519
b00111001 5
b00111001 1f
#520
04
b00111010 5
b00111010 1f
#521
14
b00111011 5
b00111011 1f
#522
12
b00111100 5
b00111100 1f
#523
02
04
b00111101 5
017
018
b00111101 1f
b10000011000000 3a
#524
b00000000 5
b00111110 1f
#525
b00111111 1f
#526
b01000000 1f
#527
b01000001 1f
#528
b01000010 1f
#529
b01000011 1f
#530
b01000100 1f
#531
b01000101 1f
#532
b01000110 1f
#533
b01000111 1f
#534
b01001000 1f
#535
b01001001 1f
#536
b01001010 1f
#537
b01001011 1f
#538
b01001100 1f
#539
b01001101 1f
#540
b01001110 1f
#541
b01001111 1f
#542
b01010000 1f
#543
b01010001 1f
#544
b01010010 1f
#545
11c
b01010011 1f
#546
b01010100 1f
121
#547
01c
b01010101 1f
021
b0011000001110000 22
b0011000001111010 23
b0011000001111011 24
b0011000001111100 25
b0011000001111101 26
b0011000001111110 27
b0011000001111111 28
b0011000001110001 29
b0011000001110010 2a
b0011000001110011 2b
b0011000001110100 2c
b0011000001110101 2d
b0011000001110110 2e
b0011000001110111 2f
b0011000001111000 30
b0011000001111001 31
132
034
b10000011100000 37
#548
16
b00000000 1f
120
032
134
#549
06
117
118
135
#550
b00000001 5
11d
b00000001 1f
