Efinix/Titanium/MemoryTest/Ti180_FMB_R1W1_k256m32_230125/la0_waveform.vcd
#0 $dumpon
$date today $end
$timescale 1 ns $end
$scope module top $end
$var wire 2 0 memory_checker_0/axi4_write_sequence/q_bresp $end
$var wire 1 1 memory_checker_0/axi4_write_sequence/r_wstart $end
$var wire 1 2 memory_checker_0/axi4_write_sequence/q_awready $end
$var wire 1 3 memory_checker_0/axi4_write_sequence/r_awvalid $end
$var wire 4 4 memory_checker_0/axi4_write_sequence/rBurstCnt $end
$var wire 1 5 memory_checker_0/axi4_write_sequence/r_bready $end
$var wire 1 6 memory_checker_0/axi4_write_sequence/r_wdone $end
$var wire 1 7 memory_checker_0/axi4_write_sequence/r_wlast $end
$var wire 1 8 memory_checker_0/axi4_write_sequence/q_wready $end
$var wire 1 9 memory_checker_0/axi4_write_sequence/qBurstMaxCke $end
$var wire 1 a memory_checker_0/axi4_write_sequence/r_wvalid $end
$var wire 1 b memory_checker_0/axi4_write_sequence/q_bvalid $end
$var wire 1 c memory_checker_0/axi4_read_sequence/q_rvalid $end
$var wire 1 d memory_checker_0/axi4_read_sequence/q_rrast $end
$var wire 1 e memory_checker_0/axi4_read_sequence/r_rstart $end
$var wire 1 f memory_checker_0/axi4_read_sequence/r_rready $end
$var wire 2 10 memory_checker_0/axi4_read_sequence/q_rresp $end
$var wire 1 11 memory_checker_0/axi4_read_sequence/r_arvalid $end
$var wire 1 12 memory_checker_0/axi4_read_sequence/q_arready $end
$var wire 1 13 ddr_reset_sequencer/r_ddr_init_done $end
$var wire 1 14 memory_checker_0/iRST $end
$var wire 8 15 memory_checker_0/axi4_write_sequence/rWSpeedMeas $end
$var wire 8 16 memory_checker_0/axi4_read_sequence/rRSpeedMeas $end
$var wire 10 17 memory_checker_0/axi4_write_sequence/r_wcol $end
$var wire 3 18 memory_checker_0/axi4_write_sequence/r_wbank $end
$var wire 14 19 memory_checker_0/axi4_write_sequence/r_wrow $end
$var wire 14 1a memory_checker_0/axi4_read_sequence/r_rrow $end
$var wire 16 1b memory_checker_0/axi4_write_sequence/r_wdata[3] $end
$var wire 16 1c memory_checker_0/axi4_write_sequence/r_wdata[4] $end
$var wire 16 1d memory_checker_0/axi4_write_sequence/r_wdata[6] $end
$var wire 16 1e memory_checker_0/axi4_write_sequence/r_wdata[7] $end
$var wire 16 1f memory_checker_0/axi4_write_sequence/r_wdata[2] $end
$var wire 16 20 memory_checker_0/axi4_write_sequence/r_wdata[8] $end
$var wire 16 21 memory_checker_0/axi4_write_sequence/r_wdata[1] $end
$var wire 16 22 memory_checker_0/axi4_write_sequence/r_wdata[0] $end
$var wire 16 23 memory_checker_0/axi4_write_sequence/r_wdata[14] $end
$var wire 16 24 memory_checker_0/axi4_write_sequence/r_wdata[15] $end
$var wire 16 25 memory_checker_0/axi4_write_sequence/r_wdata[13] $end
$var wire 16 26 memory_checker_0/axi4_write_sequence/r_wdata[11] $end
$var wire 16 27 memory_checker_0/axi4_write_sequence/r_wdata[12] $end
$var wire 16 28 memory_checker_0/axi4_write_sequence/r_wdata[5] $end
$var wire 16 29 memory_checker_0/axi4_write_sequence/r_wdata[9] $end
$var wire 16 2a memory_checker_0/axi4_write_sequence/r_wdata[10] $end
$var wire 16 2b memory_checker_0/axi4_read_sequence/r_rdata[4] $end
$var wire 16 2c memory_checker_0/axi4_read_sequence/r_rdata[7] $end
$var wire 16 2d memory_checker_0/axi4_read_sequence/r_rdata[8] $end
$var wire 16 2e memory_checker_0/axi4_read_sequence/r_rdata[9] $end
$var wire 16 2f memory_checker_0/axi4_read_sequence/r_rdata[3] $end
$var wire 16 30 memory_checker_0/axi4_read_sequence/r_rdata[1] $end
$var wire 16 31 memory_checker_0/axi4_read_sequence/r_rdata[2] $end
$var wire 16 32 memory_checker_0/axi4_read_sequence/r_rdata[6] $end
$var wire 16 33 memory_checker_0/axi4_read_sequence/r_rdata[15] $end
$var wire 16 34 memory_checker_0/axi4_read_sequence/r_rdata[14] $end
$var wire 16 35 memory_checker_0/axi4_read_sequence/r_rdata[5] $end
$var wire 16 36 memory_checker_0/axi4_read_sequence/r_rdata[10] $end
$var wire 16 37 memory_checker_0/axi4_read_sequence/r_rdata[0] $end
$var wire 16 38 memory_checker_0/axi4_read_sequence/r_rdata[13] $end
$var wire 16 39 memory_checker_0/axi4_read_sequence/r_rdata[11] $end
$var wire 16 3a memory_checker_0/axi4_read_sequence/r_rdata[12] $end
$var wire 3 3b memory_checker_0/axi4_read_sequence/r_rbank $end
$var wire 10 3c memory_checker_0/axi4_read_sequence/r_rcol $end
$var wire 1 3d memory_checker_0/axi4_read_sequence/q_rrow_cke $end
$var wire 1 3e memory_checker_0/axi4_read_sequence/q_rcol_cke $end
$upscope $end
$enddefinitions $end
#0
$dumpvars
b00 0
11
02
03
b0000 4
05
06
07
08
09
0a
0b
1c
0d
1e
1f
b00 10
011
112
113
014
b00011000 15
b00011000 16
b1100000000 17
b011 18
b01010111100000 19
b01010111000000 1a
b1000101011110011 1b
b1000101011110100 1c
b1000101011110110 1d
b1000101011110111 1e
b1000101011110010 1f
b1000101011111000 20
b1000101011110001 21
b1000101011110000 22
b1000101011111110 23
b1000101011111111 24
b1000101011111101 25
b1000101011111011 26
b1000101011111100 27
b1000101011110101 28
b1000101011111001 29
b1000101011111010 2a
b1000101011100100 2b
b1000101011100111 2c
b1000101011101000 2d
b1000101011101001 2e
b1000101011100011 2f
b1000101011100001 30
b1000101011100010 31
b1000101011100110 32
b1000101011101111 33
b1000101011101110 34
b1000101011100101 35
b1000101011101010 36
b1000101011100000 37
b1000101011101101 38
b1000101011101011 39
b1000101011101100 3a
b011 3b
b1100000000 3c
03d
03e
$end
#1
b00011001 15
b00011001 16
#2
b00011010 15
b00011010 16
#3
0c
b00011011 15
b00011011 16
#4
b00011100 15
b00011100 16
#5
b00011101 15
b00011101 16
#6
b00011110 15
b00011110 16
#7
b00011111 15
b00011111 16
#8
b00100000 15
b00100000 16
#9
b00100001 15
b00100001 16
#10
b00100010 15
b00100010 16
#11
b00100011 15
b00100011 16
#12
1c
b00100100 15
b00100100 16
#13
b00100101 15
b00100101 16
#14
b00100110 15
b00100110 16
#15
1d
b00100111 15
b00100111 16
#16
0c
0d
0e
0f
b00101000 15
b00101000 16
b01010111100000 1a
#17
b00101001 15
b00000000 16
#18
b00101010 15
#19
b00101011 15
#20
b00101100 15
#21
b00101101 15
#22
b00101110 15
#23
b00101111 15
#24
b00110000 15
#25
b00110001 15
#26
1b
b00110010 15
#27
15
b00110011 15
#28
01
05
16
0b
b00110100 15
b01011000000000 19
b1000101100000011 1b
b1000101100000100 1c
b1000101100000110 1d
b1000101100000111 1e
b1000101100000010 1f
b1000101100001000 20
b1000101100000001 21
b1000101100000000 22
b1000101100001110 23
b1000101100001111 24
b1000101100001101 25
b1000101100001011 26
b1000101100001100 27
b1000101100000101 28
b1000101100001001 29
b1000101100001010 2a
#29
11
13
06
111
b00000000 15
#30
1a
1e
1f
011
#31
18
b00000001 15
b00000001 16
#32
b0001 4
b00000010 15
b00000010 16
#33
b0010 4
b00000011 15
b00000011 16
#34
b0011 4
b00000100 15
b00000100 16
#35
b0100 4
b00000101 15
b00000101 16
#36
b0101 4
b00000110 15
b00000110 16
#37
b0110 4
b00000111 15
b00000111 16
#38
b0111 4
b00001000 15
b00001000 16
#39
b1000 4
b00001001 15
b00001001 16
#40
b1001 4
1c
b00001010 15
b00001010 16
#41
b1010 4
b00001011 15
b00001011 16
b1000101011110100 2b
b1000101011110111 2c
b1000101011111000 2d
b1000101011111001 2e
b1000101011110011 2f
b1000101011110001 30
b1000101011110010 31
b1000101011110110 32
b1000101011111111 33
b1000101011111110 34
b1000101011110101 35
b1000101011111010 36
b1000101011110000 37
b1000101011111101 38
b1000101011111011 39
b1000101011111100 3a
#42
b1011 4
b00001100 15
b00001100 16
#43
b1100 4
b00001101 15
b00001101 16
#44
b1101 4
0c
b00001110 15
b00001110 16
#45
12
b1110 4
b00001111 15
b00001111 16
#46
02
03
b1111 4
17
19
b00010000 15
b00010000 16
#47
b0000 4
07
08
09
0a
1c
b00010001 15
b00010001 16
#48
b00010010 15
b00010010 16
#49
b00010011 15
b00010011 16
#50
b00010100 15
b00010100 16
#51
0c
b00010101 15
b00010101 16
#52
b00010110 15
b00010110 16
#53
1c
b00010111 15
b00010111 16
#54
b00011000 15
b00011000 16
#55
b00011001 15
b00011001 16
#56
b00011010 15
b00011010 16
#57
0c
b00011011 15
b00011011 16
#58
b00011100 15
b00011100 16
#59
1c
b00011101 15
b00011101 16
#60
b00011110 15
b00011110 16
#61
b00011111 15
b00011111 16
#62
1d
b00100000 15
b00100000 16
#63
0c
0d
0e
0f
b00100001 15
b00100001 16
b01011000000000 1a
#64
b00100010 15
b00000000 16
#65
b00100011 15
#66
b00100100 15
#67
b00100101 15
#68
b00100110 15
#69
b00100111 15
#70
b00101000 15
#71
b00101001 15
#72
b00101010 15
#73
1b
b00101011 15
#74
15
b00101100 15
#75
01
05
16
0b
b00101101 15
b01011000100000 19
b1000101100010011 1b
b1000101100010100 1c
b1000101100010110 1d
b1000101100010111 1e
b1000101100010010 1f
b1000101100011000 20
b1000101100010001 21
b1000101100010000 22
b1000101100011110 23
b1000101100011111 24
b1000101100011101 25
b1000101100011011 26
b1000101100011100 27
b1000101100010101 28
b1000101100011001 29
b1000101100011010 2a
#76
11
13
06
111
b00000000 15
#77
1a
1e
1f
011
#78
18
b00000001 15
b00000001 16
#79
b0001 4
b00000010 15
b00000010 16
#80
b0010 4
b00000011 15
b00000011 16
#81
b0011 4
b00000100 15
b00000100 16
#82
b0100 4
b00000101 15
b00000101 16
#83
b0101 4
b00000110 15
b00000110 16
#84
b0110 4
b00000111 15
b00000111 16
#85
b0111 4
b00001000 15
b00001000 16
#86
b1000 4
b00001001 15
b00001001 16
#87
b1001 4
1c
b00001010 15
b00001010 16
#88
b1010 4
b00001011 15
b00001011 16
b1000101100000100 2b
b1000101100000111 2c
b1000101100001000 2d
b1000101100001001 2e
b1000101100000011 2f
b1000101100000001 30
b1000101100000010 31
b1000101100000110 32
b1000101100001111 33
b1000101100001110 34
b1000101100000101 35
b1000101100001010 36
b1000101100000000 37
b1000101100001101 38
b1000101100001011 39
b1000101100001100 3a
#89
b1011 4
b00001100 15
b00001100 16
#90
b1100 4
b00001101 15
b00001101 16
#91
b1101 4
0c
b00001110 15
b00001110 16
#92
12
b1110 4
b00001111 15
b00001111 16
#93
02
03
b1111 4
17
19
b00010000 15
b00010000 16
#94
b0000 4
07
08
09
0a
1c
b00010001 15
b00010001 16
#95
b00010010 15
b00010010 16
#96
b00010011 15
b00010011 16
#97
b00010100 15
b00010100 16
#98
0c
b00010101 15
b00010101 16
#99
b00010110 15
b00010110 16
#100
1c
b00010111 15
b00010111 16
#101
b00011000 15
b00011000 16
#102
b00011001 15
b00011001 16
#103
b00011010 15
b00011010 16
#104
0c
b00011011 15
b00011011 16
#105
b00011100 15
b00011100 16
#106
1c
b00011101 15
b00011101 16
#107
b00011110 15
b00011110 16
#108
b00011111 15
b00011111 16
#109
1d
b00100000 15
b00100000 16
#110
0c
0d
0e
0f
b00100001 15
b00100001 16
b01011000100000 1a
#111
b00100010 15
b00000000 16
#112
b00100011 15
#113
b00100100 15
#114
b00100101 15
#115
b00100110 15
#116
b00100111 15
#117
b00101000 15
#118
b00101001 15
#119
b00101010 15
#120
b00101011 15
#121
b00101100 15
#122
b00101101 15
#123
b00101110 15
#124
b00101111 15
#125
b00110000 15
#126
b00110001 15
#127
b00110010 15
#128
b00110011 15
#129
b00110100 15
#130
b00110101 15
#131
b00110110 15
#132
b00110111 15
#133
b00111000 15
#134
b00111001 15
#135
b00111010 15
#136
b00111011 15
#137
b00111100 15
#138
b00111101 15
#139
b00111110 15
#140
b00111111 15
#141
1b
b01000000 15
#142
15
b01000001 15
#143
01
05
16
0b
b01000010 15
b01011001000000 19
b1000101100100011 1b
b1000101100100100 1c
b1000101100100110 1d
b1000101100100111 1e
b1000101100100010 1f
b1000101100101000 20
b1000101100100001 21
b1000101100100000 22
b1000101100101110 23
b1000101100101111 24
b1000101100101101 25
b1000101100101011 26
b1000101100101100 27
b1000101100100101 28
b1000101100101001 29
b1000101100101010 2a
#144
11
13
06
111
b00000000 15
#145
1a
1e
1f
011
#146
18
b00000001 15
b00000001 16
#147
b0001 4
b00000010 15
b00000010 16
#148
b0010 4
b00000011 15
b00000011 16
#149
b0011 4
b00000100 15
b00000100 16
#150
b0100 4
b00000101 15
b00000101 16
#151
b0101 4
b00000110 15
b00000110 16
#152
b0110 4
b00000111 15
b00000111 16
#153
b0111 4
b00001000 15
b00001000 16
#154
b1000 4
b00001001 15
b00001001 16
#155
b1001 4
1c
b00001010 15
b00001010 16
#156
b1010 4
b00001011 15
b00001011 16
b1000101100010100 2b
b1000101100010111 2c
b1000101100011000 2d
b1000101100011001 2e
b1000101100010011 2f
b1000101100010001 30
b1000101100010010 31
b1000101100010110 32
b1000101100011111 33
b1000101100011110 34
b1000101100010101 35
b1000101100011010 36
b1000101100010000 37
b1000101100011101 38
b1000101100011011 39
b1000101100011100 3a
#157
b1011 4
b00001100 15
b00001100 16
#158
b1100 4
b00001101 15
b00001101 16
#159
b1101 4
0c
b00001110 15
b00001110 16
#160
12
b1110 4
b00001111 15
b00001111 16
#161
02
03
b1111 4
17
19
b00010000 15
b00010000 16
#162
b0000 4
07
08
09
0a
1c
b00010001 15
b00010001 16
#163
b00010010 15
b00010010 16
#164
b00010011 15
b00010011 16
#165
b00010100 15
b00010100 16
#166
0c
b00010101 15
b00010101 16
#167
b00010110 15
b00010110 16
#168
1c
b00010111 15
b00010111 16
#169
b00011000 15
b00011000 16
#170
b00011001 15
b00011001 16
#171
b00011010 15
b00011010 16
#172
0c
b00011011 15
b00011011 16
#173
b00011100 15
b00011100 16
#174
b00011101 15
b00011101 16
#175
1c
b00011110 15
b00011110 16
#176
b00011111 15
b00011111 16
#177
0c
b00100000 15
b00100000 16
#178
b00100001 15
b00100001 16
#179
b00100010 15
b00100010 16
#180
b00100011 15
b00100011 16
#181
b00100100 15
b00100100 16
#182
b00100101 15
b00100101 16
#183
b00100110 15
b00100110 16
#184
b00100111 15
b00100111 16
#185
b00101000 15
b00101000 16
#186
1c
b00101001 15
b00101001 16
#187
1d
b00101010 15
b00101010 16
#188
0c
0d
0e
0f
b00101011 15
b00101011 16
b01011001000000 1a
#189
b00101100 15
b00000000 16
#190
b00101101 15
#191
b00101110 15
#192
b00101111 15
#193
b00110000 15
#194
b00110001 15
#195
b00110010 15
#196
b00110011 15
#197
b00110100 15
#198
1b
b00110101 15
#199
15
b00110110 15
#200
01
05
16
0b
b00110111 15
b01011001100000 19
b1000101100110011 1b
b1000101100110100 1c
b1000101100110110 1d
b1000101100110111 1e
b1000101100110010 1f
b1000101100111000 20
b1000101100110001 21
b1000101100110000 22
b1000101100111110 23
b1000101100111111 24
b1000101100111101 25
b1000101100111011 26
b1000101100111100 27
b1000101100110101 28
b1000101100111001 29
b1000101100111010 2a
#201
11
13
06
111
b00000000 15
#202
1a
1e
1f
011
#203
18
b00000001 15
b00000001 16
#204
b0001 4
b00000010 15
b00000010 16
#205
b0010 4
b00000011 15
b00000011 16
#206
b0011 4
b00000100 15
b00000100 16
#207
b0100 4
b00000101 15
b00000101 16
#208
b0101 4
b00000110 15
b00000110 16
#209
b0110 4
b00000111 15
b00000111 16
#210
b0111 4
b00001000 15
b00001000 16
#211
b1000 4
b00001001 15
b00001001 16
#212
b1001 4
b00001010 15
b00001010 16
#213
b1010 4
b00001011 15
b00001011 16
#214
b1011 4
b00001100 15
b00001100 16
#215
b1100 4
b00001101 15
b00001101 16
#216
b1101 4
b00001110 15
b00001110 16
#217
12
b1110 4
b00001111 15
b00001111 16
#218
02
03
b1111 4
17
19
b00010000 15
b00010000 16
#219
b0000 4
07
08
09
0a
b00010001 15
b00010001 16
#220
b00010010 15
b00010010 16
#221
b00010011 15
b00010011 16
#222
b00010100 15
b00010100 16
#223
b00010101 15
b00010101 16
#224
b00010110 15
b00010110 16
#225
b00010111 15
b00010111 16
#226
b00011000 15
b00011000 16
#227
b00011001 15
b00011001 16
#228
b00011010 15
b00011010 16
#229
b00011011 15
b00011011 16
#230
1c
b00011100 15
b00011100 16
#231
b00011101 15
b00011101 16
b1000101100100100 2b
b1000101100100111 2c
b1000101100101000 2d
b1000101100101001 2e
b1000101100100011 2f
b1000101100100001 30
b1000101100100010 31
b1000101100100110 32
b1000101100101111 33
b1000101100101110 34
b1000101100100101 35
b1000101100101010 36
b1000101100100000 37
b1000101100101101 38
b1000101100101011 39
b1000101100101100 3a
#232
b00011110 15
b00011110 16
#233
b00011111 15
b00011111 16
#234
0c
b00100000 15
b00100000 16
#235
b00100001 15
b00100001 16
#236
b00100010 15
b00100010 16
#237
1c
b00100011 15
b00100011 16
#238
b00100100 15
b00100100 16
#239
b00100101 15
b00100101 16
#240
b00100110 15
b00100110 16
#241
0c
b00100111 15
b00100111 16
#242
b00101000 15
b00101000 16
#243
1c
b00101001 15
b00101001 16
#244
b00101010 15
b00101010 16
#245
b00101011 15
b00101011 16
#246
b00101100 15
b00101100 16
#247
0c
b00101101 15
b00101101 16
#248
b00101110 15
b00101110 16
#249
b00101111 15
b00101111 16
#250
1c
b00110000 15
b00110000 16
#251
b00110001 15
b00110001 16
#252
b00110010 15
b00110010 16
#253
1d
b00110011 15
b00110011 16
#254
0c
0d
0e
0f
b00110100 15
b00110100 16
b01011001100000 1a
#255
b00110101 15
b00000000 16
#256
b00110110 15
#257
b00110111 15
#258
b00111000 15
#259
b00111001 15
#260
b00111010 15
#261
b00111011 15
#262
b00111100 15
#263
1b
b00111101 15
#264
15
b00111110 15
#265
01
05
16
0b
b00111111 15
b01011010000000 19
b1000101101000011 1b
b1000101101000100 1c
b1000101101000110 1d
b1000101101000111 1e
b1000101101000010 1f
b1000101101001000 20
b1000101101000001 21
b1000101101000000 22
b1000101101001110 23
b1000101101001111 24
b1000101101001101 25
b1000101101001011 26
b1000101101001100 27
b1000101101000101 28
b1000101101001001 29
b1000101101001010 2a
#266
11
13
06
111
b00000000 15
#267
1a
1e
1f
011
#268
18
b00000001 15
b00000001 16
#269
b0001 4
b00000010 15
b00000010 16
#270
b0010 4
b00000011 15
b00000011 16
#271
b0011 4
b00000100 15
b00000100 16
#272
b0100 4
b00000101 15
b00000101 16
#273
b0101 4
b00000110 15
b00000110 16
#274
b0110 4
b00000111 15
b00000111 16
#275
b0111 4
b00001000 15
b00001000 16
#276
b1000 4
b00001001 15
b00001001 16
#277
b1001 4
1c
b00001010 15
b00001010 16
#278
b1010 4
b00001011 15
b00001011 16
b1000101100110100 2b
b1000101100110111 2c
b1000101100111000 2d
b1000101100111001 2e
b1000101100110011 2f
b1000101100110001 30
b1000101100110010 31
b1000101100110110 32
b1000101100111111 33
b1000101100111110 34
b1000101100110101 35
b1000101100111010 36
b1000101100110000 37
b1000101100111101 38
b1000101100111011 39
b1000101100111100 3a
#279
b1011 4
b00001100 15
b00001100 16
#280
b1100 4
b00001101 15
b00001101 16
#281
b1101 4
0c
b00001110 15
b00001110 16
#282
12
b1110 4
b00001111 15
b00001111 16
#283
02
03
b1111 4
17
19
b00010000 15
b00010000 16
#284
b0000 4
07
08
09
0a
1c
b00010001 15
b00010001 16
#285
b00010010 15
b00010010 16
#286
b00010011 15
b00010011 16
#287
b00010100 15
b00010100 16
#288
0c
b00010101 15
b00010101 16
#289
b00010110 15
b00010110 16
#290
1c
b00010111 15
b00010111 16
#291
b00011000 15
b00011000 16
#292
b00011001 15
b00011001 16
#293
b00011010 15
b00011010 16
#294
0c
b00011011 15
b00011011 16
#295
b00011100 15
b00011100 16
#296
1c
b00011101 15
b00011101 16
#297
b00011110 15
b00011110 16
#298
b00011111 15
b00011111 16
#299
1d
b00100000 15
b00100000 16
#300
0c
0d
0e
0f
b00100001 15
b00100001 16
b01011010000000 1a
#301
b00100010 15
b00000000 16
#302
b00100011 15
#303
b00100100 15
#304
b00100101 15
#305
b00100110 15
#306
b00100111 15
#307
b00101000 15
#308
b00101001 15
#309
b00101010 15
#310
1b
b00101011 15
#311
15
b00101100 15
#312
01
05
16
0b
b00101101 15
b01011010100000 19
b1000101101010011 1b
b1000101101010100 1c
b1000101101010110 1d
b1000101101010111 1e
b1000101101010010 1f
b1000101101011000 20
b1000101101010001 21
b1000101101010000 22
b1000101101011110 23
b1000101101011111 24
b1000101101011101 25
b1000101101011011 26
b1000101101011100 27
b1000101101010101 28
b1000101101011001 29
b1000101101011010 2a
#313
11
13
06
111
b00000000 15
#314
1a
1e
1f
011
#315
18
b00000001 15
b00000001 16
#316
b0001 4
b00000010 15
b00000010 16
#317
b0010 4
b00000011 15
b00000011 16
#318
b0011 4
b00000100 15
b00000100 16
#319
b0100 4
b00000101 15
b00000101 16
#320
b0101 4
b00000110 15
b00000110 16
#321
b0110 4
b00000111 15
b00000111 16
#322
b0111 4
b00001000 15
b00001000 16
#323
b1000 4
b00001001 15
b00001001 16
#324
b1001 4
1c
b00001010 15
b00001010 16
#325
b1010 4
b00001011 15
b00001011 16
b1000101101000100 2b
b1000101101000111 2c
b1000101101001000 2d
b1000101101001001 2e
b1000101101000011 2f
b1000101101000001 30
b1000101101000010 31
b1000101101000110 32
b1000101101001111 33
b1000101101001110 34
b1000101101000101 35
b1000101101001010 36
b1000101101000000 37
b1000101101001101 38
b1000101101001011 39
b1000101101001100 3a
#326
b1011 4
b00001100 15
b00001100 16
#327
b1100 4
b00001101 15
b00001101 16
#328
b1101 4
0c
b00001110 15
b00001110 16
#329
12
b1110 4
b00001111 15
b00001111 16
#330
02
03
b1111 4
17
19
b00010000 15
b00010000 16
#331
b0000 4
07
08
09
0a
1c
b00010001 15
b00010001 16
#332
b00010010 15
b00010010 16
#333
b00010011 15
b00010011 16
#334
b00010100 15
b00010100 16
#335
0c
b00010101 15
b00010101 16
#336
b00010110 15
b00010110 16
#337
1c
b00010111 15
b00010111 16
#338
b00011000 15
b00011000 16
#339
b00011001 15
b00011001 16
#340
b00011010 15
b00011010 16
#341
0c
b00011011 15
b00011011 16
#342
b00011100 15
b00011100 16
#343
1c
b00011101 15
b00011101 16
#344
b00011110 15
b00011110 16
#345
b00011111 15
b00011111 16
#346
1d
b00100000 15
b00100000 16
#347
0c
0d
0e
0f
b00100001 15
b00100001 16
b01011010100000 1a
#348
b00100010 15
b00000000 16
#349
b00100011 15
#350
b00100100 15
#351
b00100101 15
#352
b00100110 15
#353
b00100111 15
#354
b00101000 15
#355
b00101001 15
#356
b00101010 15
#357
1b
b00101011 15
#358
15
b00101100 15
#359
01
05
16
0b
b00101101 15
b01011011000000 19
b1000101101100011 1b
b1000101101100100 1c
b1000101101100110 1d
b1000101101100111 1e
b1000101101100010 1f
b1000101101101000 20
b1000101101100001 21
b1000101101100000 22
b1000101101101110 23
b1000101101101111 24
b1000101101101101 25
b1000101101101011 26
b1000101101101100 27
b1000101101100101 28
b1000101101101001 29
b1000101101101010 2a
#360
11
13
06
111
b00000000 15
#361
1a
1e
1f
011
#362
18
b00000001 15
b00000001 16
#363
b0001 4
b00000010 15
b00000010 16
#364
b0010 4
b00000011 15
b00000011 16
#365
b0011 4
b00000100 15
b00000100 16
#366
b0100 4
b00000101 15
b00000101 16
#367
b0101 4
b00000110 15
b00000110 16
#368
b0110 4
b00000111 15
b00000111 16
#369
b0111 4
b00001000 15
b00001000 16
#370
b1000 4
b00001001 15
b00001001 16
#371
b1001 4
1c
b00001010 15
b00001010 16
#372
b1010 4
b00001011 15
b00001011 16
b1000101101010100 2b
b1000101101010111 2c
b1000101101011000 2d
b1000101101011001 2e
b1000101101010011 2f
b1000101101010001 30
b1000101101010010 31
b1000101101010110 32
b1000101101011111 33
b1000101101011110 34
b1000101101010101 35
b1000101101011010 36
b1000101101010000 37
b1000101101011101 38
b1000101101011011 39
b1000101101011100 3a
#373
b1011 4
b00001100 15
b00001100 16
#374
b1100 4
b00001101 15
b00001101 16
#375
b1101 4
0c
b00001110 15
b00001110 16
#376
12
b1110 4
b00001111 15
b00001111 16
#377
02
03
b1111 4
17
19
b00010000 15
b00010000 16
#378
b0000 4
07
08
09
0a
1c
b00010001 15
b00010001 16
#379
b00010010 15
b00010010 16
#380
b00010011 15
b00010011 16
#381
b00010100 15
b00010100 16
#382
0c
b00010101 15
b00010101 16
#383
b00010110 15
b00010110 16
#384
1c
b00010111 15
b00010111 16
#385
b00011000 15
b00011000 16
#386
b00011001 15
b00011001 16
#387
b00011010 15
b00011010 16
#388
0c
b00011011 15
b00011011 16
#389
b00011100 15
b00011100 16
#390
b00011101 15
b00011101 16
#391
1c
b00011110 15
b00011110 16
#392
b00011111 15
b00011111 16
#393
b00100000 15
b00100000 16
#394
1d
b00100001 15
b00100001 16
#395
0c
0d
0e
0f
b00100010 15
b00100010 16
b01011011000000 1a
#396
b00100011 15
b00000000 16
#397
b00100100 15
#398
b00100101 15
#399
b00100110 15
#400
b00100111 15
#401
b00101000 15
#402
b00101001 15
#403
b00101010 15
#404
1b
b00101011 15
#405
15
b00101100 15
#406
01
05
16
0b
b00101101 15
b01011011100000 19
b1000101101110011 1b
b1000101101110100 1c
b1000101101110110 1d
b1000101101110111 1e
b1000101101110010 1f
b1000101101111000 20
b1000101101110001 21
b1000101101110000 22
b1000101101111110 23
b1000101101111111 24
b1000101101111101 25
b1000101101111011 26
b1000101101111100 27
b1000101101110101 28
b1000101101111001 29
b1000101101111010 2a
#407
11
13
06
111
b00000000 15
#408
1a
1e
1f
011
#409
18
b00000001 15
b00000001 16
#410
b0001 4
b00000010 15
b00000010 16
#411
b0010 4
b00000011 15
b00000011 16
#412
b0011 4
b00000100 15
b00000100 16
#413
b0100 4
b00000101 15
b00000101 16
#414
b0101 4
b00000110 15
b00000110 16
#415
b0110 4
b00000111 15
b00000111 16
#416
b0111 4
b00001000 15
b00001000 16
#417
b1000 4
b00001001 15
b00001001 16
#418
b1001 4
1c
b00001010 15
b00001010 16
#419
b1010 4
b00001011 15
b00001011 16
b1000101101100100 2b
b1000101101100111 2c
b1000101101101000 2d
b1000101101101001 2e
b1000101101100011 2f
b1000101101100001 30
b1000101101100010 31
b1000101101100110 32
b1000101101101111 33
b1000101101101110 34
b1000101101100101 35
b1000101101101010 36
b1000101101100000 37
b1000101101101101 38
b1000101101101011 39
b1000101101101100 3a
#420
b1011 4
b00001100 15
b00001100 16
#421
b1100 4
b00001101 15
b00001101 16
#422
b1101 4
0c
b00001110 15
b00001110 16
#423
12
b1110 4
b00001111 15
b00001111 16
#424
02
03
b1111 4
17
19
b00010000 15
b00010000 16
#425
b0000 4
07
08
09
0a
1c
b00010001 15
b00010001 16
#426
b00010010 15
b00010010 16
#427
b00010011 15
b00010011 16
#428
b00010100 15
b00010100 16
#429
0c
b00010101 15
b00010101 16
#430
b00010110 15
b00010110 16
#431
1c
b00010111 15
b00010111 16
#432
b00011000 15
b00011000 16
#433
b00011001 15
b00011001 16
#434
b00011010 15
b00011010 16
#435
0c
b00011011 15
b00011011 16
#436
b00011100 15
b00011100 16
#437
1c
b00011101 15
b00011101 16
#438
b00011110 15
b00011110 16
#439
b00011111 15
b00011111 16
#440
1d
b00100000 15
b00100000 16
#441
0c
0d
0e
0f
b00100001 15
b00100001 16
b01011011100000 1a
#442
b00100010 15
b00000000 16
#443
b00100011 15
#444
b00100100 15
#445
b00100101 15
#446
b00100110 15
#447
b00100111 15
#448
b00101000 15
#449
b00101001 15
#450
b00101010 15
#451
1b
b00101011 15
#452
15
b00101100 15
#453
01
05
16
0b
b00101101 15
b01011100000000 19
b1000101110000011 1b
b1000101110000100 1c
b1000101110000110 1d
b1000101110000111 1e
b1000101110000010 1f
b1000101110001000 20
b1000101110000001 21
b1000101110000000 22
b1000101110001110 23
b1000101110001111 24
b1000101110001101 25
b1000101110001011 26
b1000101110001100 27
b1000101110000101 28
b1000101110001001 29
b1000101110001010 2a
#454
11
13
06
111
b00000000 15
#455
1a
1e
1f
011
#456
18
b00000001 15
b00000001 16
#457
b0001 4
b00000010 15
b00000010 16
#458
b0010 4
b00000011 15
b00000011 16
#459
b0011 4
b00000100 15
b00000100 16
#460
b0100 4
b00000101 15
b00000101 16
#461
b0101 4
b00000110 15
b00000110 16
#462
b0110 4
b00000111 15
b00000111 16
#463
b0111 4
b00001000 15
b00001000 16
#464
b1000 4
b00001001 15
b00001001 16
#465
b1001 4
1c
b00001010 15
b00001010 16
#466
b1010 4
b00001011 15
b00001011 16
b1000101101110100 2b
b1000101101110111 2c
b1000101101111000 2d
b1000101101111001 2e
b1000101101110011 2f
b1000101101110001 30
b1000101101110010 31
b1000101101110110 32
b1000101101111111 33
b1000101101111110 34
b1000101101110101 35
b1000101101111010 36
b1000101101110000 37
b1000101101111101 38
b1000101101111011 39
b1000101101111100 3a
#467
b1011 4
b00001100 15
b00001100 16
#468
b1100 4
b00001101 15
b00001101 16
#469
b1101 4
0c
b00001110 15
b00001110 16
#470
12
b1110 4
b00001111 15
b00001111 16
#471
02
03
b1111 4
17
19
b00010000 15
b00010000 16
#472
b0000 4
07
08
09
0a
1c
b00010001 15
b00010001 16
#473
b00010010 15
b00010010 16
#474
b00010011 15
b00010011 16
#475
b00010100 15
b00010100 16
#476
0c
b00010101 15
b00010101 16
#477
b00010110 15
b00010110 16
#478
1c
b00010111 15
b00010111 16
#479
b00011000 15
b00011000 16
#480
b00011001 15
b00011001 16
#481
b00011010 15
b00011010 16
#482
0c
b00011011 15
b00011011 16
#483
b00011100 15
b00011100 16
#484
1c
b00011101 15
b00011101 16
#485
b00011110 15
b00011110 16
#486
b00011111 15
b00011111 16
#487
1d
b00100000 15
b00100000 16
