Efinix/Titanium/MemoryTest/Ti180_FMB_R1W1_k256m32_230125/la0_waveform.vcd
#0 $dumpon
$date today $end
$timescale 1 ns $end
$scope module top $end
$var wire 1 0 ddr_reset_sequencer/r_ddr_init_done $end
$var wire 3 1 memory_checker_0/axi4_read_sequence/axi4_adrs_generator/rBank $end
$var wire 10 2 memory_checker_0/axi4_read_sequence/axi4_adrs_generator/rCol $end
$var wire 14 3 memory_checker_0/axi4_read_sequence/axi4_adrs_generator/rRow $end
$var wire 1 4 memory_checker_0/axi4_read_sequence/q_arready $end
$var wire 1 5 memory_checker_0/axi4_read_sequence/q_rrast $end
$var wire 2 6 memory_checker_0/axi4_read_sequence/q_rresp $end
$var wire 1 7 memory_checker_0/axi4_read_sequence/q_rvalid $end
$var wire 8 8 memory_checker_0/axi4_read_sequence/rRSpeedMeas $end
$var wire 1 9 memory_checker_0/axi4_read_sequence/r_arvalid $end
$var wire 32 a memory_checker_0/axi4_read_sequence/r_rdata[0] $end
$var wire 32 b memory_checker_0/axi4_read_sequence/r_rdata[10] $end
$var wire 32 c memory_checker_0/axi4_read_sequence/r_rdata[11] $end
$var wire 32 d memory_checker_0/axi4_read_sequence/r_rdata[12] $end
$var wire 32 e memory_checker_0/axi4_read_sequence/r_rdata[13] $end
$var wire 32 f memory_checker_0/axi4_read_sequence/r_rdata[14] $end
$var wire 32 10 memory_checker_0/axi4_read_sequence/r_rdata[15] $end
$var wire 32 11 memory_checker_0/axi4_read_sequence/r_rdata[1] $end
$var wire 32 12 memory_checker_0/axi4_read_sequence/r_rdata[2] $end
$var wire 32 13 memory_checker_0/axi4_read_sequence/r_rdata[3] $end
$var wire 32 14 memory_checker_0/axi4_read_sequence/r_rdata[4] $end
$var wire 32 15 memory_checker_0/axi4_read_sequence/r_rdata[5] $end
$var wire 32 16 memory_checker_0/axi4_read_sequence/r_rdata[6] $end
$var wire 32 17 memory_checker_0/axi4_read_sequence/r_rdata[7] $end
$var wire 32 18 memory_checker_0/axi4_read_sequence/r_rdata[8] $end
$var wire 32 19 memory_checker_0/axi4_read_sequence/r_rdata[9] $end
$var wire 1 1a memory_checker_0/axi4_read_sequence/r_rready $end
$var wire 1 1b memory_checker_0/axi4_read_sequence/r_rstart $end
$var wire 1 1c memory_checker_0/axi4_read_sequence/r_rvalid $end
$var wire 3 1d memory_checker_0/axi4_write_sequence/axi4_adrs_generator/rBank $end
$var wire 10 1e memory_checker_0/axi4_write_sequence/axi4_adrs_generator/rCol $end
$var wire 14 1f memory_checker_0/axi4_write_sequence/axi4_adrs_generator/rRow $end
$var wire 1 20 memory_checker_0/axi4_write_sequence/qBurstMaxCke $end
$var wire 1 21 memory_checker_0/axi4_write_sequence/q_awready $end
$var wire 2 22 memory_checker_0/axi4_write_sequence/q_bresp $end
$var wire 1 23 memory_checker_0/axi4_write_sequence/q_bvalid $end
$var wire 1 24 memory_checker_0/axi4_write_sequence/q_wready $end
$var wire 3 25 memory_checker_0/axi4_write_sequence/rABuffAdrs $end
$var wire 8 26 memory_checker_0/axi4_write_sequence/rABuff[0] $end
$var wire 8 27 memory_checker_0/axi4_write_sequence/rABuff[1] $end
$var wire 8 28 memory_checker_0/axi4_write_sequence/rABuff[2] $end
$var wire 8 29 memory_checker_0/axi4_write_sequence/rABuff[3] $end
$var wire 8 2a memory_checker_0/axi4_write_sequence/rABuff[4] $end
$var wire 8 2b memory_checker_0/axi4_write_sequence/rABuff[5] $end
$var wire 8 2c memory_checker_0/axi4_write_sequence/rABuff[6] $end
$var wire 8 2d memory_checker_0/axi4_write_sequence/rABuff[7] $end
$var wire 4 2e memory_checker_0/axi4_write_sequence/rBurstCnt $end
$var wire 11 2f memory_checker_0/axi4_write_sequence/rTotalAverage $end
$var wire 8 30 memory_checker_0/axi4_write_sequence/rWSpeedMeas $end
$var wire 1 31 memory_checker_0/axi4_write_sequence/r_awvalid $end
$var wire 1 32 memory_checker_0/axi4_write_sequence/r_bready $end
$var wire 32 33 memory_checker_0/axi4_write_sequence/r_wdata[0] $end
$var wire 32 34 memory_checker_0/axi4_write_sequence/r_wdata[10] $end
$var wire 32 35 memory_checker_0/axi4_write_sequence/r_wdata[11] $end
$var wire 32 36 memory_checker_0/axi4_write_sequence/r_wdata[12] $end
$var wire 32 37 memory_checker_0/axi4_write_sequence/r_wdata[13] $end
$var wire 32 38 memory_checker_0/axi4_write_sequence/r_wdata[14] $end
$var wire 32 39 memory_checker_0/axi4_write_sequence/r_wdata[15] $end
$var wire 32 3a memory_checker_0/axi4_write_sequence/r_wdata[1] $end
$var wire 32 3b memory_checker_0/axi4_write_sequence/r_wdata[2] $end
$var wire 32 3c memory_checker_0/axi4_write_sequence/r_wdata[3] $end
$var wire 32 3d memory_checker_0/axi4_write_sequence/r_wdata[4] $end
$var wire 32 3e memory_checker_0/axi4_write_sequence/r_wdata[5] $end
$var wire 32 3f memory_checker_0/axi4_write_sequence/r_wdata[6] $end
$var wire 32 40 memory_checker_0/axi4_write_sequence/r_wdata[7] $end
$var wire 32 41 memory_checker_0/axi4_write_sequence/r_wdata[8] $end
$var wire 32 42 memory_checker_0/axi4_write_sequence/r_wdata[9] $end
$var wire 1 43 memory_checker_0/axi4_write_sequence/r_wdone $end
$var wire 1 44 memory_checker_0/axi4_write_sequence/r_wlast $end
$var wire 1 45 memory_checker_0/axi4_write_sequence/r_wstart $end
$var wire 1 46 memory_checker_0/axi4_write_sequence/r_wvalid $end
$var wire 1 47 memory_checker_0/iRST $end
$var wire 8 48 memory_checker_0/axi4_write_sequence/qTotalAverage $end
$upscope $end
$enddefinitions $end
#0
$dumpvars
00
b000 1
b0000000000 2
b00000000000000 3
04
05
b00 6
07
b00000000 8
09
b01111001011010100001000110010000 a
b01111001011010100001000110011010 b
b01111001011010100001000110011011 c
b01111001011010100001000110011100 d
b01111001011010100001000110011101 e
b01111001011010100001000110011110 f
b01111001011010100001000110011111 10
b01111001011010100001000110010001 11
b01111001011010100001000110010010 12
b01111001011010100001000110010011 13
b01111001011010100001000110010100 14
b01111001011010100001000110010101 15
b01111001011010100001000110010110 16
b01111001011010100001000110010111 17
b01111001011010100001000110011000 18
b01111001011010100001000110011001 19
01a
01b
01c
b000 1d
b0000000000 1e
b00000000000000 1f
020
021
b00 22
023
024
b000 25
b01010001 26
b01010001 27
b01010001 28
b01010001 29
b01011011 2a
b01011011 2b
b01100010 2c
b01010001 2d
b0000 2e
b01010101101 2f
b00000000 30
031
032
b00000000000000000000000000000000 33
b00000000000000000000000000001010 34
b00000000000000000000000000001011 35
b00000000000000000000000000001100 36
b00000000000000000000000000001101 37
b00000000000000000000000000001110 38
b00000000000000000000000000001111 39
b00000000000000000000000000000001 3a
b00000000000000000000000000000010 3b
b00000000000000000000000000000011 3c
b00000000000000000000000000000100 3d
b00000000000000000000000000000101 3e
b00000000000000000000000000000110 3f
b00000000000000000000000000000111 40
b00000000000000000000000000001000 41
b00000000000000000000000000001001 42
043
044
045
046
147
b01010101 48
$end
#1024
10
#1025
047
#1026
131
145
#1027
14
146
#1028
124
b00000001 30
#1029
b0001 2e
b00000010 30
b00000000000000000000000000010000 33
b00000000000000000000000000011010 34
b00000000000000000000000000011011 35
b00000000000000000000000000011100 36
b00000000000000000000000000011101 37
b00000000000000000000000000011110 38
b00000000000000000000000000011111 39
b00000000000000000000000000010001 3a
b00000000000000000000000000010010 3b
b00000000000000000000000000010011 3c
b00000000000000000000000000010100 3d
b00000000000000000000000000010101 3e
b00000000000000000000000000010110 3f
b00000000000000000000000000010111 40
b00000000000000000000000000011000 41
b00000000000000000000000000011001 42
#1030
b0010 2e
b00000011 30
b00000000000000000000000000100000 33
b00000000000000000000000000101010 34
b00000000000000000000000000101011 35
b00000000000000000000000000101100 36
b00000000000000000000000000101101 37
b00000000000000000000000000101110 38
b00000000000000000000000000101111 39
b00000000000000000000000000100001 3a
b00000000000000000000000000100010 3b
b00000000000000000000000000100011 3c
b00000000000000000000000000100100 3d
b00000000000000000000000000100101 3e
b00000000000000000000000000100110 3f
b00000000000000000000000000100111 40
b00000000000000000000000000101000 41
b00000000000000000000000000101001 42
#1031
b0011 2e
b00000100 30
b00000000000000000000000000110000 33
b00000000000000000000000000111010 34
b00000000000000000000000000111011 35
b00000000000000000000000000111100 36
b00000000000000000000000000111101 37
b00000000000000000000000000111110 38
b00000000000000000000000000111111 39
b00000000000000000000000000110001 3a
b00000000000000000000000000110010 3b
b00000000000000000000000000110011 3c
b00000000000000000000000000110100 3d
b00000000000000000000000000110101 3e
b00000000000000000000000000110110 3f
b00000000000000000000000000110111 40
b00000000000000000000000000111000 41
b00000000000000000000000000111001 42
#1032
b0100 2e
b00000101 30
b00000000000000000000000001000000 33
b00000000000000000000000001001010 34
b00000000000000000000000001001011 35
b00000000000000000000000001001100 36
b00000000000000000000000001001101 37
b00000000000000000000000001001110 38
b00000000000000000000000001001111 39
b00000000000000000000000001000001 3a
b00000000000000000000000001000010 3b
b00000000000000000000000001000011 3c
b00000000000000000000000001000100 3d
b00000000000000000000000001000101 3e
b00000000000000000000000001000110 3f
b00000000000000000000000001000111 40
b00000000000000000000000001001000 41
b00000000000000000000000001001001 42
#1033
b0101 2e
b00000110 30
b00000000000000000000000001010000 33
b00000000000000000000000001011010 34
b00000000000000000000000001011011 35
b00000000000000000000000001011100 36
b00000000000000000000000001011101 37
b00000000000000000000000001011110 38
b00000000000000000000000001011111 39
b00000000000000000000000001010001 3a
b00000000000000000000000001010010 3b
b00000000000000000000000001010011 3c
b00000000000000000000000001010100 3d
b00000000000000000000000001010101 3e
b00000000000000000000000001010110 3f
b00000000000000000000000001010111 40
b00000000000000000000000001011000 41
b00000000000000000000000001011001 42
#1034
b0110 2e
b00000111 30
b00000000000000000000000001100000 33
b00000000000000000000000001101010 34
b00000000000000000000000001101011 35
b00000000000000000000000001101100 36
b00000000000000000000000001101101 37
b00000000000000000000000001101110 38
b00000000000000000000000001101111 39
b00000000000000000000000001100001 3a
b00000000000000000000000001100010 3b
b00000000000000000000000001100011 3c
b00000000000000000000000001100100 3d
b00000000000000000000000001100101 3e
b00000000000000000000000001100110 3f
b00000000000000000000000001100111 40
b00000000000000000000000001101000 41
b00000000000000000000000001101001 42
#1035
b0111 2e
b00001000 30
b00000000000000000000000001110000 33
b00000000000000000000000001111010 34
b00000000000000000000000001111011 35
b00000000000000000000000001111100 36
b00000000000000000000000001111101 37
b00000000000000000000000001111110 38
b00000000000000000000000001111111 39
b00000000000000000000000001110001 3a
b00000000000000000000000001110010 3b
b00000000000000000000000001110011 3c
b00000000000000000000000001110100 3d
b00000000000000000000000001110101 3e
b00000000000000000000000001110110 3f
b00000000000000000000000001110111 40
b00000000000000000000000001111000 41
b00000000000000000000000001111001 42
#1036
b1000 2e
b00001001 30
b00000000000000000000000010000000 33
b00000000000000000000000010001010 34
b00000000000000000000000010001011 35
b00000000000000000000000010001100 36
b00000000000000000000000010001101 37
b00000000000000000000000010001110 38
b00000000000000000000000010001111 39
b00000000000000000000000010000001 3a
b00000000000000000000000010000010 3b
b00000000000000000000000010000011 3c
b00000000000000000000000010000100 3d
b00000000000000000000000010000101 3e
b00000000000000000000000010000110 3f
b00000000000000000000000010000111 40
b00000000000000000000000010001000 41
b00000000000000000000000010001001 42
#1037
b1001 2e
b00001010 30
b00000000000000000000000010010000 33
b00000000000000000000000010011010 34
b00000000000000000000000010011011 35
b00000000000000000000000010011100 36
b00000000000000000000000010011101 37
b00000000000000000000000010011110 38
b00000000000000000000000010011111 39
b00000000000000000000000010010001 3a
b00000000000000000000000010010010 3b
b00000000000000000000000010010011 3c
b00000000000000000000000010010100 3d
b00000000000000000000000010010101 3e
b00000000000000000000000010010110 3f
b00000000000000000000000010010111 40
b00000000000000000000000010011000 41
b00000000000000000000000010011001 42
#1038
b1010 2e
b00001011 30
b00000000000000000000000010100000 33
b00000000000000000000000010101010 34
b00000000000000000000000010101011 35
b00000000000000000000000010101100 36
b00000000000000000000000010101101 37
b00000000000000000000000010101110 38
b00000000000000000000000010101111 39
b00000000000000000000000010100001 3a
b00000000000000000000000010100010 3b
b00000000000000000000000010100011 3c
b00000000000000000000000010100100 3d
b00000000000000000000000010100101 3e
b00000000000000000000000010100110 3f
b00000000000000000000000010100111 40
b00000000000000000000000010101000 41
b00000000000000000000000010101001 42
#1039
b1011 2e
b00001100 30
b00000000000000000000000010110000 33
b00000000000000000000000010111010 34
b00000000000000000000000010111011 35
b00000000000000000000000010111100 36
b00000000000000000000000010111101 37
b00000000000000000000000010111110 38
b00000000000000000000000010111111 39
b00000000000000000000000010110001 3a
b00000000000000000000000010110010 3b
b00000000000000000000000010110011 3c
b00000000000000000000000010110100 3d
b00000000000000000000000010110101 3e
b00000000000000000000000010110110 3f
b00000000000000000000000010110111 40
b00000000000000000000000010111000 41
b00000000000000000000000010111001 42
#1040
b1100 2e
b00001101 30
b00000000000000000000000011000000 33
b00000000000000000000000011001010 34
b00000000000000000000000011001011 35
b00000000000000000000000011001100 36
b00000000000000000000000011001101 37
b00000000000000000000000011001110 38
b00000000000000000000000011001111 39
b00000000000000000000000011000001 3a
b00000000000000000000000011000010 3b
b00000000000000000000000011000011 3c
b00000000000000000000000011000100 3d
b00000000000000000000000011000101 3e
b00000000000000000000000011000110 3f
b00000000000000000000000011000111 40
b00000000000000000000000011001000 41
b00000000000000000000000011001001 42
#1041
b1101 2e
b00001110 30
b00000000000000000000000011010000 33
b00000000000000000000000011011010 34
b00000000000000000000000011011011 35
b00000000000000000000000011011100 36
b00000000000000000000000011011101 37
b00000000000000000000000011011110 38
b00000000000000000000000011011111 39
b00000000000000000000000011010001 3a
b00000000000000000000000011010010 3b
b00000000000000000000000011010011 3c
b00000000000000000000000011010100 3d
b00000000000000000000000011010101 3e
b00000000000000000000000011010110 3f
b00000000000000000000000011010111 40
b00000000000000000000000011011000 41
b00000000000000000000000011011001 42
#1042
121
b1110 2e
b00001111 30
b00000000000000000000000011100000 33
b00000000000000000000000011101010 34
b00000000000000000000000011101011 35
b00000000000000000000000011101100 36
b00000000000000000000000011101101 37
b00000000000000000000000011101110 38
b00000000000000000000000011101111 39
b00000000000000000000000011100001 3a
b00000000000000000000000011100010 3b
b00000000000000000000000011100011 3c
b00000000000000000000000011100100 3d
b00000000000000000000000011100101 3e
b00000000000000000000000011100110 3f
b00000000000000000000000011100111 40
b00000000000000000000000011101000 41
b00000000000000000000000011101001 42
#1043
120
021
b1111 2e
b00010000 30
031
b00000000000000000000000011110000 33
b00000000000000000000000011111010 34
b00000000000000000000000011111011 35
b00000000000000000000000011111100 36
b00000000000000000000000011111101 37
b00000000000000000000000011111110 38
b00000000000000000000000011111111 39
b00000000000000000000000011110001 3a
b00000000000000000000000011110010 3b
b00000000000000000000000011110011 3c
b00000000000000000000000011110100 3d
b00000000000000000000000011110101 3e
b00000000000000000000000011110110 3f
b00000000000000000000000011110111 40
b00000000000000000000000011111000 41
b00000000000000000000000011111001 42
144
#1044
020
024
b0000 2e
b00010001 30
b00000000000000000000000100000000 33
b00000000000000000000000100001010 34
b00000000000000000000000100001011 35
b00000000000000000000000100001100 36
b00000000000000000000000100001101 37
b00000000000000000000000100001110 38
b00000000000000000000000100001111 39
b00000000000000000000000100000001 3a
b00000000000000000000000100000010 3b
b00000000000000000000000100000011 3c
b00000000000000000000000100000100 3d
b00000000000000000000000100000101 3e
b00000000000000000000000100000110 3f
b00000000000000000000000100000111 40
b00000000000000000000000100001000 41
b00000000000000000000000100001001 42
044
046
#1045
b00010010 30
#1046
b00010011 30
#1047
b00010100 30
#1048
b00010101 30
#1049
b00010110 30
#1050
b00010111 30
#1051
b00011000 30
#1052
b00011001 30
#1053
b00011010 30
#1054
b00011011 30
#1055
b00011100 30
#1056
b00011101 30
#1057
b00011110 30
#1058
b00011111 30
#1059
b00100000 30
#1060
b00100001 30
#1061
b00100010 30
#1062
123
b00100011 30
#1063
b00100100 30
132
#1064
b00000001000000 1f
023
b001 25
b00100100 26
b00100101 30
032
143
045
#1065
19
b01010000000 2f
b00000000 30
131
043
145
b01010000 48
#1066
09
11a
11b
124
146
#1067
b00000001 8
b0001 2e
b00000001 30
b00000000000000000000000100010000 33
b00000000000000000000000100011010 34
b00000000000000000000000100011011 35
b00000000000000000000000100011100 36
b00000000000000000000000100011101 37
b00000000000000000000000100011110 38
b00000000000000000000000100011111 39
b00000000000000000000000100010001 3a
b00000000000000000000000100010010 3b
b00000000000000000000000100010011 3c
b00000000000000000000000100010100 3d
b00000000000000000000000100010101 3e
b00000000000000000000000100010110 3f
b00000000000000000000000100010111 40
b00000000000000000000000100011000 41
b00000000000000000000000100011001 42
#1068
b00000010 8
b0010 2e
b00000010 30
b00000000000000000000000100100000 33
b00000000000000000000000100101010 34
b00000000000000000000000100101011 35
b00000000000000000000000100101100 36
b00000000000000000000000100101101 37
b00000000000000000000000100101110 38
b00000000000000000000000100101111 39
b00000000000000000000000100100001 3a
b00000000000000000000000100100010 3b
b00000000000000000000000100100011 3c
b00000000000000000000000100100100 3d
b00000000000000000000000100100101 3e
b00000000000000000000000100100110 3f
b00000000000000000000000100100111 40
b00000000000000000000000100101000 41
b00000000000000000000000100101001 42
#1069
b00000011 8
b0011 2e
b00000011 30
b00000000000000000000000100110000 33
b00000000000000000000000100111010 34
b00000000000000000000000100111011 35
b00000000000000000000000100111100 36
b00000000000000000000000100111101 37
b00000000000000000000000100111110 38
b00000000000000000000000100111111 39
b00000000000000000000000100110001 3a
b00000000000000000000000100110010 3b
b00000000000000000000000100110011 3c
b00000000000000000000000100110100 3d
b00000000000000000000000100110101 3e
b00000000000000000000000100110110 3f
b00000000000000000000000100110111 40
b00000000000000000000000100111000 41
b00000000000000000000000100111001 42
#1070
b00000100 8
b0100 2e
b00000100 30
b00000000000000000000000101000000 33
b00000000000000000000000101001010 34
b00000000000000000000000101001011 35
b00000000000000000000000101001100 36
b00000000000000000000000101001101 37
b00000000000000000000000101001110 38
b00000000000000000000000101001111 39
b00000000000000000000000101000001 3a
b00000000000000000000000101000010 3b
b00000000000000000000000101000011 3c
b00000000000000000000000101000100 3d
b00000000000000000000000101000101 3e
b00000000000000000000000101000110 3f
b00000000000000000000000101000111 40
b00000000000000000000000101001000 41
b00000000000000000000000101001001 42
#1071
b00000101 8
b0101 2e
b00000101 30
b00000000000000000000000101010000 33
b00000000000000000000000101011010 34
b00000000000000000000000101011011 35
b00000000000000000000000101011100 36
b00000000000000000000000101011101 37
b00000000000000000000000101011110 38
b00000000000000000000000101011111 39
b00000000000000000000000101010001 3a
b00000000000000000000000101010010 3b
b00000000000000000000000101010011 3c
b00000000000000000000000101010100 3d
b00000000000000000000000101010101 3e
b00000000000000000000000101010110 3f
b00000000000000000000000101010111 40
b00000000000000000000000101011000 41
b00000000000000000000000101011001 42
#1072
b00000110 8
b0110 2e
b00000110 30
b00000000000000000000000101100000 33
b00000000000000000000000101101010 34
b00000000000000000000000101101011 35
b00000000000000000000000101101100 36
b00000000000000000000000101101101 37
b00000000000000000000000101101110 38
b00000000000000000000000101101111 39
b00000000000000000000000101100001 3a
b00000000000000000000000101100010 3b
b00000000000000000000000101100011 3c
b00000000000000000000000101100100 3d
b00000000000000000000000101100101 3e
b00000000000000000000000101100110 3f
b00000000000000000000000101100111 40
b00000000000000000000000101101000 41
b00000000000000000000000101101001 42
#1073
b00000111 8
b0111 2e
b00000111 30
b00000000000000000000000101110000 33
b00000000000000000000000101111010 34
b00000000000000000000000101111011 35
b00000000000000000000000101111100 36
b00000000000000000000000101111101 37
b00000000000000000000000101111110 38
b00000000000000000000000101111111 39
b00000000000000000000000101110001 3a
b00000000000000000000000101110010 3b
b00000000000000000000000101110011 3c
b00000000000000000000000101110100 3d
b00000000000000000000000101110101 3e
b00000000000000000000000101110110 3f
b00000000000000000000000101110111 40
b00000000000000000000000101111000 41
b00000000000000000000000101111001 42
#1074
b00001000 8
b1000 2e
b00001000 30
b00000000000000000000000110000000 33
b00000000000000000000000110001010 34
b00000000000000000000000110001011 35
b00000000000000000000000110001100 36
b00000000000000000000000110001101 37
b00000000000000000000000110001110 38
b00000000000000000000000110001111 39
b00000000000000000000000110000001 3a
b00000000000000000000000110000010 3b
b00000000000000000000000110000011 3c
b00000000000000000000000110000100 3d
b00000000000000000000000110000101 3e
b00000000000000000000000110000110 3f
b00000000000000000000000110000111 40
b00000000000000000000000110001000 41
b00000000000000000000000110001001 42
#1075
b00001001 8
b1001 2e
b00001001 30
b00000000000000000000000110010000 33
b00000000000000000000000110011010 34
b00000000000000000000000110011011 35
b00000000000000000000000110011100 36
b00000000000000000000000110011101 37
b00000000000000000000000110011110 38
b00000000000000000000000110011111 39
b00000000000000000000000110010001 3a
b00000000000000000000000110010010 3b
b00000000000000000000000110010011 3c
b00000000000000000000000110010100 3d
b00000000000000000000000110010101 3e
b00000000000000000000000110010110 3f
b00000000000000000000000110010111 40
b00000000000000000000000110011000 41
b00000000000000000000000110011001 42
#1076
17
b00001010 8
b1010 2e
b00001010 30
b00000000000000000000000110100000 33
b00000000000000000000000110101010 34
b00000000000000000000000110101011 35
b00000000000000000000000110101100 36
b00000000000000000000000110101101 37
b00000000000000000000000110101110 38
b00000000000000000000000110101111 39
b00000000000000000000000110100001 3a
b00000000000000000000000110100010 3b
b00000000000000000000000110100011 3c
b00000000000000000000000110100100 3d
b00000000000000000000000110100101 3e
b00000000000000000000000110100110 3f
b00000000000000000000000110100111 40
b00000000000000000000000110101000 41
b00000000000000000000000110101001 42
#1077
07
b00001011 8
b00000000000000000000000000000000 a
b00000000000000000000000000001010 b
b00000000000000000000000000001011 c
b00000000000000000000000000001100 d
b00000000000000000000000000001101 e
b00000000000000000000000000001110 f
b00000000000000000000000000001111 10
b00000000000000000000000000000001 11
b00000000000000000000000000000010 12
b00000000000000000000000000000011 13
b00000000000000000000000000000100 14
b00000000000000000000000000000101 15
b00000000000000000000000000000110 16
b00000000000000000000000000000111 17
b00000000000000000000000000001000 18
b00000000000000000000000000001001 19
11c
b1011 2e
b00001011 30
b00000000000000000000000110110000 33
b00000000000000000000000110111010 34
b00000000000000000000000110111011 35
b00000000000000000000000110111100 36
b00000000000000000000000110111101 37
b00000000000000000000000110111110 38
b00000000000000000000000110111111 39
b00000000000000000000000110110001 3a
b00000000000000000000000110110010 3b
b00000000000000000000000110110011 3c
b00000000000000000000000110110100 3d
b00000000000000000000000110110101 3e
b00000000000000000000000110110110 3f
b00000000000000000000000110110111 40
b00000000000000000000000110111000 41
b00000000000000000000000110111001 42
#1078
17
b00001100 8
01c
b1100 2e
b00001100 30
b00000000000000000000000111000000 33
b00000000000000000000000111001010 34
b00000000000000000000000111001011 35
b00000000000000000000000111001100 36
b00000000000000000000000111001101 37
b00000000000000000000000111001110 38
b00000000000000000000000111001111 39
b00000000000000000000000111000001 3a
b00000000000000000000000111000010 3b
b00000000000000000000000111000011 3c
b00000000000000000000000111000100 3d
b00000000000000000000000111000101 3e
b00000000000000000000000111000110 3f
b00000000000000000000000111000111 40
b00000000000000000000000111001000 41
b00000000000000000000000111001001 42
#1079
07
b00001101 8
b00000000000000000000000000010000 a
b00000000000000000000000000011010 b
b00000000000000000000000000011011 c
b00000000000000000000000000011100 d
b00000000000000000000000000011101 e
b00000000000000000000000000011110 f
b00000000000000000000000000011111 10
b00000000000000000000000000010001 11
b00000000000000000000000000010010 12
b00000000000000000000000000010011 13
b00000000000000000000000000010100 14
b00000000000000000000000000010101 15
b00000000000000000000000000010110 16
b00000000000000000000000000010111 17
b00000000000000000000000000011000 18
b00000000000000000000000000011001 19
11c
b1101 2e
b00001101 30
b00000000000000000000000111010000 33
b00000000000000000000000111011010 34
b00000000000000000000000111011011 35
b00000000000000000000000111011100 36
b00000000000000000000000111011101 37
b00000000000000000000000111011110 38
b00000000000000000000000111011111 39
b00000000000000000000000111010001 3a
b00000000000000000000000111010010 3b
b00000000000000000000000111010011 3c
b00000000000000000000000111010100 3d
b00000000000000000000000111010101 3e
b00000000000000000000000111010110 3f
b00000000000000000000000111010111 40
b00000000000000000000000111011000 41
b00000000000000000000000111011001 42
#1080
b00001110 8
01c
121
b1110 2e
b00001110 30
b00000000000000000000000111100000 33
b00000000000000000000000111101010 34
b00000000000000000000000111101011 35
b00000000000000000000000111101100 36
b00000000000000000000000111101101 37
b00000000000000000000000111101110 38
b00000000000000000000000111101111 39
b00000000000000000000000111100001 3a
b00000000000000000000000111100010 3b
b00000000000000000000000111100011 3c
b00000000000000000000000111100100 3d
b00000000000000000000000111100101 3e
b00000000000000000000000111100110 3f
b00000000000000000000000111100111 40
b00000000000000000000000111101000 41
b00000000000000000000000111101001 42
#1081
b00001111 8
120
021
b1111 2e
b00001111 30
031
b00000000000000000000000111110000 33
b00000000000000000000000111111010 34
b00000000000000000000000111111011 35
b00000000000000000000000111111100 36
b00000000000000000000000111111101 37
b00000000000000000000000111111110 38
b00000000000000000000000111111111 39
b00000000000000000000000111110001 3a
b00000000000000000000000111110010 3b
b00000000000000000000000111110011 3c
b00000000000000000000000111110100 3d
b00000000000000000000000111110101 3e
b00000000000000000000000111110110 3f
b00000000000000000000000111110111 40
b00000000000000000000000111111000 41
b00000000000000000000000111111001 42
144
#1082
b00010000 8
020
024
b0000 2e
b00010000 30
b00000000000000000000001000000000 33
b00000000000000000000001000001010 34
b00000000000000000000001000001011 35
b00000000000000000000001000001100 36
b00000000000000000000001000001101 37
b00000000000000000000001000001110 38
b00000000000000000000001000001111 39
b00000000000000000000001000000001 3a
b00000000000000000000001000000010 3b
b00000000000000000000001000000011 3c
b00000000000000000000001000000100 3d
b00000000000000000000001000000101 3e
b00000000000000000000001000000110 3f
b00000000000000000000001000000111 40
b00000000000000000000001000001000 41
b00000000000000000000001000001001 42
044
046
#1083
17
b00010001 8
b00010001 30
#1084
b00010010 8
b00000000000000000000000000100000 a
b00000000000000000000000000101010 b
b00000000000000000000000000101011 c
b00000000000000000000000000101100 d
b00000000000000000000000000101101 e
b00000000000000000000000000101110 f
b00000000000000000000000000101111 10
b00000000000000000000000000100001 11
b00000000000000000000000000100010 12
b00000000000000000000000000100011 13
b00000000000000000000000000100100 14
b00000000000000000000000000100101 15
b00000000000000000000000000100110 16
b00000000000000000000000000100111 17
b00000000000000000000000000101000 18
b00000000000000000000000000101001 19
11c
b00010010 30
#1085
07
b00010011 8
b00000000000000000000000000110000 a
b00000000000000000000000000111010 b
b00000000000000000000000000111011 c
b00000000000000000000000000111100 d
b00000000000000000000000000111101 e
b00000000000000000000000000111110 f
b00000000000000000000000000111111 10
b00000000000000000000000000110001 11
b00000000000000000000000000110010 12
b00000000000000000000000000110011 13
b00000000000000000000000000110100 14
b00000000000000000000000000110101 15
b00000000000000000000000000110110 16
b00000000000000000000000000110111 17
b00000000000000000000000000111000 18
b00000000000000000000000000111001 19
b00010011 30
#1086
b00010100 8
01c
b00010100 30
#1087
b00010101 8
b00010101 30
#1088
b00010110 8
b00010110 30
#1089
17
b00010111 8
b00010111 30
#1090
07
b00011000 8
b00000000000000000000000001000000 a
b00000000000000000000000001001010 b
b00000000000000000000000001001011 c
b00000000000000000000000001001100 d
b00000000000000000000000001001101 e
b00000000000000000000000001001110 f
b00000000000000000000000001001111 10
b00000000000000000000000001000001 11
b00000000000000000000000001000010 12
b00000000000000000000000001000011 13
b00000000000000000000000001000100 14
b00000000000000000000000001000101 15
b00000000000000000000000001000110 16
b00000000000000000000000001000111 17
b00000000000000000000000001001000 18
b00000000000000000000000001001001 19
11c
b00011000 30
#1091
17
b00011001 8
01c
b00011001 30
#1092
07
b00011010 8
b00000000000000000000000001010000 a
b00000000000000000000000001011010 b
b00000000000000000000000001011011 c
b00000000000000000000000001011100 d
b00000000000000000000000001011101 e
b00000000000000000000000001011110 f
b00000000000000000000000001011111 10
b00000000000000000000000001010001 11
b00000000000000000000000001010010 12
b00000000000000000000000001010011 13
b00000000000000000000000001010100 14
b00000000000000000000000001010101 15
b00000000000000000000000001010110 16
b00000000000000000000000001010111 17
b00000000000000000000000001011000 18
b00000000000000000000000001011001 19
11c
b00011010 30
#1093
b00011011 8
01c
b00011011 30
#1094
b00011100 8
b00011100 30
#1095
b00011101 8
b00011101 30
#1096
b00011110 8
b00011110 30
#1097
b00011111 8
b00011111 30
#1098
b00100000 8
b00100000 30
#1099
b00100001 8
b00100001 30
#1100
b00100010 8
b00100010 30
#1101
b00100011 8
b00100011 30
#1102
b00100100 8
b00100100 30
#1103
b00100101 8
b00100101 30
#1104
b00100110 8
b00100110 30
#1105
17
b00100111 8
b00100111 30
#1106
07
b00101000 8
b00000000000000000000000001100000 a
b00000000000000000000000001101010 b
b00000000000000000000000001101011 c
b00000000000000000000000001101100 d
b00000000000000000000000001101101 e
b00000000000000000000000001101110 f
b00000000000000000000000001101111 10
b00000000000000000000000001100001 11
b00000000000000000000000001100010 12
b00000000000000000000000001100011 13
b00000000000000000000000001100100 14
b00000000000000000000000001100101 15
b00000000000000000000000001100110 16
b00000000000000000000000001100111 17
b00000000000000000000000001101000 18
b00000000000000000000000001101001 19
11c
b00101000 30
#1107
17
b00101001 8
01c
b00101001 30
#1108
07
b00101010 8
b00000000000000000000000001110000 a
b00000000000000000000000001111010 b
b00000000000000000000000001111011 c
b00000000000000000000000001111100 d
b00000000000000000000000001111101 e
b00000000000000000000000001111110 f
b00000000000000000000000001111111 10
b00000000000000000000000001110001 11
b00000000000000000000000001110010 12
b00000000000000000000000001110011 13
b00000000000000000000000001110100 14
b00000000000000000000000001110101 15
b00000000000000000000000001110110 16
b00000000000000000000000001110111 17
b00000000000000000000000001111000 18
b00000000000000000000000001111001 19
11c
b00101010 30
#1109
b00101011 8
01c
b00101011 30
#1110
b00101100 8
b00101100 30
#1111
b00101101 8
b00101101 30
#1112
17
b00101110 8
b00101110 30
