Efinix/Titanium/MemoryTest/Ti180_FMB_R1W1_k256m32_230125/la0_waveform.vcd
#0 $dumpon
$date today $end
$timescale 1 ns $end
$scope module top $end
$var wire 1 0 ddr_reset_sequencer/r_ddr_init_done $end
$var wire 3 1 memory_checker_0/axi4_read_sequence/axi4_adrs_generator/rBank $end
$var wire 10 2 memory_checker_0/axi4_read_sequence/axi4_adrs_generator/rCol $end
$var wire 14 3 memory_checker_0/axi4_read_sequence/axi4_adrs_generator/rRow $end
$var wire 1 4 memory_checker_0/axi4_read_sequence/q_arready $end
$var wire 1 5 memory_checker_0/axi4_read_sequence/q_rrast $end
$var wire 2 6 memory_checker_0/axi4_read_sequence/q_rresp $end
$var wire 1 7 memory_checker_0/axi4_read_sequence/q_rvalid $end
$var wire 8 8 memory_checker_0/axi4_read_sequence/rRSpeedMeas $end
$var wire 1 9 memory_checker_0/axi4_read_sequence/r_arvalid $end
$var wire 32 a memory_checker_0/axi4_read_sequence/r_rdata[0] $end
$var wire 32 b memory_checker_0/axi4_read_sequence/r_rdata[10] $end
$var wire 32 c memory_checker_0/axi4_read_sequence/r_rdata[11] $end
$var wire 32 d memory_checker_0/axi4_read_sequence/r_rdata[12] $end
$var wire 32 e memory_checker_0/axi4_read_sequence/r_rdata[13] $end
$var wire 32 f memory_checker_0/axi4_read_sequence/r_rdata[14] $end
$var wire 32 10 memory_checker_0/axi4_read_sequence/r_rdata[15] $end
$var wire 32 11 memory_checker_0/axi4_read_sequence/r_rdata[1] $end
$var wire 32 12 memory_checker_0/axi4_read_sequence/r_rdata[2] $end
$var wire 32 13 memory_checker_0/axi4_read_sequence/r_rdata[3] $end
$var wire 32 14 memory_checker_0/axi4_read_sequence/r_rdata[4] $end
$var wire 32 15 memory_checker_0/axi4_read_sequence/r_rdata[5] $end
$var wire 32 16 memory_checker_0/axi4_read_sequence/r_rdata[6] $end
$var wire 32 17 memory_checker_0/axi4_read_sequence/r_rdata[7] $end
$var wire 32 18 memory_checker_0/axi4_read_sequence/r_rdata[8] $end
$var wire 32 19 memory_checker_0/axi4_read_sequence/r_rdata[9] $end
$var wire 1 1a memory_checker_0/axi4_read_sequence/r_rready $end
$var wire 1 1b memory_checker_0/axi4_read_sequence/r_rstart $end
$var wire 1 1c memory_checker_0/axi4_read_sequence/r_rvalid $end
$var wire 3 1d memory_checker_0/axi4_write_sequence/axi4_adrs_generator/rBank $end
$var wire 10 1e memory_checker_0/axi4_write_sequence/axi4_adrs_generator/rCol $end
$var wire 14 1f memory_checker_0/axi4_write_sequence/axi4_adrs_generator/rRow $end
$var wire 1 20 memory_checker_0/axi4_write_sequence/qBurstMaxCke $end
$var wire 1 21 memory_checker_0/axi4_write_sequence/q_awready $end
$var wire 2 22 memory_checker_0/axi4_write_sequence/q_bresp $end
$var wire 1 23 memory_checker_0/axi4_write_sequence/q_bvalid $end
$var wire 1 24 memory_checker_0/axi4_write_sequence/q_wready $end
$var wire 3 25 memory_checker_0/axi4_write_sequence/rABuffAdrs $end
$var wire 8 26 memory_checker_0/axi4_write_sequence/rABuff[0] $end
$var wire 8 27 memory_checker_0/axi4_write_sequence/rABuff[1] $end
$var wire 8 28 memory_checker_0/axi4_write_sequence/rABuff[2] $end
$var wire 8 29 memory_checker_0/axi4_write_sequence/rABuff[3] $end
$var wire 8 2a memory_checker_0/axi4_write_sequence/rABuff[4] $end
$var wire 8 2b memory_checker_0/axi4_write_sequence/rABuff[5] $end
$var wire 8 2c memory_checker_0/axi4_write_sequence/rABuff[6] $end
$var wire 8 2d memory_checker_0/axi4_write_sequence/rABuff[7] $end
$var wire 4 2e memory_checker_0/axi4_write_sequence/rBurstCnt $end
$var wire 11 2f memory_checker_0/axi4_write_sequence/rTotalAverage $end
$var wire 8 30 memory_checker_0/axi4_write_sequence/rWSpeedMeas $end
$var wire 1 31 memory_checker_0/axi4_write_sequence/r_awvalid $end
$var wire 1 32 memory_checker_0/axi4_write_sequence/r_bready $end
$var wire 32 33 memory_checker_0/axi4_write_sequence/r_wdata[0] $end
$var wire 32 34 memory_checker_0/axi4_write_sequence/r_wdata[10] $end
$var wire 32 35 memory_checker_0/axi4_write_sequence/r_wdata[11] $end
$var wire 32 36 memory_checker_0/axi4_write_sequence/r_wdata[12] $end
$var wire 32 37 memory_checker_0/axi4_write_sequence/r_wdata[13] $end
$var wire 32 38 memory_checker_0/axi4_write_sequence/r_wdata[14] $end
$var wire 32 39 memory_checker_0/axi4_write_sequence/r_wdata[15] $end
$var wire 32 3a memory_checker_0/axi4_write_sequence/r_wdata[1] $end
$var wire 32 3b memory_checker_0/axi4_write_sequence/r_wdata[2] $end
$var wire 32 3c memory_checker_0/axi4_write_sequence/r_wdata[3] $end
$var wire 32 3d memory_checker_0/axi4_write_sequence/r_wdata[4] $end
$var wire 32 3e memory_checker_0/axi4_write_sequence/r_wdata[5] $end
$var wire 32 3f memory_checker_0/axi4_write_sequence/r_wdata[6] $end
$var wire 32 40 memory_checker_0/axi4_write_sequence/r_wdata[7] $end
$var wire 32 41 memory_checker_0/axi4_write_sequence/r_wdata[8] $end
$var wire 32 42 memory_checker_0/axi4_write_sequence/r_wdata[9] $end
$var wire 1 43 memory_checker_0/axi4_write_sequence/r_wdone $end
$var wire 1 44 memory_checker_0/axi4_write_sequence/r_wlast $end
$var wire 1 45 memory_checker_0/axi4_write_sequence/r_wstart $end
$var wire 1 46 memory_checker_0/axi4_write_sequence/r_wvalid $end
$var wire 1 47 memory_checker_0/iRST $end
$var wire 8 48 memory_checker_0/axi4_write_sequence/qTotalAverage $end
$upscope $end
$enddefinitions $end
#0
$dumpvars
10
b100 1
b0010100000 2
b01011110000000 3
14
05
b00 6
07
b00000000 8
09
b00001101000010100101110111110000 a
b00001101000010100101110111111010 b
b00001101000010100101110111111011 c
b00001101000010100101110111111100 d
b00001101000010100101110111111101 e
b00001101000010100101110111111110 f
b00001101000010100101110111111111 10
b00001101000010100101110111110001 11
b00001101000010100101110111110010 12
b00001101000010100101110111110011 13
b00001101000010100101110111110100 14
b00001101000010100101110111110101 15
b00001101000010100101110111110110 16
b00001101000010100101110111110111 17
b00001101000010100101110111111000 18
b00001101000010100101110111111001 19
01a
01b
01c
b100 1d
b0010100000 1e
b01011110000000 1f
020
021
b00 22
023
024
b110 25
b01011001 26
b01010010 27
b01010010 28
b01011100 29
b01100100 2a
b01010010 2b
b01011100 2c
b01101110 2d
b0000 2e
b01011011001 2f
b01001011 30
031
032
b00001101000010100101111100000000 33
b00001101000010100101111100001010 34
b00001101000010100101111100001011 35
b00001101000010100101111100001100 36
b00001101000010100101111100001101 37
b00001101000010100101111100001110 38
b00001101000010100101111100001111 39
b00001101000010100101111100000001 3a
b00001101000010100101111100000010 3b
b00001101000010100101111100000011 3c
b00001101000010100101111100000100 3d
b00001101000010100101111100000101 3e
b00001101000010100101111100000110 3f
b00001101000010100101111100000111 40
b00001101000010100101111100001000 41
b00001101000010100101111100001001 42
043
044
145
046
047
b01011011 48
$end
#1
b01001100 30
#2
b01001101 30
#3
b01001110 30
#4
b01001111 30
#5
b01010000 30
#6
123
b01010001 30
#7
b01010010 30
132
#8
b01011111000000 1f
023
b111 25
b01010010 2c
b01010011 30
032
143
045
#9
19
b01011001111 2f
b00000000 30
131
043
145
b01011001 48
#10
09
11a
11b
124
146
#11
b00000001 8
b0001 2e
b00000001 30
b00001101000010100101111100010000 33
b00001101000010100101111100011010 34
b00001101000010100101111100011011 35
b00001101000010100101111100011100 36
b00001101000010100101111100011101 37
b00001101000010100101111100011110 38
b00001101000010100101111100011111 39
b00001101000010100101111100010001 3a
b00001101000010100101111100010010 3b
b00001101000010100101111100010011 3c
b00001101000010100101111100010100 3d
b00001101000010100101111100010101 3e
b00001101000010100101111100010110 3f
b00001101000010100101111100010111 40
b00001101000010100101111100011000 41
b00001101000010100101111100011001 42
#12
b00000010 8
b0010 2e
b00000010 30
b00001101000010100101111100100000 33
b00001101000010100101111100101010 34
b00001101000010100101111100101011 35
b00001101000010100101111100101100 36
b00001101000010100101111100101101 37
b00001101000010100101111100101110 38
b00001101000010100101111100101111 39
b00001101000010100101111100100001 3a
b00001101000010100101111100100010 3b
b00001101000010100101111100100011 3c
b00001101000010100101111100100100 3d
b00001101000010100101111100100101 3e
b00001101000010100101111100100110 3f
b00001101000010100101111100100111 40
b00001101000010100101111100101000 41
b00001101000010100101111100101001 42
#13
b00000011 8
b0011 2e
b00000011 30
b00001101000010100101111100110000 33
b00001101000010100101111100111010 34
b00001101000010100101111100111011 35
b00001101000010100101111100111100 36
b00001101000010100101111100111101 37
b00001101000010100101111100111110 38
b00001101000010100101111100111111 39
b00001101000010100101111100110001 3a
b00001101000010100101111100110010 3b
b00001101000010100101111100110011 3c
b00001101000010100101111100110100 3d
b00001101000010100101111100110101 3e
b00001101000010100101111100110110 3f
b00001101000010100101111100110111 40
b00001101000010100101111100111000 41
b00001101000010100101111100111001 42
#14
b00000100 8
b0100 2e
b00000100 30
b00001101000010100101111101000000 33
b00001101000010100101111101001010 34
b00001101000010100101111101001011 35
b00001101000010100101111101001100 36
b00001101000010100101111101001101 37
b00001101000010100101111101001110 38
b00001101000010100101111101001111 39
b00001101000010100101111101000001 3a
b00001101000010100101111101000010 3b
b00001101000010100101111101000011 3c
b00001101000010100101111101000100 3d
b00001101000010100101111101000101 3e
b00001101000010100101111101000110 3f
b00001101000010100101111101000111 40
b00001101000010100101111101001000 41
b00001101000010100101111101001001 42
#15
b00000101 8
b0101 2e
b00000101 30
b00001101000010100101111101010000 33
b00001101000010100101111101011010 34
b00001101000010100101111101011011 35
b00001101000010100101111101011100 36
b00001101000010100101111101011101 37
b00001101000010100101111101011110 38
b00001101000010100101111101011111 39
b00001101000010100101111101010001 3a
b00001101000010100101111101010010 3b
b00001101000010100101111101010011 3c
b00001101000010100101111101010100 3d
b00001101000010100101111101010101 3e
b00001101000010100101111101010110 3f
b00001101000010100101111101010111 40
b00001101000010100101111101011000 41
b00001101000010100101111101011001 42
#16
b00000110 8
b0110 2e
b00000110 30
b00001101000010100101111101100000 33
b00001101000010100101111101101010 34
b00001101000010100101111101101011 35
b00001101000010100101111101101100 36
b00001101000010100101111101101101 37
b00001101000010100101111101101110 38
b00001101000010100101111101101111 39
b00001101000010100101111101100001 3a
b00001101000010100101111101100010 3b
b00001101000010100101111101100011 3c
b00001101000010100101111101100100 3d
b00001101000010100101111101100101 3e
b00001101000010100101111101100110 3f
b00001101000010100101111101100111 40
b00001101000010100101111101101000 41
b00001101000010100101111101101001 42
#17
b00000111 8
b0111 2e
b00000111 30
b00001101000010100101111101110000 33
b00001101000010100101111101111010 34
b00001101000010100101111101111011 35
b00001101000010100101111101111100 36
b00001101000010100101111101111101 37
b00001101000010100101111101111110 38
b00001101000010100101111101111111 39
b00001101000010100101111101110001 3a
b00001101000010100101111101110010 3b
b00001101000010100101111101110011 3c
b00001101000010100101111101110100 3d
b00001101000010100101111101110101 3e
b00001101000010100101111101110110 3f
b00001101000010100101111101110111 40
b00001101000010100101111101111000 41
b00001101000010100101111101111001 42
#18
b00001000 8
b1000 2e
b00001000 30
b00001101000010100101111110000000 33
b00001101000010100101111110001010 34
b00001101000010100101111110001011 35
b00001101000010100101111110001100 36
b00001101000010100101111110001101 37
b00001101000010100101111110001110 38
b00001101000010100101111110001111 39
b00001101000010100101111110000001 3a
b00001101000010100101111110000010 3b
b00001101000010100101111110000011 3c
b00001101000010100101111110000100 3d
b00001101000010100101111110000101 3e
b00001101000010100101111110000110 3f
b00001101000010100101111110000111 40
b00001101000010100101111110001000 41
b00001101000010100101111110001001 42
#19
b00001001 8
b1001 2e
b00001001 30
b00001101000010100101111110010000 33
b00001101000010100101111110011010 34
b00001101000010100101111110011011 35
b00001101000010100101111110011100 36
b00001101000010100101111110011101 37
b00001101000010100101111110011110 38
b00001101000010100101111110011111 39
b00001101000010100101111110010001 3a
b00001101000010100101111110010010 3b
b00001101000010100101111110010011 3c
b00001101000010100101111110010100 3d
b00001101000010100101111110010101 3e
b00001101000010100101111110010110 3f
b00001101000010100101111110010111 40
b00001101000010100101111110011000 41
b00001101000010100101111110011001 42
#20
17
b00001010 8
b1010 2e
b00001010 30
b00001101000010100101111110100000 33
b00001101000010100101111110101010 34
b00001101000010100101111110101011 35
b00001101000010100101111110101100 36
b00001101000010100101111110101101 37
b00001101000010100101111110101110 38
b00001101000010100101111110101111 39
b00001101000010100101111110100001 3a
b00001101000010100101111110100010 3b
b00001101000010100101111110100011 3c
b00001101000010100101111110100100 3d
b00001101000010100101111110100101 3e
b00001101000010100101111110100110 3f
b00001101000010100101111110100111 40
b00001101000010100101111110101000 41
b00001101000010100101111110101001 42
#21
07
b00001011 8
b00001101000010100101111000000000 a
b00001101000010100101111000001010 b
b00001101000010100101111000001011 c
b00001101000010100101111000001100 d
b00001101000010100101111000001101 e
b00001101000010100101111000001110 f
b00001101000010100101111000001111 10
b00001101000010100101111000000001 11
b00001101000010100101111000000010 12
b00001101000010100101111000000011 13
b00001101000010100101111000000100 14
b00001101000010100101111000000101 15
b00001101000010100101111000000110 16
b00001101000010100101111000000111 17
b00001101000010100101111000001000 18
b00001101000010100101111000001001 19
11c
b1011 2e
b00001011 30
b00001101000010100101111110110000 33
b00001101000010100101111110111010 34
b00001101000010100101111110111011 35
b00001101000010100101111110111100 36
b00001101000010100101111110111101 37
b00001101000010100101111110111110 38
b00001101000010100101111110111111 39
b00001101000010100101111110110001 3a
b00001101000010100101111110110010 3b
b00001101000010100101111110110011 3c
b00001101000010100101111110110100 3d
b00001101000010100101111110110101 3e
b00001101000010100101111110110110 3f
b00001101000010100101111110110111 40
b00001101000010100101111110111000 41
b00001101000010100101111110111001 42
#22
17
b00001100 8
01c
b1100 2e
b00001100 30
b00001101000010100101111111000000 33
b00001101000010100101111111001010 34
b00001101000010100101111111001011 35
b00001101000010100101111111001100 36
b00001101000010100101111111001101 37
b00001101000010100101111111001110 38
b00001101000010100101111111001111 39
b00001101000010100101111111000001 3a
b00001101000010100101111111000010 3b
b00001101000010100101111111000011 3c
b00001101000010100101111111000100 3d
b00001101000010100101111111000101 3e
b00001101000010100101111111000110 3f
b00001101000010100101111111000111 40
b00001101000010100101111111001000 41
b00001101000010100101111111001001 42
#23
07
b00001101 8
b00001101000010100101111000010000 a
b00001101000010100101111000011010 b
b00001101000010100101111000011011 c
b00001101000010100101111000011100 d
b00001101000010100101111000011101 e
b00001101000010100101111000011110 f
b00001101000010100101111000011111 10
b00001101000010100101111000010001 11
b00001101000010100101111000010010 12
b00001101000010100101111000010011 13
b00001101000010100101111000010100 14
b00001101000010100101111000010101 15
b00001101000010100101111000010110 16
b00001101000010100101111000010111 17
b00001101000010100101111000011000 18
b00001101000010100101111000011001 19
11c
b1101 2e
b00001101 30
b00001101000010100101111111010000 33
b00001101000010100101111111011010 34
b00001101000010100101111111011011 35
b00001101000010100101111111011100 36
b00001101000010100101111111011101 37
b00001101000010100101111111011110 38
b00001101000010100101111111011111 39
b00001101000010100101111111010001 3a
b00001101000010100101111111010010 3b
b00001101000010100101111111010011 3c
b00001101000010100101111111010100 3d
b00001101000010100101111111010101 3e
b00001101000010100101111111010110 3f
b00001101000010100101111111010111 40
b00001101000010100101111111011000 41
b00001101000010100101111111011001 42
#24
b00001110 8
01c
121
b1110 2e
b00001110 30
b00001101000010100101111111100000 33
b00001101000010100101111111101010 34
b00001101000010100101111111101011 35
b00001101000010100101111111101100 36
b00001101000010100101111111101101 37
b00001101000010100101111111101110 38
b00001101000010100101111111101111 39
b00001101000010100101111111100001 3a
b00001101000010100101111111100010 3b
b00001101000010100101111111100011 3c
b00001101000010100101111111100100 3d
b00001101000010100101111111100101 3e
b00001101000010100101111111100110 3f
b00001101000010100101111111100111 40
b00001101000010100101111111101000 41
b00001101000010100101111111101001 42
#25
b00001111 8
120
021
b1111 2e
b00001111 30
031
b00001101000010100101111111110000 33
b00001101000010100101111111111010 34
b00001101000010100101111111111011 35
b00001101000010100101111111111100 36
b00001101000010100101111111111101 37
b00001101000010100101111111111110 38
b00001101000010100101111111111111 39
b00001101000010100101111111110001 3a
b00001101000010100101111111110010 3b
b00001101000010100101111111110011 3c
b00001101000010100101111111110100 3d
b00001101000010100101111111110101 3e
b00001101000010100101111111110110 3f
b00001101000010100101111111110111 40
b00001101000010100101111111111000 41
b00001101000010100101111111111001 42
144
#26
b00010000 8
020
024
b0000 2e
b00010000 30
b00001101000010100110000000000000 33
b00001101000010100110000000001010 34
b00001101000010100110000000001011 35
b00001101000010100110000000001100 36
b00001101000010100110000000001101 37
b00001101000010100110000000001110 38
b00001101000010100110000000001111 39
b00001101000010100110000000000001 3a
b00001101000010100110000000000010 3b
b00001101000010100110000000000011 3c
b00001101000010100110000000000100 3d
b00001101000010100110000000000101 3e
b00001101000010100110000000000110 3f
b00001101000010100110000000000111 40
b00001101000010100110000000001000 41
b00001101000010100110000000001001 42
044
046
#27
17
b00010001 8
b00010001 30
#28
b00010010 8
b00001101000010100101111000100000 a
b00001101000010100101111000101010 b
b00001101000010100101111000101011 c
b00001101000010100101111000101100 d
b00001101000010100101111000101101 e
b00001101000010100101111000101110 f
b00001101000010100101111000101111 10
b00001101000010100101111000100001 11
b00001101000010100101111000100010 12
b00001101000010100101111000100011 13
b00001101000010100101111000100100 14
b00001101000010100101111000100101 15
b00001101000010100101111000100110 16
b00001101000010100101111000100111 17
b00001101000010100101111000101000 18
b00001101000010100101111000101001 19
11c
b00010010 30
#29
07
b00010011 8
b00001101000010100101111000110000 a
b00001101000010100101111000111010 b
b00001101000010100101111000111011 c
b00001101000010100101111000111100 d
b00001101000010100101111000111101 e
b00001101000010100101111000111110 f
b00001101000010100101111000111111 10
b00001101000010100101111000110001 11
b00001101000010100101111000110010 12
b00001101000010100101111000110011 13
b00001101000010100101111000110100 14
b00001101000010100101111000110101 15
b00001101000010100101111000110110 16
b00001101000010100101111000110111 17
b00001101000010100101111000111000 18
b00001101000010100101111000111001 19
b00010011 30
#30
b00010100 8
01c
b00010100 30
#31
b00010101 8
b00010101 30
#32
b00010110 8
b00010110 30
#33
17
b00010111 8
b00010111 30
#34
07
b00011000 8
b00001101000010100101111001000000 a
b00001101000010100101111001001010 b
b00001101000010100101111001001011 c
b00001101000010100101111001001100 d
b00001101000010100101111001001101 e
b00001101000010100101111001001110 f
b00001101000010100101111001001111 10
b00001101000010100101111001000001 11
b00001101000010100101111001000010 12
b00001101000010100101111001000011 13
b00001101000010100101111001000100 14
b00001101000010100101111001000101 15
b00001101000010100101111001000110 16
b00001101000010100101111001000111 17
b00001101000010100101111001001000 18
b00001101000010100101111001001001 19
11c
b00011000 30
#35
17
b00011001 8
01c
b00011001 30
#36
07
b00011010 8
b00001101000010100101111001010000 a
b00001101000010100101111001011010 b
b00001101000010100101111001011011 c
b00001101000010100101111001011100 d
b00001101000010100101111001011101 e
b00001101000010100101111001011110 f
b00001101000010100101111001011111 10
b00001101000010100101111001010001 11
b00001101000010100101111001010010 12
b00001101000010100101111001010011 13
b00001101000010100101111001010100 14
b00001101000010100101111001010101 15
b00001101000010100101111001010110 16
b00001101000010100101111001010111 17
b00001101000010100101111001011000 18
b00001101000010100101111001011001 19
11c
b00011010 30
#37
b00011011 8
01c
b00011011 30
#38
b00011100 8
b00011100 30
#39
b00011101 8
b00011101 30
#40
17
b00011110 8
b00011110 30
#41
b00011111 8
b00001101000010100101111001100000 a
b00001101000010100101111001101010 b
b00001101000010100101111001101011 c
b00001101000010100101111001101100 d
b00001101000010100101111001101101 e
b00001101000010100101111001101110 f
b00001101000010100101111001101111 10
b00001101000010100101111001100001 11
b00001101000010100101111001100010 12
b00001101000010100101111001100011 13
b00001101000010100101111001100100 14
b00001101000010100101111001100101 15
b00001101000010100101111001100110 16
b00001101000010100101111001100111 17
b00001101000010100101111001101000 18
b00001101000010100101111001101001 19
11c
b00011111 30
#42
07
b00100000 8
b00001101000010100101111001110000 a
b00001101000010100101111001111010 b
b00001101000010100101111001111011 c
b00001101000010100101111001111100 d
b00001101000010100101111001111101 e
b00001101000010100101111001111110 f
b00001101000010100101111001111111 10
b00001101000010100101111001110001 11
b00001101000010100101111001110010 12
b00001101000010100101111001110011 13
b00001101000010100101111001110100 14
b00001101000010100101111001110101 15
b00001101000010100101111001110110 16
b00001101000010100101111001110111 17
b00001101000010100101111001111000 18
b00001101000010100101111001111001 19
b00100000 30
#43
b00100001 8
01c
b00100001 30
#44
b00100010 8
b00100010 30
#45
b00100011 8
b00100011 30
#46
17
b00100100 8
b00100100 30
#47
b00100101 8
b00001101000010100101111010000000 a
b00001101000010100101111010001010 b
b00001101000010100101111010001011 c
b00001101000010100101111010001100 d
b00001101000010100101111010001101 e
b00001101000010100101111010001110 f
b00001101000010100101111010001111 10
b00001101000010100101111010000001 11
b00001101000010100101111010000010 12
b00001101000010100101111010000011 13
b00001101000010100101111010000100 14
b00001101000010100101111010000101 15
b00001101000010100101111010000110 16
b00001101000010100101111010000111 17
b00001101000010100101111010001000 18
b00001101000010100101111010001001 19
11c
b00100101 30
#48
07
b00100110 8
b00001101000010100101111010010000 a
b00001101000010100101111010011010 b
b00001101000010100101111010011011 c
b00001101000010100101111010011100 d
b00001101000010100101111010011101 e
b00001101000010100101111010011110 f
b00001101000010100101111010011111 10
b00001101000010100101111010010001 11
b00001101000010100101111010010010 12
b00001101000010100101111010010011 13
b00001101000010100101111010010100 14
b00001101000010100101111010010101 15
b00001101000010100101111010010110 16
b00001101000010100101111010010111 17
b00001101000010100101111010011000 18
b00001101000010100101111010011001 19
b00100110 30
#49
b00100111 8
01c
b00100111 30
#50
b00101000 8
b00101000 30
#51
b00101001 8
b00101001 30
#52
17
b00101010 8
b00101010 30
#53
07
b00101011 8
b00001101000010100101111010100000 a
b00001101000010100101111010101010 b
b00001101000010100101111010101011 c
b00001101000010100101111010101100 d
b00001101000010100101111010101101 e
b00001101000010100101111010101110 f
b00001101000010100101111010101111 10
b00001101000010100101111010100001 11
b00001101000010100101111010100010 12
b00001101000010100101111010100011 13
b00001101000010100101111010100100 14
b00001101000010100101111010100101 15
b00001101000010100101111010100110 16
b00001101000010100101111010100111 17
b00001101000010100101111010101000 18
b00001101000010100101111010101001 19
11c
b00101011 30
#54
17
b00101100 8
01c
b00101100 30
#55
07
b00101101 8
b00001101000010100101111010110000 a
b00001101000010100101111010111010 b
b00001101000010100101111010111011 c
b00001101000010100101111010111100 d
b00001101000010100101111010111101 e
b00001101000010100101111010111110 f
b00001101000010100101111010111111 10
b00001101000010100101111010110001 11
b00001101000010100101111010110010 12
b00001101000010100101111010110011 13
b00001101000010100101111010110100 14
b00001101000010100101111010110101 15
b00001101000010100101111010110110 16
b00001101000010100101111010110111 17
b00001101000010100101111010111000 18
b00001101000010100101111010111001 19
11c
b00101101 30
#56
b00101110 8
01c
b00101110 30
#57
b00101111 8
b00101111 30
#58
b00110000 8
b00110000 30
#59
17
b00110001 8
b00110001 30
#60
b00110010 8
b00001101000010100101111011000000 a
b00001101000010100101111011001010 b
b00001101000010100101111011001011 c
b00001101000010100101111011001100 d
b00001101000010100101111011001101 e
b00001101000010100101111011001110 f
b00001101000010100101111011001111 10
b00001101000010100101111011000001 11
b00001101000010100101111011000010 12
b00001101000010100101111011000011 13
b00001101000010100101111011000100 14
b00001101000010100101111011000101 15
b00001101000010100101111011000110 16
b00001101000010100101111011000111 17
b00001101000010100101111011001000 18
b00001101000010100101111011001001 19
11c
b00110010 30
#61
07
b00110011 8
b00001101000010100101111011010000 a
b00001101000010100101111011011010 b
b00001101000010100101111011011011 c
b00001101000010100101111011011100 d
b00001101000010100101111011011101 e
b00001101000010100101111011011110 f
b00001101000010100101111011011111 10
b00001101000010100101111011010001 11
b00001101000010100101111011010010 12
b00001101000010100101111011010011 13
b00001101000010100101111011010100 14
b00001101000010100101111011010101 15
b00001101000010100101111011010110 16
b00001101000010100101111011010111 17
b00001101000010100101111011011000 18
b00001101000010100101111011011001 19
b00110011 30
#62
b00110100 8
01c
b00110100 30
#63
b00110101 8
b00110101 30
#64
b00110110 8
b00110110 30
#65
17
b00110111 8
b00110111 30
#66
07
b00111000 8
b00001101000010100101111011100000 a
b00001101000010100101111011101010 b
b00001101000010100101111011101011 c
b00001101000010100101111011101100 d
b00001101000010100101111011101101 e
b00001101000010100101111011101110 f
b00001101000010100101111011101111 10
b00001101000010100101111011100001 11
b00001101000010100101111011100010 12
b00001101000010100101111011100011 13
b00001101000010100101111011100100 14
b00001101000010100101111011100101 15
b00001101000010100101111011100110 16
b00001101000010100101111011100111 17
b00001101000010100101111011101000 18
b00001101000010100101111011101001 19
11c
b00111000 30
#67
15
17
b00111001 8
01c
b00111001 30
#68
b01011111000000 3
05
07
b00111010 8
b00001101000010100101111011110000 a
b00001101000010100101111011111010 b
b00001101000010100101111011111011 c
b00001101000010100101111011111100 d
b00001101000010100101111011111101 e
b00001101000010100101111011111110 f
b00001101000010100101111011111111 10
b00001101000010100101111011110001 11
b00001101000010100101111011110010 12
b00001101000010100101111011110011 13
b00001101000010100101111011110100 14
b00001101000010100101111011110101 15
b00001101000010100101111011110110 16
b00001101000010100101111011110111 17
b00001101000010100101111011111000 18
b00001101000010100101111011111001 19
01a
01b
11c
b00111010 30
#69
b00000000 8
01c
b00111011 30
#70
b00111100 30
#71
b00111101 30
#72
b00111110 30
#73
b00111111 30
#74
b01000000 30
#75
b01000001 30
#76
b01000010 30
#77
b01000011 30
#78
b01000100 30
#79
b01000101 30
#80
b01000110 30
#81
b01000111 30
#82
b01001000 30
#83
b01001001 30
#84
b01001010 30
#85
b01001011 30
#86
b01001100 30
#87
b01001101 30
#88
b01001110 30
#89
b01001111 30
#90
b01010000 30
#91
123
b01010001 30
#92
b01010010 30
132
#93
b01100000000000 1f
023
b000 25
b01010010 2d
b01010011 30
032
143
045
#94
19
b01010110011 2f
b00000000 30
131
043
145
b01010110 48
#95
09
11a
11b
124
146
#96
b00000001 8
b0001 2e
b00000001 30
b00001101000010100110000000010000 33
b00001101000010100110000000011010 34
b00001101000010100110000000011011 35
b00001101000010100110000000011100 36
b00001101000010100110000000011101 37
b00001101000010100110000000011110 38
b00001101000010100110000000011111 39
b00001101000010100110000000010001 3a
b00001101000010100110000000010010 3b
b00001101000010100110000000010011 3c
b00001101000010100110000000010100 3d
b00001101000010100110000000010101 3e
b00001101000010100110000000010110 3f
b00001101000010100110000000010111 40
b00001101000010100110000000011000 41
b00001101000010100110000000011001 42
#97
b00000010 8
b0010 2e
b00000010 30
b00001101000010100110000000100000 33
b00001101000010100110000000101010 34
b00001101000010100110000000101011 35
b00001101000010100110000000101100 36
b00001101000010100110000000101101 37
b00001101000010100110000000101110 38
b00001101000010100110000000101111 39
b00001101000010100110000000100001 3a
b00001101000010100110000000100010 3b
b00001101000010100110000000100011 3c
b00001101000010100110000000100100 3d
b00001101000010100110000000100101 3e
b00001101000010100110000000100110 3f
b00001101000010100110000000100111 40
b00001101000010100110000000101000 41
b00001101000010100110000000101001 42
#98
b00000011 8
b0011 2e
b00000011 30
b00001101000010100110000000110000 33
b00001101000010100110000000111010 34
b00001101000010100110000000111011 35
b00001101000010100110000000111100 36
b00001101000010100110000000111101 37
b00001101000010100110000000111110 38
b00001101000010100110000000111111 39
b00001101000010100110000000110001 3a
b00001101000010100110000000110010 3b
b00001101000010100110000000110011 3c
b00001101000010100110000000110100 3d
b00001101000010100110000000110101 3e
b00001101000010100110000000110110 3f
b00001101000010100110000000110111 40
b00001101000010100110000000111000 41
b00001101000010100110000000111001 42
#99
b00000100 8
b0100 2e
b00000100 30
b00001101000010100110000001000000 33
b00001101000010100110000001001010 34
b00001101000010100110000001001011 35
b00001101000010100110000001001100 36
b00001101000010100110000001001101 37
b00001101000010100110000001001110 38
b00001101000010100110000001001111 39
b00001101000010100110000001000001 3a
b00001101000010100110000001000010 3b
b00001101000010100110000001000011 3c
b00001101000010100110000001000100 3d
b00001101000010100110000001000101 3e
b00001101000010100110000001000110 3f
b00001101000010100110000001000111 40
b00001101000010100110000001001000 41
b00001101000010100110000001001001 42
#100
b00000101 8
b0101 2e
b00000101 30
b00001101000010100110000001010000 33
b00001101000010100110000001011010 34
b00001101000010100110000001011011 35
b00001101000010100110000001011100 36
b00001101000010100110000001011101 37
b00001101000010100110000001011110 38
b00001101000010100110000001011111 39
b00001101000010100110000001010001 3a
b00001101000010100110000001010010 3b
b00001101000010100110000001010011 3c
b00001101000010100110000001010100 3d
b00001101000010100110000001010101 3e
b00001101000010100110000001010110 3f
b00001101000010100110000001010111 40
b00001101000010100110000001011000 41
b00001101000010100110000001011001 42
#101
b00000110 8
b0110 2e
b00000110 30
b00001101000010100110000001100000 33
b00001101000010100110000001101010 34
b00001101000010100110000001101011 35
b00001101000010100110000001101100 36
b00001101000010100110000001101101 37
b00001101000010100110000001101110 38
b00001101000010100110000001101111 39
b00001101000010100110000001100001 3a
b00001101000010100110000001100010 3b
b00001101000010100110000001100011 3c
b00001101000010100110000001100100 3d
b00001101000010100110000001100101 3e
b00001101000010100110000001100110 3f
b00001101000010100110000001100111 40
b00001101000010100110000001101000 41
b00001101000010100110000001101001 42
#102
b00000111 8
b0111 2e
b00000111 30
b00001101000010100110000001110000 33
b00001101000010100110000001111010 34
b00001101000010100110000001111011 35
b00001101000010100110000001111100 36
b00001101000010100110000001111101 37
b00001101000010100110000001111110 38
b00001101000010100110000001111111 39
b00001101000010100110000001110001 3a
b00001101000010100110000001110010 3b
b00001101000010100110000001110011 3c
b00001101000010100110000001110100 3d
b00001101000010100110000001110101 3e
b00001101000010100110000001110110 3f
b00001101000010100110000001110111 40
b00001101000010100110000001111000 41
b00001101000010100110000001111001 42
