Efinix/Trion/K5Stack10_MIDI/src/SysTimerBlock/sim/SysTimer_tb.vcd
$date
	Fri Jul  7 08:13:10 2023
$end
$version
	Icarus Verilog
$end
$timescale
	1s
$end
$scope module SysTimer_tb $end
$var wire 32 ! wSUsiRd [31:0] $end
$var reg 1 " rSCLK $end
$var reg 1 # rSRST $end
$scope module SysTimerBlock $end
$var wire 1 " iSCLK $end
$var wire 1 # iSRST $end
$var wire 32 $ iSUsiAdrs [31:0] $end
$var wire 32 % iSUsiWd [31:0] $end
$var wire 32 & wCnt1usCsr [31:0] $end
$var wire 32 ' wCnt1msCsr [31:0] $end
$var wire 32 ( wCnt10msCsr [31:0] $end
$var wire 32 ) oSUsiRd [31:0] $end
$scope module ClkCounter10ms $end
$var wire 1 " iCLK $end
$var wire 1 # iRST $end
$var wire 32 * oTimerCnt [31:0] $end
$var reg 1 + qSystickCntCke $end
$var reg 19 , rSystickCnt [18:0] $end
$var reg 32 - rTimerCnt [31:0] $end
$scope function fBitWidth $end
$var reg 32 . iVAL [31:0] $end
$var integer 32 / i [31:0] $end
$upscope $end
$upscope $end
$scope module ClkCounter1ms $end
$var wire 1 " iCLK $end
$var wire 1 # iRST $end
$var wire 32 0 oTimerCnt [31:0] $end
$var reg 1 1 qSystickCntCke $end
$var reg 16 2 rSystickCnt [15:0] $end
$var reg 32 3 rTimerCnt [31:0] $end
$scope function fBitWidth $end
$var reg 32 4 iVAL [31:0] $end
$var integer 32 5 i [31:0] $end
$upscope $end
$upscope $end
$scope module ClkCounter1us $end
$var wire 1 " iCLK $end
$var wire 1 # iRST $end
$var wire 32 6 oTimerCnt [31:0] $end
$var reg 1 7 qSystickCntCke $end
$var reg 6 8 rSystickCnt [5:0] $end
$var reg 32 9 rTimerCnt [31:0] $end
$scope function fBitWidth $end
$var reg 32 : iVAL [31:0] $end
$var integer 32 ; i [31:0] $end
$upscope $end
$upscope $end
$scope module SysTimerCsr $end
$var wire 1 " iSCLK $end
$var wire 1 # iSRST $end
$var wire 32 < iSUsiAdrs [31:0] $end
$var wire 32 = iSUsiWd [31:0] $end
$var wire 32 > iTimerCnt10ms [31:0] $end
$var wire 32 ? iTimerCnt1ms [31:0] $end
$var wire 32 @ iTimerCnt1us [31:0] $end
$var wire 32 A oSUsiRd [31:0] $end
$var reg 32 B rSUsiRd [31:0] $end
$var reg 32 C rTimerCnt10ms [31:0] $end
$var reg 32 D rTimerCnt1ms [31:0] $end
$var reg 32 E rTimerCnt1us [31:0] $end
$upscope $end
$upscope $end
$scope task Wait $end
$var reg 32 F flag [31:0] $end
$upscope $end
$scope task reset_init $end
$upscope $end
$upscope $end
$enddefinitions $end
#0
$dumpvars
bx F
bx E
bx D
bx C
bx B
bx A
bx @
bx ?
bx >
b0 =
b1000000000000000100 <
bx ;
bx :
bx 9
bx 8
x7
bx 6
bx 5
bx 4
bx 3
bx 2
x1
bx 0
bx /
bx .
bx -
bx ,
x+
bx *
bx )
bx (
bx '
bx &
b0 %
b1000000000000000100 $
1#
0"
bx !
$end
#1
0+
01
07
b0 E
b0 D
b0 C
b0 (
b0 *
b0 >
b0 -
b0 ,
b0 '
b0 0
b0 ?
b0 3
b0 2
b0 &
b0 6
b0 @
b0 9
b0 8
1"
#2
0"
#3
b0 !
b0 )
b0 A
b0 B
1"
#4
0"
#5
1"
#6
0"
#7
1"
#8
0"
#9
1"
#10
0"
0#
#11
b1 8
b1 2
b1 ,
1"
#12
0"
#13
b10 ,
b10 2
b10 8
1"
#14
0"
#15
b11 8
b11 2
b11 ,
1"
#16
0"
#17
b100 ,
b100 2
b100 8
1"
#18
0"
#19
b101 8
b101 2
b101 ,
1"
#20
0"
b0 F
#21
b110 ,
b110 2
b110 8
1"
#22
0"
#23
b111 8
b111 2
b111 ,
1"
#24
0"
#25
b1000 ,
b1000 2
b1000 8
1"
#26
0"
#27
b1001 8
b1001 2
b1001 ,
1"
#28
0"
#29
b1010 ,
b1010 2
b1010 8
1"
#30
0"
#31
b1011 8
b1011 2
b1011 ,
1"
#32
0"
#33
b1100 ,
b1100 2
b1100 8
1"
#34
0"
#35
b1101 8
b1101 2
b1101 ,
1"
#36
0"
#37
b1110 ,
b1110 2
b1110 8
1"
#38
0"
#39
b1111 8
b1111 2
b1111 ,
1"
#40
0"
#41
b10000 ,
b10000 2
b10000 8
1"
#42
0"
#43
b10001 8
b10001 2
b10001 ,
1"
#44
0"
#45
b10010 ,
b10010 2
b10010 8
1"
#46
0"
#47
b10011 8
b10011 2
b10011 ,
1"
#48
0"
#49
b10100 ,
b10100 2
b10100 8
1"
#50
0"
#51
b10101 8
b10101 2
b10101 ,
1"
#52
0"
#53
b10110 ,
b10110 2
b10110 8
1"
#54
0"
#55
b10111 8
b10111 2
b10111 ,
1"
#56
0"
#57
b11000 ,
b11000 2
b11000 8
1"
#58
0"
#59
b11001 8
b11001 2
b11001 ,
1"
#60
0"
#61
b11010 ,
b11010 2
b11010 8
1"
#62
0"
#63
b11011 8
b11011 2
b11011 ,
1"
#64
0"
#65
b11100 ,
b11100 2
b11100 8
1"
#66
0"
#67
b11101 8
b11101 2
b11101 ,
1"
#68
0"
#69
b11110 ,
b11110 2
b11110 8
1"
#70
0"
#71
b11111 8
b11111 2
b11111 ,
1"
#72
0"
#73
b100000 ,
b100000 2
b100000 8
1"
#74
0"
#75
b100001 8
b100001 2
b100001 ,
1"
#76
0"
#77
b100010 ,
b100010 2
b100010 8
1"
#78
0"
#79
b100011 8
b100011 2
b100011 ,
1"
#80
0"
#81
b100100 ,
b100100 2
b100100 8
1"
#82
0"
#83
b100101 8
b100101 2
b100101 ,
1"
#84
0"
#85
b100110 ,
b100110 2
b100110 8
1"
#86
0"
#87
b100111 8
b100111 2
b100111 ,
1"
#88
0"
#89
b101000 ,
b101000 2
b101000 8
1"
#90
0"
#91
b101001 8
b101001 2
b101001 ,
1"
#92
0"
#93
b101010 ,
b101010 2
b101010 8
1"
#94
0"
#95
b101011 8
b101011 2
b101011 ,
1"
#96
0"
#97
b101100 ,
b101100 2
b101100 8
1"
#98
0"
#99
b101101 8
b101101 2
b101101 ,
1"
#100
0"
#101
b101110 ,
b101110 2
b101110 8
1"
#102
0"
#103
b101111 8
b101111 2
b101111 ,
1"
#104
0"
#105
b110000 ,
b110000 2
b110000 8
1"
#106
0"
#107
17
b110001 8
b110001 2
b110001 ,
1"
#108
0"
#109
07
b110010 ,
b110010 2
b1 &
b1 6
b1 @
b1 9
b0 8
1"
#110
0"
#111
b1 8
b110011 2
b110011 ,
b1 E
1"
#112
0"
#113
b110100 ,
b110100 2
b10 8
1"
#114
0"
#115
b11 8
b110101 2
b110101 ,
1"
#116
0"
#117
b110110 ,
b110110 2
b100 8
1"
#118
0"
#119
b101 8
b110111 2
b110111 ,
1"
#120
0"
#121
b111000 ,
b111000 2
b110 8
1"
#122
0"
#123
b111 8
b111001 2
b111001 ,
1"
#124
0"
#125
b111010 ,
b111010 2
b1000 8
1"
#126
0"
#127
b1001 8
b111011 2
b111011 ,
1"
#128
0"
#129
b111100 ,
b111100 2
b1010 8
1"
#130
0"
#131
b1011 8
b111101 2
b111101 ,
1"
#132
0"
#133
b111110 ,
b111110 2
b1100 8
1"
#134
0"
#135
b1101 8
b111111 2
b111111 ,
1"
#136
0"
#137
b1000000 ,
b1000000 2
b1110 8
1"
#138
0"
#139
b1111 8
b1000001 2
b1000001 ,
1"
#140
0"
#141
b1000010 ,
b1000010 2
b10000 8
1"
#142
0"
#143
b10001 8
b1000011 2
b1000011 ,
1"
#144
0"
#145
b1000100 ,
b1000100 2
b10010 8
1"
#146
0"
#147
b10011 8
b1000101 2
b1000101 ,
1"
#148
0"
#149
b1000110 ,
b1000110 2
b10100 8
1"
#150
0"
#151
b10101 8
b1000111 2
b1000111 ,
1"
#152
0"
#153
b1001000 ,
b1001000 2
b10110 8
1"
#154
0"
#155
b10111 8
b1001001 2
b1001001 ,
1"
#156
0"
#157
b1001010 ,
b1001010 2
b11000 8
1"
#158
0"
#159
b11001 8
b1001011 2
b1001011 ,
1"
#160
0"
#161
b1001100 ,
b1001100 2
b11010 8
1"
#162
0"
#163
b11011 8
b1001101 2
b1001101 ,
1"
#164
0"
#165
b1001110 ,
b1001110 2
b11100 8
1"
#166
0"
#167
b11101 8
b1001111 2
b1001111 ,
1"
#168
0"
#169
b1010000 ,
b1010000 2
b11110 8
1"
#170
0"
#171
b11111 8
b1010001 2
b1010001 ,
1"
#172
0"
#173
b1010010 ,
b1010010 2
b100000 8
1"
#174
0"
#175
b100001 8
b1010011 2
b1010011 ,
1"
#176
0"
#177
b1010100 ,
b1010100 2
b100010 8
1"
#178
0"
#179
b100011 8
b1010101 2
b1010101 ,
1"
#180
0"
#181
b1010110 ,
b1010110 2
b100100 8
1"
#182
0"
#183
b100101 8
b1010111 2
b1010111 ,
1"
#184
0"
#185
b1011000 ,
b1011000 2
b100110 8
1"
#186
0"
#187
b100111 8
b1011001 2
b1011001 ,
1"
#188
0"
#189
b1011010 ,
b1011010 2
b101000 8
1"
#190
0"
#191
b101001 8
b1011011 2
b1011011 ,
1"
#192
0"
#193
b1011100 ,
b1011100 2
b101010 8
1"
#194
0"
#195
b101011 8
b1011101 2
b1011101 ,
1"
#196
0"
#197
b1011110 ,
b1011110 2
b101100 8
1"
#198
0"
#199
b101101 8
b1011111 2
b1011111 ,
1"
#200
0"
#201
b1100000 ,
b1100000 2
b101110 8
1"
#202
0"
#203
b101111 8
b1100001 2
b1100001 ,
1"
#204
0"
#205
b1100010 ,
b1100010 2
b110000 8
1"
#206
0"
#207
17
b110001 8
b1100011 2
b1100011 ,
1"
#208
0"
#209
07
b1100100 ,
b1100100 2
b10 &
b10 6
b10 @
b10 9
b0 8
1"
#210
0"
#211
b1 8
b1100101 2
b1100101 ,
b10 E
1"
#212
0"
#213
b1100110 ,
b1100110 2
b10 8
1"
#214
0"
#215
b11 8
b1100111 2
b1100111 ,
1"
#216
0"
#217
b1101000 ,
b1101000 2
b100 8
1"
#218
0"
#219
b101 8
b1101001 2
b1101001 ,
1"
#220
0"
#221
b1101010 ,
b1101010 2
b110 8
1"
#222
0"
#223
b111 8
b1101011 2
b1101011 ,
1"
#224
0"
#225
b1101100 ,
b1101100 2
b1000 8
1"
#226
0"
#227
b1001 8
b1101101 2
b1101101 ,
1"
#228
0"
#229
b1101110 ,
b1101110 2
b1010 8
1"
#230
0"
#231
b1011 8
b1101111 2
b1101111 ,
1"
#232
0"
#233
b1110000 ,
b1110000 2
b1100 8
1"
#234
0"
#235
b1101 8
b1110001 2
b1110001 ,
1"
#236
0"
#237
b1110010 ,
b1110010 2
b1110 8
1"
#238
0"
#239
b1111 8
b1110011 2
b1110011 ,
1"
#240
0"
#241
b1110100 ,
b1110100 2
b10000 8
1"
#242
0"
#243
b10001 8
b1110101 2
b1110101 ,
1"
#244
0"
#245
b1110110 ,
b1110110 2
b10010 8
1"
#246
0"
#247
b10011 8
b1110111 2
b1110111 ,
1"
#248
0"
#249
b1111000 ,
b1111000 2
b10100 8
1"
#250
0"
#251
b10101 8
b1111001 2
b1111001 ,
1"
#252
0"
#253
b1111010 ,
b1111010 2
b10110 8
1"
#254
0"
#255
b10111 8
b1111011 2
b1111011 ,
1"
#256
0"
#257
b1111100 ,
b1111100 2
b11000 8
1"
#258
0"
#259
b11001 8
b1111101 2
b1111101 ,
1"
#260
0"
#261
b1111110 ,
b1111110 2
b11010 8
1"
#262
0"
#263
b11011 8
b1111111 2
b1111111 ,
1"
#264
0"
#265
b10000000 ,
b10000000 2
b11100 8
1"
#266
0"
#267
b11101 8
b10000001 2
b10000001 ,
1"
#268
0"
#269
b10000010 ,
b10000010 2
b11110 8
1"
#270
0"
#271
b11111 8
b10000011 2
b10000011 ,
1"
#272
0"
#273
b10000100 ,
b10000100 2
b100000 8
1"
#274
0"
#275
b100001 8
b10000101 2
b10000101 ,
1"
#276
0"
#277
b10000110 ,
b10000110 2
b100010 8
1"
#278
0"
#279
b100011 8
b10000111 2
b10000111 ,
1"
#280
0"
#281
b10001000 ,
b10001000 2
b100100 8
1"
#282
0"
#283
b100101 8
b10001001 2
b10001001 ,
1"
#284
0"
#285
b10001010 ,
b10001010 2
b100110 8
1"
#286
0"
#287
b100111 8
b10001011 2
b10001011 ,
1"
#288
0"
#289
b10001100 ,
b10001100 2
b101000 8
1"
#290
0"
#291
b101001 8
b10001101 2
b10001101 ,
1"
#292
0"
#293
b10001110 ,
b10001110 2
b101010 8
1"
#294
0"
#295
b101011 8
b10001111 2
b10001111 ,
1"
#296
0"
#297
b10010000 ,
b10010000 2
b101100 8
1"
#298
0"
#299
b101101 8
b10010001 2
b10010001 ,
1"
#300
0"
#301
b10010010 ,
b10010010 2
b101110 8
1"
#302
0"
#303
b101111 8
b10010011 2
b10010011 ,
1"
#304
0"
#305
b10010100 ,
b10010100 2
b110000 8
1"
#306
0"
#307
17
b110001 8
b10010101 2
b10010101 ,
1"
#308
0"
#309
07
b10010110 ,
b10010110 2
b11 &
b11 6
b11 @
b11 9
b0 8
1"
#310
0"
#311
b1 8
b10010111 2
b10010111 ,
b11 E
1"
#312
0"
#313
b10011000 ,
b10011000 2
b10 8
1"
#314
0"
#315
b11 8
b10011001 2
b10011001 ,
1"
#316
0"
#317
b10011010 ,
b10011010 2
b100 8
1"
#318
0"
#319
b101 8
b10011011 2
b10011011 ,
1"
#320
0"
#321
b10011100 ,
b10011100 2
b110 8
1"
#322
0"
#323
b111 8
b10011101 2
b10011101 ,
1"
#324
0"
#325
b10011110 ,
b10011110 2
b1000 8
1"
#326
0"
#327
b1001 8
b10011111 2
b10011111 ,
1"
#328
0"
#329
b10100000 ,
b10100000 2
b1010 8
1"
#330
0"
#331
b1011 8
b10100001 2
b10100001 ,
1"
#332
0"
#333
b10100010 ,
b10100010 2
b1100 8
1"
#334
0"
#335
b1101 8
b10100011 2
b10100011 ,
1"
#336
0"
#337
b10100100 ,
b10100100 2
b1110 8
1"
#338
0"
#339
b1111 8
b10100101 2
b10100101 ,
1"
#340
0"
#341
b10100110 ,
b10100110 2
b10000 8
1"
#342
0"
#343
b10001 8
b10100111 2
b10100111 ,
1"
#344
0"
#345
b10101000 ,
b10101000 2
b10010 8
1"
#346
0"
#347
b10011 8
b10101001 2
b10101001 ,
1"
#348
0"
#349
b10101010 ,
b10101010 2
b10100 8
1"
#350
0"
#351
b10101 8
b10101011 2
b10101011 ,
1"
#352
0"
#353
b10101100 ,
b10101100 2
b10110 8
1"
#354
0"
#355
b10111 8
b10101101 2
b10101101 ,
1"
#356
0"
#357
b10101110 ,
b10101110 2
b11000 8
1"
#358
0"
#359
b11001 8
b10101111 2
b10101111 ,
1"
#360
0"
#361
b10110000 ,
b10110000 2
b11010 8
1"
#362
0"
#363
b11011 8
b10110001 2
b10110001 ,
1"
#364
0"
#365
b10110010 ,
b10110010 2
b11100 8
1"
#366
0"
#367
b11101 8
b10110011 2
b10110011 ,
1"
#368
0"
#369
b10110100 ,
b10110100 2
b11110 8
1"
#370
0"
#371
b11111 8
b10110101 2
b10110101 ,
1"
#372
0"
#373
b10110110 ,
b10110110 2
b100000 8
1"
#374
0"
#375
b100001 8
b10110111 2
b10110111 ,
1"
#376
0"
#377
b10111000 ,
b10111000 2
b100010 8
1"
#378
0"
#379
b100011 8
b10111001 2
b10111001 ,
1"
#380
0"
#381
b10111010 ,
b10111010 2
b100100 8
1"
#382
0"
#383
b100101 8
b10111011 2
b10111011 ,
1"
#384
0"
#385
b10111100 ,
b10111100 2
b100110 8
1"
#386
0"
#387
b100111 8
b10111101 2
b10111101 ,
1"
#388
0"
#389
b10111110 ,
b10111110 2
b101000 8
1"
#390
0"
#391
b101001 8
b10111111 2
b10111111 ,
1"
#392
0"
#393
b11000000 ,
b11000000 2
b101010 8
1"
#394
0"
#395
b101011 8
b11000001 2
b11000001 ,
1"
#396
0"
#397
b11000010 ,
b11000010 2
b101100 8
1"
#398
0"
#399
b101101 8
b11000011 2
b11000011 ,
1"
#400
0"
#401
b11000100 ,
b11000100 2
b101110 8
1"
#402
0"
#403
b101111 8
b11000101 2
b11000101 ,
1"
#404
0"
#405
b11000110 ,
b11000110 2
b110000 8
1"
#406
0"
#407
17
b110001 8
b11000111 2
b11000111 ,
1"
#408
0"
#409
07
b11001000 ,
b11001000 2
b100 &
b100 6
b100 @
b100 9
b0 8
1"
#410
0"
#411
b1 8
b11001001 2
b11001001 ,
b100 E
1"
#412
0"
#413
b11001010 ,
b11001010 2
b10 8
1"
#414
0"
#415
b11 8
b11001011 2
b11001011 ,
1"
#416
0"
#417
b11001100 ,
b11001100 2
b100 8
1"
#418
0"
#419
b101 8
b11001101 2
b11001101 ,
1"
#420
0"
#421
b11001110 ,
b11001110 2
b110 8
1"
#422
0"
#423
b111 8
b11001111 2
b11001111 ,
1"
#424
0"
#425
b11010000 ,
b11010000 2
b1000 8
1"
#426
0"
#427
b1001 8
b11010001 2
b11010001 ,
1"
#428
0"
#429
b11010010 ,
b11010010 2
b1010 8
1"
#430
0"
#431
b1011 8
b11010011 2
b11010011 ,
1"
#432
0"
#433
b11010100 ,
b11010100 2
b1100 8
1"
#434
0"
#435
b1101 8
b11010101 2
b11010101 ,
1"
#436
0"
#437
b11010110 ,
b11010110 2
b1110 8
1"
#438
0"
#439
b1111 8
b11010111 2
b11010111 ,
1"
#440
0"
#441
b11011000 ,
b11011000 2
b10000 8
1"
#442
0"
#443
b10001 8
b11011001 2
b11011001 ,
1"
#444
0"
#445
b11011010 ,
b11011010 2
b10010 8
1"
#446
0"
#447
b10011 8
b11011011 2
b11011011 ,
1"
#448
0"
#449
b11011100 ,
b11011100 2
b10100 8
1"
#450
0"
#451
b10101 8
b11011101 2
b11011101 ,
1"
#452
0"
#453
b11011110 ,
b11011110 2
b10110 8
1"
#454
0"
#455
b10111 8
b11011111 2
b11011111 ,
1"
#456
0"
#457
b11100000 ,
b11100000 2
b11000 8
1"
#458
0"
#459
b11001 8
b11100001 2
b11100001 ,
1"
#460
0"
#461
b11100010 ,
b11100010 2
b11010 8
1"
#462
0"
#463
b11011 8
b11100011 2
b11100011 ,
1"
#464
0"
#465
b11100100 ,
b11100100 2
b11100 8
1"
#466
0"
#467
b11101 8
b11100101 2
b11100101 ,
1"
#468
0"
#469
b11100110 ,
b11100110 2
b11110 8
1"
#470
0"
#471
b11111 8
b11100111 2
b11100111 ,
1"
#472
0"
#473
b11101000 ,
b11101000 2
b100000 8
1"
#474
0"
#475
b100001 8
b11101001 2
b11101001 ,
1"
#476
0"
#477
b11101010 ,
b11101010 2
b100010 8
1"
#478
0"
#479
b100011 8
b11101011 2
b11101011 ,
1"
#480
0"
#481
b11101100 ,
b11101100 2
b100100 8
1"
#482
0"
#483
b100101 8
b11101101 2
b11101101 ,
1"
#484
0"
#485
b11101110 ,
b11101110 2
b100110 8
1"
#486
0"
#487
b100111 8
b11101111 2
b11101111 ,
1"
#488
0"
#489
b11110000 ,
b11110000 2
b101000 8
1"
#490
0"
#491
b101001 8
b11110001 2
b11110001 ,
1"
#492
0"
#493
b11110010 ,
b11110010 2
b101010 8
1"
#494
0"
#495
b101011 8
b11110011 2
b11110011 ,
1"
#496
0"
#497
b11110100 ,
b11110100 2
b101100 8
1"
#498
0"
#499
b101101 8
b11110101 2
b11110101 ,
1"
#500
0"
#501
b11110110 ,
b11110110 2
b101110 8
1"
#502
0"
#503
b101111 8
b11110111 2
b11110111 ,
1"
#504
0"
#505
b11111000 ,
b11111000 2
b110000 8
1"
#506
0"
#507
17
b110001 8
b11111001 2
b11111001 ,
1"
#508
0"
#509
07
b11111010 ,
b11111010 2
b101 &
b101 6
b101 @
b101 9
b0 8
1"
#510
0"
#511
b1 8
b11111011 2
b11111011 ,
b101 E
1"
#512
0"
#513
b11111100 ,
b11111100 2
b10 8
1"
#514
0"
#515
b11 8
b11111101 2
b11111101 ,
1"
#516
0"
#517
b11111110 ,
b11111110 2
b100 8
1"
#518
0"
#519
b101 8
b11111111 2
b11111111 ,
1"
#520
0"
#521
b100000000 ,
b100000000 2
b110 8
1"
#522
0"
#523
b111 8
b100000001 2
b100000001 ,
1"
#524
0"
#525
b100000010 ,
b100000010 2
b1000 8
1"
#526
0"
#527
b1001 8
b100000011 2
b100000011 ,
1"
#528
0"
#529
b100000100 ,
b100000100 2
b1010 8
1"
#530
0"
#531
b1011 8
b100000101 2
b100000101 ,
1"
#532
0"
#533
b100000110 ,
b100000110 2
b1100 8
1"
#534
0"
#535
b1101 8
b100000111 2
b100000111 ,
1"
#536
0"
#537
b100001000 ,
b100001000 2
b1110 8
1"
#538
0"
#539
b1111 8
b100001001 2
b100001001 ,
1"
#540
0"
#541
b100001010 ,
b100001010 2
b10000 8
1"
#542
0"
#543
b10001 8
b100001011 2
b100001011 ,
1"
#544
0"
#545
b100001100 ,
b100001100 2
b10010 8
1"
#546
0"
#547
b10011 8
b100001101 2
b100001101 ,
1"
#548
0"
#549
b100001110 ,
b100001110 2
b10100 8
1"
#550
0"
#551
b10101 8
b100001111 2
b100001111 ,
1"
#552
0"
#553
b100010000 ,
b100010000 2
b10110 8
1"
#554
0"
#555
b10111 8
b100010001 2
b100010001 ,
1"
#556
0"
#557
b100010010 ,
b100010010 2
b11000 8
1"
#558
0"
#559
b11001 8
b100010011 2
b100010011 ,
1"
#560
0"
#561
b100010100 ,
b100010100 2
b11010 8
1"
#562
0"
#563
b11011 8
b100010101 2
b100010101 ,
1"
#564
0"
#565
b100010110 ,
b100010110 2
b11100 8
1"
#566
0"
#567
b11101 8
b100010111 2
b100010111 ,
1"
#568
0"
#569
b100011000 ,
b100011000 2
b11110 8
1"
#570
0"
#571
b11111 8
b100011001 2
b100011001 ,
1"
#572
0"
#573
b100011010 ,
b100011010 2
b100000 8
1"
#574
0"
#575
b100001 8
b100011011 2
b100011011 ,
1"
#576
0"
#577
b100011100 ,
b100011100 2
b100010 8
1"
#578
0"
#579
b100011 8
b100011101 2
b100011101 ,
1"
#580
0"
#581
b100011110 ,
b100011110 2
b100100 8
1"
#582
0"
#583
b100101 8
b100011111 2
b100011111 ,
1"
#584
0"
#585
b100100000 ,
b100100000 2
b100110 8
1"
#586
0"
#587
b100111 8
b100100001 2
b100100001 ,
1"
#588
0"
#589
b100100010 ,
b100100010 2
b101000 8
1"
#590
0"
#591
b101001 8
b100100011 2
b100100011 ,
1"
#592
0"
#593
b100100100 ,
b100100100 2
b101010 8
1"
#594
0"
#595
b101011 8
b100100101 2
b100100101 ,
1"
#596
0"
#597
b100100110 ,
b100100110 2
b101100 8
1"
#598
0"
#599
b101101 8
b100100111 2
b100100111 ,
1"
#600
0"
#601
b100101000 ,
b100101000 2
b101110 8
1"
#602
0"
#603
b101111 8
b100101001 2
b100101001 ,
1"
#604
0"
#605
b100101010 ,
b100101010 2
b110000 8
1"
#606
0"
#607
17
b110001 8
b100101011 2
b100101011 ,
1"
#608
0"
#609
07
b100101100 ,
b100101100 2
b110 &
b110 6
b110 @
b110 9
b0 8
1"
#610
0"
#611
b1 8
b100101101 2
b100101101 ,
b110 E
1"
#612
0"
#613
b100101110 ,
b100101110 2
b10 8
1"
#614
0"
#615
b11 8
b100101111 2
b100101111 ,
1"
#616
0"
#617
b100110000 ,
b100110000 2
b100 8
1"
#618
0"
#619
b101 8
b100110001 2
b100110001 ,
1"
#620
0"
#621
b100110010 ,
b100110010 2
b110 8
1"
#622
0"
#623
b111 8
b100110011 2
b100110011 ,
1"
#624
0"
#625
b100110100 ,
b100110100 2
b1000 8
1"
#626
0"
#627
b1001 8
b100110101 2
b100110101 ,
1"
#628
0"
#629
b100110110 ,
b100110110 2
b1010 8
1"
#630
0"
#631
b1011 8
b100110111 2
b100110111 ,
1"
#632
0"
#633
b100111000 ,
b100111000 2
b1100 8
1"
#634
0"
#635
b1101 8
b100111001 2
b100111001 ,
1"
#636
0"
#637
b100111010 ,
b100111010 2
b1110 8
1"
#638
0"
#639
b1111 8
b100111011 2
b100111011 ,
1"
#640
0"
#641
b100111100 ,
b100111100 2
b10000 8
1"
#642
0"
#643
b10001 8
b100111101 2
b100111101 ,
1"
#644
0"
#645
b100111110 ,
b100111110 2
b10010 8
1"
#646
0"
#647
b10011 8
b100111111 2
b100111111 ,
1"
#648
0"
#649
b101000000 ,
b101000000 2
b10100 8
1"
#650
0"
#651
b10101 8
b101000001 2
b101000001 ,
1"
#652
0"
#653
b101000010 ,
b101000010 2
b10110 8
1"
#654
0"
#655
b10111 8
b101000011 2
b101000011 ,
1"
#656
0"
#657
b101000100 ,
b101000100 2
b11000 8
1"
#658
0"
#659
b11001 8
b101000101 2
b101000101 ,
1"
#660
0"
#661
b101000110 ,
b101000110 2
b11010 8
1"
#662
0"
#663
b11011 8
b101000111 2
b101000111 ,
1"
#664
0"
#665
b101001000 ,
b101001000 2
b11100 8
1"
#666
0"
#667
b11101 8
b101001001 2
b101001001 ,
1"
#668
0"
#669
b101001010 ,
b101001010 2
b11110 8
1"
#670
0"
#671
b11111 8
b101001011 2
b101001011 ,
1"
#672
0"
#673
b101001100 ,
b101001100 2
b100000 8
1"
#674
0"
#675
b100001 8
b101001101 2
b101001101 ,
1"
#676
0"
#677
b101001110 ,
b101001110 2
b100010 8
1"
#678
0"
#679
b100011 8
b101001111 2
b101001111 ,
1"
#680
0"
#681
b101010000 ,
b101010000 2
b100100 8
1"
#682
0"
#683
b100101 8
b101010001 2
b101010001 ,
1"
#684
0"
#685
b101010010 ,
b101010010 2
b100110 8
1"
#686
0"
#687
b100111 8
b101010011 2
b101010011 ,
1"
#688
0"
#689
b101010100 ,
b101010100 2
b101000 8
1"
#690
0"
#691
b101001 8
b101010101 2
b101010101 ,
1"
#692
0"
#693
b101010110 ,
b101010110 2
b101010 8
1"
#694
0"
#695
b101011 8
b101010111 2
b101010111 ,
1"
#696
0"
#697
b101011000 ,
b101011000 2
b101100 8
1"
#698
0"
#699
b101101 8
b101011001 2
b101011001 ,
1"
#700
0"
#701
b101011010 ,
b101011010 2
b101110 8
1"
#702
0"
#703
b101111 8
b101011011 2
b101011011 ,
1"
#704
0"
#705
b101011100 ,
b101011100 2
b110000 8
1"
#706
0"
#707
17
b110001 8
b101011101 2
b101011101 ,
1"
#708
0"
#709
07
b101011110 ,
b101011110 2
b111 &
b111 6
b111 @
b111 9
b0 8
1"
#710
0"
#711
b1 8
b101011111 2
b101011111 ,
b111 E
1"
#712
0"
#713
b101100000 ,
b101100000 2
b10 8
1"
#714
0"
#715
b11 8
b101100001 2
b101100001 ,
1"
#716
0"
#717
b101100010 ,
b101100010 2
b100 8
1"
#718
0"
#719
b101 8
b101100011 2
b101100011 ,
1"
#720
0"
#721
b101100100 ,
b101100100 2
b110 8
1"
#722
0"
#723
b111 8
b101100101 2
b101100101 ,
1"
#724
0"
#725
b101100110 ,
b101100110 2
b1000 8
1"
#726
0"
#727
b1001 8
b101100111 2
b101100111 ,
1"
#728
0"
#729
b101101000 ,
b101101000 2
b1010 8
1"
#730
0"
#731
b1011 8
b101101001 2
b101101001 ,
1"
#732
0"
#733
b101101010 ,
b101101010 2
b1100 8
1"
#734
0"
#735
b1101 8
b101101011 2
b101101011 ,
1"
#736
0"
#737
b101101100 ,
b101101100 2
b1110 8
1"
#738
0"
#739
b1111 8
b101101101 2
b101101101 ,
1"
#740
0"
#741
b101101110 ,
b101101110 2
b10000 8
1"
#742
0"
#743
b10001 8
b101101111 2
b101101111 ,
1"
#744
0"
#745
b101110000 ,
b101110000 2
b10010 8
1"
#746
0"
#747
b10011 8
b101110001 2
b101110001 ,
1"
#748
0"
#749
b101110010 ,
b101110010 2
b10100 8
1"
#750
0"
#751
b10101 8
b101110011 2
b101110011 ,
1"
#752
0"
#753
b101110100 ,
b101110100 2
b10110 8
1"
#754
0"
#755
b10111 8
b101110101 2
b101110101 ,
1"
#756
0"
#757
b101110110 ,
b101110110 2
b11000 8
1"
#758
0"
#759
b11001 8
b101110111 2
b101110111 ,
1"
#760
0"
#761
b101111000 ,
b101111000 2
b11010 8
1"
#762
0"
#763
b11011 8
b101111001 2
b101111001 ,
1"
#764
0"
#765
b101111010 ,
b101111010 2
b11100 8
1"
#766
0"
#767
b11101 8
b101111011 2
b101111011 ,
1"
#768
0"
#769
b101111100 ,
b101111100 2
b11110 8
1"
#770
0"
#771
b11111 8
b101111101 2
b101111101 ,
1"
#772
0"
#773
b101111110 ,
b101111110 2
b100000 8
1"
#774
0"
#775
b100001 8
b101111111 2
b101111111 ,
1"
#776
0"
#777
b110000000 ,
b110000000 2
b100010 8
1"
#778
0"
#779
b100011 8
b110000001 2
b110000001 ,
1"
#780
0"
#781
b110000010 ,
b110000010 2
b100100 8
1"
#782
0"
#783
b100101 8
b110000011 2
b110000011 ,
1"
#784
0"
#785
b110000100 ,
b110000100 2
b100110 8
1"
#786
0"
#787
b100111 8
b110000101 2
b110000101 ,
1"
#788
0"
#789
b110000110 ,
b110000110 2
b101000 8
1"
#790
0"
#791
b101001 8
b110000111 2
b110000111 ,
1"
#792
0"
#793
b110001000 ,
b110001000 2
b101010 8
1"
#794
0"
#795
b101011 8
b110001001 2
b110001001 ,
1"
#796
0"
#797
b110001010 ,
b110001010 2
b101100 8
1"
#798
0"
#799
b101101 8
b110001011 2
b110001011 ,
1"
#800
0"
#801
b110001100 ,
b110001100 2
b101110 8
1"
#802
0"
#803
b101111 8
b110001101 2
b110001101 ,
1"
#804
0"
#805
b110001110 ,
b110001110 2
b110000 8
1"
#806
0"
#807
17
b110001 8
b110001111 2
b110001111 ,
1"
#808
0"
#809
07
b110010000 ,
b110010000 2
b1000 &
b1000 6
b1000 @
b1000 9
b0 8
1"
#810
0"
#811
b1 8
b110010001 2
b110010001 ,
b1000 E
1"
#812
0"
