Efinix/Trion/K5Stack10_MIDI/src/common/fifo/sim/ASyncFifoController_tb.vcd
$date
	Fri May  5 21:44:18 2023
$end
$version
	Icarus Verilog
$end
$timescale
	1ps
$end
$scope module ASyncFifoController_tb $end
$var wire 1 ! wTimingGen $end
$var wire 1 " wRvd $end
$var wire 4 # wRd [3:0] $end
$var wire 1 $ wFull $end
$var wire 1 % wEmp $end
$var reg 1 & qRe $end
$var reg 1 ' qWe $end
$var reg 1 ( rBCLK $end
$var reg 4 ) rRd [3:0] $end
$var reg 1 * rSCLK $end
$var reg 1 + rSRST $end
$var reg 4 , rWd [3:0] $end
$var reg 1 - rnSRST $end
$scope module ASyncFifoController $end
$var wire 1 ( iRCLK $end
$var wire 1 & iRe $end
$var wire 1 * iWCLK $end
$var wire 4 . iWd [3:0] $end
$var wire 1 ' iWe $end
$var wire 1 - inARST $end
$var wire 1 % oEmp $end
$var wire 1 $ oFull $end
$var wire 1 " oRvd $end
$var wire 10 / wWa [9:0] $end
$var wire 4 0 oRd [3:0] $end
$var reg 1 1 qEmp $end
$var reg 1 2 qFull $end
$var reg 10 3 qRbin [9:0] $end
$var reg 1 4 qRe $end
$var reg 10 5 qWbin [9:0] $end
$var reg 1 6 qWe $end
$var reg 10 7 rRa [9:0] $end
$var reg 1 8 rRe $end
$var reg 10 9 rWa [9:0] $end
$var integer 32 : x [31:0] $end
$scope function fBitWidth $end
$var reg 32 ; iVAL [31:0] $end
$var integer 32 < i [31:0] $end
$upscope $end
$scope module ASyncDualPortBramTrion $end
$var wire 1 ( iRCLK $end
$var wire 10 = iRa [9:0] $end
$var wire 1 * iWCLK $end
$var wire 10 > iWa [9:0] $end
$var wire 4 ? iWd [3:0] $end
$var wire 1 6 iWe $end
$var wire 4 @ oRd [3:0] $end
$var reg 4 A rRd [3:0] $end
$upscope $end
$upscope $end
$scope module PulseGenerator $end
$var wire 1 * iCLK $end
$var wire 1 + iRST $end
$var wire 1 ! oPulse $end
$var reg 1 B qCke $end
$var reg 1 C qTimeCke $end
$var reg 1 D rPulse $end
$var reg 8 E rTimeCkeCnt [7:0] $end
$var reg 1 F rTmpCount $end
$scope function fBitWidth $end
$var reg 32 G iVAL [31:0] $end
$var integer 32 H i [31:0] $end
$upscope $end
$upscope $end
$scope task reset_init $end
$upscope $end
$upscope $end
$enddefinitions $end
#0
$dumpvars
bx H
bx G
xF
bx E
xD
xC
xB
bx A
bx @
bx ?
b0 >
b0 =
bx <
bx ;
b11111111111111111111111111111111 :
b0 9
08
b0 7
x6
b0 5
04
b0 3
02
11
bx 0
b1 /
bx .
0-
bx ,
1+
0*
bx )
0(
x'
0&
1%
0$
bx #
0"
x!
$end
#2000
06
0C
0'
1B
0F
b0 E
0!
0D
b0 ,
b0 .
b0 ?
1*
#4000
0*
#6000
1*
#7000
1(
#8000
0*
#10000
1C
b1 E
1*
0+
1-
#12000
0*
#14000
16
1'
0C
1!
1D
b0 E
1*
0(
#16000
0*
#18000
1C
b1 E
b1 ,
b1 .
b1 ?
b10 /
b1 9
b1 >
1*
#20000
0*
#21000
b0 #
b0 0
b0 @
b0 A
1(
#22000
06
0'
0C
b11111111111111111111111111111111 :
b10 ,
b10 .
b10 ?
0!
0D
b0 E
b11 /
b10 9
b10 >
1*
#24000
0*
#26000
1C
b11111111111111111111111111111111 :
b1 E
1*
#28000
0*
0(
#30000
16
1'
0C
1!
1D
b0 E
1*
#32000
0*
#34000
1C
b1 E
b11 ,
b11 .
b11 ?
b100 /
b11 9
b11 >
1*
#35000
b11111111111111111111111111111111 :
1(
#36000
0*
#38000
06
0'
0C
b11111111111111111111111111111111 :
b100 ,
b100 .
b100 ?
0!
0D
b0 E
b101 /
b100 9
b100 >
1*
#40000
0*
#42000
1C
b11111111111111111111111111111111 :
b1 E
1*
0(
#44000
0*
#46000
16
1'
0C
1!
1D
b0 E
1*
#48000
0*
#49000
14
1&
0%
01
b10 5
b11111111111111111111111111111111 :
1(
#50000
1C
b1 E
b101 ,
b101 .
b101 ?
b110 /
b101 9
b101 >
1*
#52000
0*
#54000
06
0'
0C
b11111111111111111111111111111111 :
b110 ,
b110 .
b110 ?
0!
0D
b0 E
b111 /
b110 9
b110 >
1*
#56000
0*
0(
#58000
1C
b11111111111111111111111111111111 :
b1 E
1*
#60000
0*
#62000
16
1'
0C
1!
1D
b0 E
1*
#63000
b100 5
b11111111111111111111111111111111 :
1"
18
b1 7
b1 =
1(
#64000
0*
#66000
1C
b1 E
b111 ,
b111 .
b111 ?
b1000 /
b111 9
b111 >
1*
#68000
0*
#70000
06
0'
0C
b11111111111111111111111111111111 :
b1000 ,
b1000 .
b1000 ?
0!
0D
b0 E
b1001 /
b1000 9
b1000 >
1*
0(
#72000
0*
#74000
1C
b11111111111111111111111111111111 :
b1 E
1*
#76000
0*
#77000
b110 5
b11111111111111111111111111111111 :
b0 )
b1 #
b1 0
b1 @
b1 A
b10 7
b10 =
1(
#78000
16
1'
0C
b11111111111111111111111111111111 :
1!
1D
b0 E
1*
#80000
0*
#82000
1C
b1 3
b11111111111111111111111111111111 :
b1 E
b1001 ,
b1001 .
b1001 ?
b1010 /
b1001 9
b1001 >
1*
#84000
0*
0(
#86000
06
0'
0C
b11111111111111111111111111111111 :
b1010 ,
b1010 .
b1010 ?
0!
0D
b0 E
b1011 /
b1010 9
b1010 >
1*
#88000
0*
#90000
1C
b11111111111111111111111111111111 :
b1 E
1*
#91000
b1000 5
b11111111111111111111111111111111 :
b10 #
b10 0
b10 @
b10 A
b1 )
b11 7
b11 =
1(
#92000
0*
#94000
16
1'
0C
b11111111111111111111111111111111 :
1!
1D
b0 E
1*
#96000
0*
#98000
1C
b10 3
b11111111111111111111111111111111 :
b1 E
b1011 ,
b1011 .
b1011 ?
b1100 /
b1011 9
b1011 >
1*
0(
#100000
0*
#102000
06
0'
0C
b11111111111111111111111111111111 :
b1100 ,
b1100 .
b1100 ?
0!
0D
b0 E
b1101 /
b1100 9
b1100 >
1*
#104000
0*
#105000
b1010 5
b11111111111111111111111111111111 :
b10 )
b11 #
b11 0
b11 @
b11 A
b100 7
b100 =
1(
#106000
1C
b11111111111111111111111111111111 :
b1 E
1*
#108000
0*
#110000
16
1'
0C
b11 3
b11111111111111111111111111111111 :
1!
1D
b0 E
1*
#112000
0*
0(
#114000
1C
b1 E
b1101 ,
b1101 .
b1101 ?
b1110 /
b1101 9
b1101 >
1*
#116000
0*
#118000
06
0'
0C
b11111111111111111111111111111111 :
b1110 ,
b1110 .
b1110 ?
0!
0D
b0 E
b1111 /
b1110 9
b1110 >
1*
#119000
b1011 5
b11111111111111111111111111111111 :
b100 #
b100 0
b100 @
b100 A
b11 )
b101 7
b101 =
1(
#120000
0*
#122000
1C
b11111111111111111111111111111111 :
b1 E
1*
#124000
0*
#126000
16
1'
0C
b100 3
b11111111111111111111111111111111 :
1!
1D
b0 E
1*
0(
#128000
0*
#130000
1C
b1 E
b1111 ,
b1111 .
b1111 ?
b10000 /
b1111 9
b1111 >
1*
#132000
0*
#133000
b1101 5
b11111111111111111111111111111111 :
b100 )
b101 #
b101 0
b101 @
b101 A
b110 7
b110 =
1(
#134000
06
0'
0C
b11111111111111111111111111111111 :
b0 ,
b0 .
b0 ?
0!
0D
b0 E
b10001 /
b10000 9
b10000 >
1*
#136000
0*
#138000
1C
b101 3
b11111111111111111111111111111111 :
b1 E
1*
#140000
0*
0(
#142000
16
1'
0C
1!
1D
b0 E
1*
#144000
0*
#146000
1C
b1 E
b1 ,
b1 .
b1 ?
b10010 /
b10001 9
b10001 >
1*
#147000
b1110 5
b11111111111111111111111111111111 :
b110 #
b110 0
b110 @
b110 A
b101 )
b111 7
b111 =
1(
#148000
0*
#150000
06
0'
0C
b11111111111111111111111111111111 :
b10 ,
b10 .
b10 ?
0!
0D
b0 E
b10011 /
b10010 9
b10010 >
1*
#152000
0*
#154000
1C
b110 3
b11111111111111111111111111111111 :
b1 E
1*
0(
#156000
0*
#158000
16
1'
0C
1!
1D
b0 E
1*
#160000
0*
#161000
b10000 5
b11111111111111111111111111111111 :
b110 )
b111 #
b111 0
b111 @
b111 A
b1000 7
b1000 =
1(
#162000
1C
b11111111111111111111111111111111 :
b1 E
b11 ,
b11 .
b11 ?
b10100 /
b10011 9
b10011 >
1*
#164000
0*
#166000
06
0'
0C
b111 3
b11111111111111111111111111111111 :
b100 ,
b100 .
b100 ?
0!
0D
b0 E
b10101 /
b10100 9
b10100 >
1*
#168000
0*
0(
#170000
1C
b11111111111111111111111111111111 :
b1 E
1*
#172000
0*
#174000
16
1'
0C
1!
1D
b0 E
1*
#175000
b10010 5
b11111111111111111111111111111111 :
b1000 #
b1000 0
b1000 @
b1000 A
b111 )
b1001 7
b1001 =
1(
#176000
0*
#178000
1C
b11111111111111111111111111111111 :
b1 E
b101 ,
b101 .
b101 ?
b10110 /
b10101 9
b10101 >
1*
#180000
0*
#182000
06
0'
0C
b1000 3
b11111111111111111111111111111111 :
b110 ,
b110 .
b110 ?
0!
0D
b0 E
b10111 /
b10110 9
b10110 >
1*
0(
#184000
0*
#186000
1C
b11111111111111111111111111111111 :
b1 E
1*
#188000
0*
#189000
b10100 5
b11111111111111111111111111111111 :
b1000 )
b1001 #
b1001 0
b1001 @
b1001 A
b1010 7
b1010 =
1(
#190000
16
1'
0C
b11111111111111111111111111111111 :
1!
1D
b0 E
1*
#192000
0*
#194000
1C
b1001 3
b11111111111111111111111111111111 :
b1 E
b111 ,
b111 .
b111 ?
b11000 /
b10111 9
b10111 >
1*
#196000
0*
0(
#198000
06
0'
0C
b11111111111111111111111111111111 :
b1000 ,
b1000 .
b1000 ?
0!
0D
b0 E
b11001 /
b11000 9
b11000 >
1*
#200000
0*
#202000
1C
b11111111111111111111111111111111 :
b1 E
1*
#203000
b10110 5
b11111111111111111111111111111111 :
b1010 #
b1010 0
b1010 @
b1010 A
b1001 )
b1011 7
b1011 =
1(
#204000
0*
#206000
16
1'
0C
b11111111111111111111111111111111 :
1!
1D
b0 E
1*
#208000
0*
#210000
1C
b1010 3
b11111111111111111111111111111111 :
b1 E
b1001 ,
b1001 .
b1001 ?
b11010 /
b11001 9
b11001 >
1*
0(
#212000
0*
#214000
06
0'
0C
b11111111111111111111111111111111 :
b1010 ,
b1010 .
b1010 ?
0!
0D
b0 E
b11011 /
b11010 9
b11010 >
1*
#216000
0*
#217000
b11000 5
b11111111111111111111111111111111 :
b1010 )
b1011 #
b1011 0
b1011 @
b1011 A
b1100 7
b1100 =
1(
#218000
1C
b11111111111111111111111111111111 :
b1 E
1*
#220000
0*
#222000
16
1'
0C
b1011 3
b11111111111111111111111111111111 :
1!
1D
b0 E
1*
#224000
0*
0(
#226000
1C
b1 E
b1011 ,
b1011 .
b1011 ?
b11100 /
b11011 9
b11011 >
1*
#228000
0*
#230000
06
0'
0C
b11111111111111111111111111111111 :
b1100 ,
b1100 .
b1100 ?
0!
0D
b0 E
b11101 /
b11100 9
b11100 >
1*
#231000
b11001 5
b11111111111111111111111111111111 :
b1100 #
b1100 0
b1100 @
b1100 A
b1011 )
b1101 7
b1101 =
1(
#232000
0*
#234000
1C
b11111111111111111111111111111111 :
b1 E
1*
#236000
0*
#238000
16
1'
0C
b1100 3
b11111111111111111111111111111111 :
1!
1D
b0 E
1*
0(
#240000
0*
#242000
1C
b1 E
b1101 ,
b1101 .
b1101 ?
b11110 /
b11101 9
b11101 >
1*
#244000
0*
#245000
b11011 5
b11111111111111111111111111111111 :
b1100 )
b1101 #
b1101 0
b1101 @
b1101 A
b1110 7
b1110 =
1(
#246000
06
0'
0C
b11111111111111111111111111111111 :
b1110 ,
b1110 .
b1110 ?
0!
0D
b0 E
b11111 /
b11110 9
b11110 >
1*
#248000
0*
#250000
1C
b1101 3
b11111111111111111111111111111111 :
b1 E
1*
#252000
0*
0(
#254000
16
1'
0C
1!
1D
b0 E
1*
#256000
0*
#258000
1C
b1 E
b1111 ,
b1111 .
b1111 ?
b100000 /
b11111 9
b11111 >
1*
#259000
b11100 5
b11111111111111111111111111111111 :
b1110 #
b1110 0
b1110 @
b1110 A
b1101 )
b1111 7
b1111 =
1(
#260000
0*
#262000
06
0'
0C
b11111111111111111111111111111111 :
b0 ,
b0 .
b0 ?
0!
0D
b0 E
b100001 /
b100000 9
b100000 >
1*
#264000
0*
#266000
1C
b1110 3
b11111111111111111111111111111111 :
b1 E
1*
0(
#268000
0*
#270000
16
1'
0C
1!
1D
b0 E
1*
#272000
0*
#273000
b11110 5
b11111111111111111111111111111111 :
b1110 )
b1111 #
b1111 0
b1111 @
b1111 A
b10000 7
b10000 =
1(
#274000
1C
b11111111111111111111111111111111 :
b1 E
b1 ,
b1 .
b1 ?
b100010 /
b100001 9
b100001 >
1*
#276000
0*
#278000
06
0'
0C
b1111 3
b11111111111111111111111111111111 :
b10 ,
b10 .
b10 ?
0!
0D
b0 E
b100011 /
b100010 9
b100010 >
1*
#280000
0*
0(
#282000
1C
b11111111111111111111111111111111 :
b1 E
1*
#284000
0*
#286000
16
1'
0C
1!
1D
b0 E
1*
#287000
b100000 5
b11111111111111111111111111111111 :
b0 #
b0 0
b0 @
b0 A
b1111 )
b10001 7
b10001 =
1(
#288000
0*
#290000
1C
b11111111111111111111111111111111 :
b1 E
b11 ,
b11 .
b11 ?
b100100 /
b100011 9
b100011 >
1*
#292000
0*
#294000
06
0'
0C
b10000 3
b11111111111111111111111111111111 :
b100 ,
b100 .
b100 ?
0!
0D
b0 E
b100101 /
b100100 9
b100100 >
1*
0(
#296000
0*
#298000
1C
b11111111111111111111111111111111 :
b1 E
1*
#300000
0*
#301000
b100010 5
b11111111111111111111111111111111 :
b0 )
b1 #
b1 0
b1 @
b1 A
b10010 7
b10010 =
1(
#302000
16
1'
0C
b11111111111111111111111111111111 :
1!
1D
b0 E
1*
#304000
0*
#306000
1C
b10001 3
b11111111111111111111111111111111 :
b1 E
b101 ,
b101 .
b101 ?
b100110 /
b100101 9
b100101 >
1*
#308000
0*
0(
#310000
06
0'
0C
b11111111111111111111111111111111 :
b110 ,
b110 .
b110 ?
0!
0D
b0 E
b100111 /
b100110 9
b100110 >
1*
#312000
0*
#314000
1C
b11111111111111111111111111111111 :
b1 E
1*
#315000
b100100 5
b11111111111111111111111111111111 :
b10 #
b10 0
b10 @
b10 A
b1 )
b10011 7
b10011 =
1(
#316000
0*
#318000
16
1'
0C
b11111111111111111111111111111111 :
1!
1D
b0 E
1*
#320000
0*
#322000
1C
b10010 3
b11111111111111111111111111111111 :
b1 E
b111 ,
b111 .
b111 ?
b101000 /
b100111 9
b100111 >
1*
0(
#324000
0*
#326000
06
0'
0C
b11111111111111111111111111111111 :
b1000 ,
b1000 .
b1000 ?
0!
0D
b0 E
b101001 /
b101000 9
b101000 >
1*
#328000
0*
#329000
b100110 5
b11111111111111111111111111111111 :
b10 )
b11 #
b11 0
b11 @
b11 A
b10100 7
b10100 =
1(
#330000
1C
b11111111111111111111111111111111 :
b1 E
1*
#332000
0*
#334000
16
1'
0C
b10011 3
b11111111111111111111111111111111 :
1!
1D
b0 E
1*
#336000
0*
0(
#338000
1C
b1 E
b1001 ,
b1001 .
b1001 ?
b101010 /
b101001 9
b101001 >
1*
#340000
0*
#342000
06
0'
0C
b11111111111111111111111111111111 :
b1010 ,
b1010 .
b1010 ?
0!
0D
b0 E
b101011 /
b101010 9
b101010 >
1*
#343000
b100111 5
b11111111111111111111111111111111 :
b100 #
b100 0
b100 @
b100 A
b11 )
b10101 7
b10101 =
1(
#344000
0*
#346000
1C
b11111111111111111111111111111111 :
b1 E
1*
#348000
0*
#350000
16
1'
0C
b10100 3
b11111111111111111111111111111111 :
1!
1D
b0 E
1*
0(
#352000
0*
#354000
1C
b1 E
b1011 ,
b1011 .
b1011 ?
b101100 /
b101011 9
b101011 >
1*
#356000
0*
#357000
b101001 5
b11111111111111111111111111111111 :
b100 )
b101 #
b101 0
b101 @
b101 A
b10110 7
b10110 =
1(
#358000
06
0'
0C
b11111111111111111111111111111111 :
b1100 ,
b1100 .
b1100 ?
0!
0D
b0 E
b101101 /
b101100 9
b101100 >
1*
#360000
0*
#362000
1C
b10101 3
b11111111111111111111111111111111 :
b1 E
1*
#364000
0*
0(
#366000
16
1'
0C
1!
1D
b0 E
1*
#368000
0*
#370000
1C
b1 E
b1101 ,
b1101 .
b1101 ?
b101110 /
b101101 9
b101101 >
1*
#371000
b101010 5
b11111111111111111111111111111111 :
b110 #
b110 0
b110 @
b110 A
b101 )
b10111 7
b10111 =
1(
#372000
0*
#374000
06
0'
0C
b11111111111111111111111111111111 :
b1110 ,
b1110 .
b1110 ?
0!
0D
b0 E
b101111 /
b101110 9
b101110 >
1*
#376000
0*
#378000
1C
b10110 3
b11111111111111111111111111111111 :
b1 E
1*
0(
#380000
0*
#382000
16
1'
0C
1!
1D
b0 E
1*
#384000
0*
#385000
b101100 5
b11111111111111111111111111111111 :
b110 )
b111 #
b111 0
b111 @
b111 A
b11000 7
b11000 =
1(
#386000
1C
b11111111111111111111111111111111 :
b1 E
b1111 ,
b1111 .
b1111 ?
b110000 /
b101111 9
b101111 >
1*
#388000
0*
#390000
06
0'
0C
b10111 3
b11111111111111111111111111111111 :
b0 ,
b0 .
b0 ?
0!
0D
b0 E
b110001 /
b110000 9
b110000 >
1*
#392000
0*
0(
#394000
1C
b11111111111111111111111111111111 :
b1 E
1*
#396000
0*
#398000
16
1'
0C
1!
1D
b0 E
1*
#399000
b101110 5
b11111111111111111111111111111111 :
b1000 #
b1000 0
b1000 @
b1000 A
b111 )
b11001 7
b11001 =
1(
#400000
0*
#402000
1C
b11111111111111111111111111111111 :
b1 E
b1 ,
b1 .
b1 ?
b110010 /
b110001 9
b110001 >
1*
#404000
0*
#406000
06
0'
0C
b11000 3
b11111111111111111111111111111111 :
b10 ,
b10 .
b10 ?
0!
0D
b0 E
b110011 /
b110010 9
b110010 >
1*
0(
#408000
0*
#410000
1C
b11111111111111111111111111111111 :
b1 E
1*
#412000
0*
#413000
b110000 5
b11111111111111111111111111111111 :
b1000 )
b1001 #
b1001 0
b1001 @
b1001 A
b11010 7
b11010 =
1(
#414000
16
1'
0C
b11111111111111111111111111111111 :
1!
1D
b0 E
1*
#416000
0*
#418000
1C
b11001 3
b11111111111111111111111111111111 :
b1 E
b11 ,
b11 .
b11 ?
b110100 /
b110011 9
b110011 >
1*
#420000
0*
0(
#422000
06
0'
0C
b11111111111111111111111111111111 :
b100 ,
b100 .
b100 ?
0!
0D
b0 E
b110101 /
b110100 9
b110100 >
1*
#424000
0*
#426000
1C
b11111111111111111111111111111111 :
b1 E
1*
#427000
b110010 5
b11111111111111111111111111111111 :
b1010 #
b1010 0
b1010 @
b1010 A
b1001 )
b11011 7
b11011 =
1(
#428000
0*
#430000
16
1'
0C
b11111111111111111111111111111111 :
1!
1D
b0 E
1*
#432000
0*
#434000
1C
b11010 3
b11111111111111111111111111111111 :
b1 E
b101 ,
b101 .
b101 ?
b110110 /
b110101 9
b110101 >
1*
0(
#436000
0*
#438000
06
0'
0C
b11111111111111111111111111111111 :
b110 ,
b110 .
b110 ?
0!
0D
b0 E
b110111 /
b110110 9
b110110 >
1*
#440000
0*
#441000
b110100 5
b11111111111111111111111111111111 :
b1010 )
b1011 #
b1011 0
b1011 @
b1011 A
b11100 7
b11100 =
1(
#442000
1C
b11111111111111111111111111111111 :
b1 E
1*
#444000
0*
#446000
16
1'
0C
b11011 3
b11111111111111111111111111111111 :
1!
1D
b0 E
1*
#448000
0*
0(
#450000
1C
b1 E
b111 ,
b111 .
b111 ?
b111000 /
b110111 9
b110111 >
1*
#452000
0*
#454000
06
0'
0C
b11111111111111111111111111111111 :
b1000 ,
b1000 .
b1000 ?
0!
0D
b0 E
b111001 /
b111000 9
b111000 >
1*
#455000
b110101 5
b11111111111111111111111111111111 :
b1100 #
b1100 0
b1100 @
b1100 A
b1011 )
b11101 7
b11101 =
1(
#456000
0*
#458000
1C
b11111111111111111111111111111111 :
b1 E
1*
#460000
0*
#462000
16
1'
0C
b11100 3
b11111111111111111111111111111111 :
1!
1D
b0 E
1*
0(
#464000
0*
#466000
1C
b1 E
b1001 ,
b1001 .
b1001 ?
b111010 /
b111001 9
b111001 >
1*
#468000
0*
#469000
b110111 5
b11111111111111111111111111111111 :
b1100 )
b1101 #
b1101 0
b1101 @
b1101 A
b11110 7
b11110 =
1(
#470000
06
0'
0C
b11111111111111111111111111111111 :
b1010 ,
b1010 .
b1010 ?
0!
0D
b0 E
b111011 /
b111010 9
b111010 >
1*
#472000
0*
#474000
1C
b11101 3
b11111111111111111111111111111111 :
b1 E
1*
#476000
0*
0(
#478000
16
1'
0C
1!
1D
b0 E
1*
#480000
0*
#482000
1C
b1 E
b1011 ,
b1011 .
b1011 ?
b111100 /
b111011 9
b111011 >
1*
#483000
b111000 5
b11111111111111111111111111111111 :
b1110 #
b1110 0
b1110 @
b1110 A
b1101 )
b11111 7
b11111 =
1(
#484000
0*
#486000
06
0'
0C
b11111111111111111111111111111111 :
b1100 ,
b1100 .
b1100 ?
0!
0D
b0 E
b111101 /
b111100 9
b111100 >
1*
#488000
0*
#490000
1C
b11110 3
b11111111111111111111111111111111 :
b1 E
1*
0(
#492000
0*
#494000
16
1'
0C
1!
1D
b0 E
1*
#496000
0*
#497000
b111010 5
b11111111111111111111111111111111 :
b1110 )
b1111 #
b1111 0
b1111 @
b1111 A
b100000 7
b100000 =
1(
#498000
1C
b11111111111111111111111111111111 :
b1 E
b1101 ,
b1101 .
b1101 ?
b111110 /
b111101 9
b111101 >
1*
#500000
0*
#502000
06
0'
0C
b11111 3
b11111111111111111111111111111111 :
b1110 ,
b1110 .
b1110 ?
0!
0D
b0 E
b111111 /
b111110 9
b111110 >
1*
#504000
0*
0(
#506000
1C
b11111111111111111111111111111111 :
b1 E
1*
#508000
0*
#510000
16
1'
0C
1!
1D
b0 E
1*
#511000
b111100 5
b11111111111111111111111111111111 :
b0 #
b0 0
b0 @
b0 A
b1111 )
b100001 7
b100001 =
1(
#512000
0*
#514000
1C
b11111111111111111111111111111111 :
b1 E
b1111 ,
b1111 .
b1111 ?
b1000000 /
b111111 9
b111111 >
1*
#516000
0*
#518000
06
0'
0C
b100000 3
b11111111111111111111111111111111 :
b0 ,
b0 .
b0 ?
0!
0D
b0 E
b1000001 /
b1000000 9
b1000000 >
1*
0(
#520000
0*
#522000
1C
b11111111111111111111111111111111 :
b1 E
1*
#524000
0*
#525000
b111110 5
b11111111111111111111111111111111 :
b0 )
b1 #
b1 0
b1 @
b1 A
b100010 7
b100010 =
1(
#526000
16
1'
0C
b11111111111111111111111111111111 :
1!
1D
b0 E
1*
#528000
0*
#530000
1C
b100001 3
b11111111111111111111111111111111 :
b1 E
b1 ,
b1 .
b1 ?
b1000010 /
b1000001 9
b1000001 >
1*
#532000
0*
0(
#534000
06
0'
0C
b11111111111111111111111111111111 :
b10 ,
b10 .
b10 ?
0!
0D
b0 E
b1000011 /
b1000010 9
b1000010 >
1*
#536000
0*
#538000
1C
b11111111111111111111111111111111 :
b1 E
1*
#539000
b1000000 5
b11111111111111111111111111111111 :
b10 #
b10 0
b10 @
b10 A
b1 )
b100011 7
b100011 =
1(
#540000
0*
#542000
16
1'
0C
b11111111111111111111111111111111 :
1!
1D
b0 E
1*
#544000
0*
#546000
1C
b100010 3
b11111111111111111111111111111111 :
b1 E
b11 ,
b11 .
b11 ?
b1000100 /
b1000011 9
b1000011 >
1*
0(
#548000
0*
#550000
06
0'
0C
b11111111111111111111111111111111 :
b100 ,
b100 .
b100 ?
0!
0D
b0 E
b1000101 /
b1000100 9
b1000100 >
1*
#552000
0*
#553000
b1000010 5
b11111111111111111111111111111111 :
b10 )
b11 #
b11 0
b11 @
b11 A
b100100 7
b100100 =
1(
#554000
1C
b11111111111111111111111111111111 :
b1 E
1*
#556000
0*
#558000
16
1'
0C
b100011 3
b11111111111111111111111111111111 :
1!
1D
b0 E
1*
#560000
0*
0(
#562000
1C
b1 E
b101 ,
b101 .
b101 ?
b1000110 /
b1000101 9
b1000101 >
1*
#564000
0*
#566000
06
0'
0C
b11111111111111111111111111111111 :
b110 ,
b110 .
b110 ?
0!
0D
b0 E
b1000111 /
b1000110 9
b1000110 >
1*
#567000
b1000011 5
b11111111111111111111111111111111 :
b100 #
b100 0
b100 @
b100 A
b11 )
b100101 7
b100101 =
1(
#568000
0*
#570000
1C
b11111111111111111111111111111111 :
b1 E
1*
#572000
0*
#574000
16
1'
0C
b100100 3
b11111111111111111111111111111111 :
1!
1D
b0 E
1*
0(
#576000
0*
#578000
1C
b1 E
b111 ,
b111 .
b111 ?
b1001000 /
b1000111 9
b1000111 >
1*
#580000
0*
#581000
b1000101 5
b11111111111111111111111111111111 :
b100 )
b101 #
b101 0
b101 @
b101 A
b100110 7
b100110 =
1(
#582000
06
0'
0C
b11111111111111111111111111111111 :
b1000 ,
b1000 .
b1000 ?
0!
0D
b0 E
b1001001 /
b1001000 9
b1001000 >
1*
#584000
0*
#586000
1C
b100101 3
b11111111111111111111111111111111 :
b1 E
1*
#588000
0*
0(
#590000
16
1'
0C
1!
1D
b0 E
1*
#592000
0*
#594000
1C
b1 E
b1001 ,
b1001 .
b1001 ?
b1001010 /
b1001001 9
b1001001 >
1*
#595000
b1000110 5
b11111111111111111111111111111111 :
b110 #
b110 0
b110 @
b110 A
b101 )
b100111 7
b100111 =
1(
#596000
0*
#598000
06
0'
0C
b11111111111111111111111111111111 :
b1010 ,
b1010 .
b1010 ?
0!
0D
b0 E
b1001011 /
b1001010 9
b1001010 >
1*
#600000
0*
#602000
1C
b100110 3
b11111111111111111111111111111111 :
b1 E
1*
0(
#604000
0*
#606000
16
1'
0C
1!
1D
b0 E
1*
#608000
0*
#609000
b1001000 5
b11111111111111111111111111111111 :
b110 )
b111 #
b111 0
b111 @
b111 A
b101000 7
b101000 =
1(
#610000
1C
b11111111111111111111111111111111 :
b1 E
b1011 ,
b1011 .
b1011 ?
b1001100 /
b1001011 9
b1001011 >
1*
#612000
0*
#614000
06
0'
0C
b100111 3
b11111111111111111111111111111111 :
b1100 ,
b1100 .
b1100 ?
0!
0D
b0 E
b1001101 /
b1001100 9
b1001100 >
1*
#616000
0*
0(
#618000
1C
b11111111111111111111111111111111 :
b1 E
1*
#620000
0*
#622000
16
1'
0C
1!
1D
b0 E
1*
#623000
b1001010 5
b11111111111111111111111111111111 :
b1000 #
b1000 0
b1000 @
b1000 A
b111 )
b101001 7
b101001 =
1(
#624000
0*
#626000
1C
b11111111111111111111111111111111 :
b1 E
b1101 ,
b1101 .
b1101 ?
b1001110 /
b1001101 9
b1001101 >
1*
#628000
0*
#630000
06
0'
0C
b101000 3
b11111111111111111111111111111111 :
b1110 ,
b1110 .
b1110 ?
0!
0D
b0 E
b1001111 /
b1001110 9
b1001110 >
1*
0(
#632000
0*
#634000
1C
b11111111111111111111111111111111 :
b1 E
1*
#636000
0*
#637000
b1001100 5
b11111111111111111111111111111111 :
b1000 )
b1001 #
b1001 0
b1001 @
b1001 A
b101010 7
b101010 =
1(
#638000
16
1'
0C
b11111111111111111111111111111111 :
1!
1D
b0 E
1*
#640000
0*
#642000
1C
b101001 3
b11111111111111111111111111111111 :
b1 E
b1111 ,
b1111 .
b1111 ?
b1010000 /
b1001111 9
b1001111 >
1*
#644000
0*
0(
#646000
06
0'
0C
b11111111111111111111111111111111 :
b0 ,
b0 .
b0 ?
0!
0D
b0 E
b1010001 /
b1010000 9
b1010000 >
1*
#648000
0*
#650000
1C
b11111111111111111111111111111111 :
b1 E
1*
#651000
b1001110 5
b11111111111111111111111111111111 :
b1010 #
b1010 0
b1010 @
b1010 A
b1001 )
b101011 7
b101011 =
1(
#652000
0*
#654000
16
1'
0C
b11111111111111111111111111111111 :
1!
1D
b0 E
1*
#656000
0*
#658000
1C
b101010 3
b11111111111111111111111111111111 :
b1 E
b1 ,
b1 .
b1 ?
b1010010 /
b1010001 9
b1010001 >
1*
0(
#660000
0*
#662000
06
0'
0C
b11111111111111111111111111111111 :
b10 ,
b10 .
b10 ?
0!
0D
b0 E
b1010011 /
b1010010 9
b1010010 >
1*
#664000
0*
#665000
b1010000 5
b11111111111111111111111111111111 :
b1010 )
b1011 #
b1011 0
b1011 @
b1011 A
b101100 7
b101100 =
1(
#666000
1C
b11111111111111111111111111111111 :
b1 E
1*
#668000
0*
#670000
16
1'
0C
b101011 3
b11111111111111111111111111111111 :
1!
1D
b0 E
1*
#672000
0*
0(
#674000
1C
b1 E
b11 ,
b11 .
b11 ?
b1010100 /
b1010011 9
b1010011 >
1*
#676000
0*
#678000
06
0'
0C
b11111111111111111111111111111111 :
b100 ,
b100 .
b100 ?
0!
0D
b0 E
b1010101 /
b1010100 9
b1010100 >
1*
#679000
b1010001 5
b11111111111111111111111111111111 :
b1100 #
b1100 0
b1100 @
b1100 A
b1011 )
b101101 7
b101101 =
1(
#680000
0*
#682000
1C
b11111111111111111111111111111111 :
b1 E
1*
#684000
0*
#686000
16
1'
0C
b101100 3
b11111111111111111111111111111111 :
1!
1D
b0 E
1*
0(
#688000
0*
#690000
1C
b1 E
b101 ,
b101 .
b101 ?
b1010110 /
b1010101 9
b1010101 >
1*
#692000
0*
#693000
b1010011 5
b11111111111111111111111111111111 :
b1100 )
b1101 #
b1101 0
b1101 @
b1101 A
b101110 7
b101110 =
1(
#694000
06
0'
0C
b11111111111111111111111111111111 :
b110 ,
b110 .
b110 ?
0!
0D
b0 E
b1010111 /
b1010110 9
b1010110 >
1*
#696000
0*
#698000
1C
b101101 3
b11111111111111111111111111111111 :
b1 E
1*
#700000
0*
0(
#702000
16
1'
0C
1!
1D
b0 E
1*
#704000
0*
