Efinix/Trion/K5Stack10_MIDI/src/common/fifo/sim/ASyncFifoController_tb.vcd
$date
	Sat May  6 09:29:30 2023
$end
$version
	Icarus Verilog
$end
$timescale
	1ps
$end
$scope module ASyncFifoController_tb $end
$var wire 1 ! wTimingGen $end
$var wire 1 " wRvd $end
$var wire 8 # wRd [7:0] $end
$var wire 1 $ wFull $end
$var wire 1 % wEmp $end
$var reg 1 & qRe $end
$var reg 1 ' qWe $end
$var reg 1 ( rBCLK $end
$var reg 8 ) rRd [7:0] $end
$var reg 1 * rSCLK $end
$var reg 1 + rSRST $end
$var reg 8 , rWd [7:0] $end
$var reg 1 - rnSRST $end
$scope module ASyncFifoController $end
$var wire 1 ( iRCLK $end
$var wire 1 & iRe $end
$var wire 1 * iWCLK $end
$var wire 8 . iWd [7:0] $end
$var wire 1 ' iWe $end
$var wire 1 - inARST $end
$var wire 1 % oEmp $end
$var wire 1 $ oFull $end
$var wire 1 " oRvd $end
$var wire 4 / wWa [3:0] $end
$var wire 8 0 oRd [7:0] $end
$var reg 1 1 qEmp $end
$var reg 1 2 qFull $end
$var reg 4 3 qRbin [3:0] $end
$var reg 1 4 qRe $end
$var reg 4 5 qWbin [3:0] $end
$var reg 1 6 qWe $end
$var reg 4 7 rRa [3:0] $end
$var reg 1 8 rRe $end
$var reg 4 9 rWa [3:0] $end
$var integer 32 : x [31:0] $end
$scope function fBitWidth $end
$var reg 32 ; iVAL [31:0] $end
$var integer 32 < i [31:0] $end
$upscope $end
$scope module ASyncDualPortBramTrion $end
$var wire 1 ( iRCLK $end
$var wire 4 = iRa [3:0] $end
$var wire 1 * iWCLK $end
$var wire 4 > iWa [3:0] $end
$var wire 8 ? iWd [7:0] $end
$var wire 1 6 iWe $end
$var wire 8 @ oRd [7:0] $end
$var reg 8 A rRd [7:0] $end
$upscope $end
$upscope $end
$scope module PulseGenerator $end
$var wire 1 * iCLK $end
$var wire 1 + iRST $end
$var wire 1 ! oPulse $end
$var reg 1 B qCke $end
$var reg 1 C qTimeCke $end
$var reg 1 D rPulse $end
$var reg 8 E rTimeCkeCnt [7:0] $end
$var reg 2 F rTmpCount [1:0] $end
$scope function fBitWidth $end
$var reg 32 G iVAL [31:0] $end
$var integer 32 H i [31:0] $end
$upscope $end
$upscope $end
$scope task reset_init $end
$upscope $end
$upscope $end
$enddefinitions $end
#0
$dumpvars
bx H
bx G
bx F
bx E
xD
xC
xB
bx A
bx @
bx ?
b0 >
b0 =
bx <
bx ;
b11111111111111111111111111111111 :
b0 9
08
b0 7
x6
b0 5
04
b0 3
02
11
bx 0
b1 /
bx .
0-
bx ,
1+
0*
bx )
0(
x'
0&
1%
0$
bx #
0"
x!
$end
#2000
06
0C
0'
0B
b0 F
b0 E
0!
0D
b0 ,
b0 .
b0 ?
1*
#4000
0*
#6000
1*
#8000
0*
#10000
1B
b1 F
1*
0+
1-
#12000
0*
#14000
0B
b1 E
b0 F
1*
#16000
0*
1(
#18000
1B
b1 F
1*
#20000
0*
#22000
1C
0B
b10 E
b0 F
1*
#24000
0*
#26000
16
0C
1'
1B
b1 F
b0 E
1!
1D
1*
#28000
0*
#30000
0B
b1 ,
b1 .
b1 ?
b1 E
b0 F
b10 /
b1 9
b1 >
1*
#32000
0*
0(
#34000
1B
b11111111111111111111111111111111 :
b1 F
b10 ,
b10 .
b10 ?
b11 /
b10 9
b10 >
1*
#36000
0*
#38000
1C
0B
b11111111111111111111111111111111 :
b11 ,
b11 .
b11 ?
b10 E
b0 F
b100 /
b11 9
b11 >
1*
#40000
0*
#42000
06
0C
0'
1B
b11111111111111111111111111111111 :
b1 F
b0 E
0!
0D
b100 ,
b100 .
b100 ?
b101 /
b100 9
b100 >
1*
#44000
0*
#46000
0B
b11111111111111111111111111111111 :
b1 E
b0 F
1*
#48000
b11111111111111111111111111111111 :
b0 #
b0 0
b0 @
b0 A
0*
1(
#50000
1B
b1 F
1*
#52000
0*
#54000
1C
0B
b10 E
b0 F
1*
#56000
0*
#58000
16
0C
1'
1B
b1 F
b0 E
1!
1D
1*
#60000
0*
#62000
0B
b101 ,
b101 .
b101 ?
b1 E
b0 F
b110 /
b101 9
b101 >
1*
#64000
0*
0(
#66000
1B
b11111111111111111111111111111111 :
b1 F
b110 ,
b110 .
b110 ?
b111 /
b110 9
b110 >
1*
#68000
0*
#70000
1C
0B
b11111111111111111111111111111111 :
b111 ,
b111 .
b111 ?
b10 E
b0 F
b1000 /
b111 9
b111 >
1*
#72000
0*
#74000
06
0C
0'
1B
b11111111111111111111111111111111 :
b1 F
b0 E
0!
0D
b1000 ,
b1000 .
b1000 ?
b1001 /
b1000 9
b1000 >
1*
#76000
0*
#78000
0B
b11111111111111111111111111111111 :
b1 E
b0 F
1*
#80000
14
1&
0%
01
b100 5
b11111111111111111111111111111111 :
0*
1(
#82000
1B
b1 F
1*
#84000
0*
#86000
1C
0B
b10 E
b0 F
1*
#88000
0*
#90000
16
0C
1'
1B
b1 F
b0 E
1!
1D
1*
#92000
0*
#94000
0B
b1001 ,
b1001 .
b1001 ?
b1 E
b0 F
b1010 /
b1001 9
b1001 >
1*
#96000
0*
0(
#98000
1B
b11111111111111111111111111111111 :
b1 F
b1010 ,
b1010 .
b1010 ?
b1011 /
b1010 9
b1010 >
1*
#100000
0*
#102000
1C
0B
b11111111111111111111111111111111 :
b1011 ,
b1011 .
b1011 ?
b10 E
b0 F
b1100 /
b1011 9
b1011 >
1*
#104000
0*
#106000
06
0C
0'
1B
b11111111111111111111111111111111 :
b1 F
b0 E
0!
0D
b1100 ,
b1100 .
b1100 ?
b1101 /
b1100 9
b1100 >
1*
#108000
0*
#110000
0B
b11111111111111111111111111111111 :
b1 E
b0 F
1*
#112000
b1000 5
b11111111111111111111111111111111 :
1"
18
b1 7
b1 =
0*
1(
#114000
1B
b1 F
1*
#116000
0*
#118000
1C
0B
b10 E
b0 F
1*
#120000
0*
#122000
16
0C
1'
1B
b1 F
b0 E
1!
1D
1*
#124000
0*
#126000
0B
b1101 ,
b1101 .
b1101 ?
b1 E
b0 F
b1110 /
b1101 9
b1101 >
1*
#128000
0*
0(
#130000
1B
b11111111111111111111111111111111 :
b1 F
b1110 ,
b1110 .
b1110 ?
b1111 /
b1110 9
b1110 >
1*
#132000
0*
#134000
06
0'
1C
1$
12
0B
b11111111111111111111111111111111 :
b1111 ,
b1111 .
b1111 ?
b10 E
b0 F
b0 /
b1111 9
b1111 >
1*
#136000
0*
#138000
0C
1B
b11111111111111111111111111111111 :
b1 F
b0 E
0!
0D
1*
#140000
0*
#142000
0B
b1 E
b0 F
1*
#144000
b1100 5
b11111111111111111111111111111111 :
b1 #
b1 0
b1 @
b1 A
b0 )
b10 7
b10 =
0*
1(
#146000
1B
b11111111111111111111111111111111 :
b1 F
1*
#148000
0*
#150000
0$
02
1C
b1 3
0B
b11111111111111111111111111111111 :
b10 E
b0 F
1*
#152000
0*
#154000
16
0C
1'
1B
b1 F
b0 E
1!
1D
1*
#156000
0*
#158000
06
0'
1$
12
0B
b10000 ,
b10000 .
b10000 ?
b1 E
b0 F
b1 /
b0 9
b0 >
1*
#160000
0*
0(
#162000
1B
b11111111111111111111111111111111 :
b1 F
1*
#164000
0*
#166000
1C
0B
b10 E
b0 F
1*
#168000
0*
#170000
0C
1B
b1 F
b0 E
0!
0D
1*
#172000
0*
#174000
0B
b1 E
b0 F
1*
#176000
b1111 5
b11111111111111111111111111111111 :
b1 )
b10 #
b10 0
b10 @
b10 A
b11 7
b11 =
0*
1(
#178000
1B
b11111111111111111111111111111111 :
b1 F
1*
#180000
0*
#182000
0$
02
1C
b10 3
0B
b11111111111111111111111111111111 :
b10 E
b0 F
1*
#184000
0*
#186000
16
0C
1'
1B
b1 F
b0 E
1!
1D
1*
#188000
0*
#190000
06
0'
1$
12
0B
b10001 ,
b10001 .
b10001 ?
b1 E
b0 F
b10 /
b1 9
b1 >
1*
#192000
0*
0(
#194000
1B
b11111111111111111111111111111111 :
b1 F
1*
#196000
0*
#198000
1C
0B
b10 E
b0 F
1*
#200000
0*
#202000
0C
1B
b1 F
b0 E
0!
0D
1*
#204000
0*
#206000
0B
b1 E
b0 F
1*
#208000
b0 5
b11111111111111111111111111111111 :
b11 #
b11 0
b11 @
b11 A
b10 )
b100 7
b100 =
0*
1(
#210000
1B
b11111111111111111111111111111111 :
b1 F
1*
#212000
0*
#214000
0$
02
1C
b11 3
0B
b11111111111111111111111111111111 :
b10 E
b0 F
1*
#216000
0*
#218000
16
0C
1'
1B
b1 F
b0 E
1!
1D
1*
#220000
0*
#222000
06
0'
1$
12
0B
b10010 ,
b10010 .
b10010 ?
b1 E
b0 F
b11 /
b10 9
b10 >
1*
#224000
0*
0(
#226000
1B
b11111111111111111111111111111111 :
b1 F
1*
#228000
0*
#230000
1C
0B
b10 E
b0 F
1*
#232000
0*
#234000
0C
1B
b1 F
b0 E
0!
0D
1*
#236000
0*
#238000
0B
b1 E
b0 F
1*
#240000
b1 5
b11111111111111111111111111111111 :
b11 )
b100 #
b100 0
b100 @
b100 A
b101 7
b101 =
0*
1(
#242000
1B
b11111111111111111111111111111111 :
b1 F
1*
#244000
0*
#246000
0$
02
1C
b100 3
0B
b11111111111111111111111111111111 :
b10 E
b0 F
1*
#248000
0*
#250000
16
0C
1'
1B
b1 F
b0 E
1!
1D
1*
#252000
0*
#254000
06
0'
1$
12
0B
b10011 ,
b10011 .
b10011 ?
b1 E
b0 F
b100 /
b11 9
b11 >
1*
#256000
0*
0(
#258000
1B
b11111111111111111111111111111111 :
b1 F
1*
#260000
0*
#262000
1C
0B
b10 E
b0 F
1*
#264000
0*
#266000
0C
1B
b1 F
b0 E
0!
0D
1*
#268000
0*
#270000
0B
b1 E
b0 F
1*
#272000
b10 5
b11111111111111111111111111111111 :
b101 #
b101 0
b101 @
b101 A
b100 )
b110 7
b110 =
0*
1(
#274000
1B
b11111111111111111111111111111111 :
b1 F
1*
#276000
0*
#278000
0$
02
1C
b101 3
0B
b11111111111111111111111111111111 :
b10 E
b0 F
1*
#280000
0*
#282000
16
0C
1'
1B
b1 F
b0 E
1!
1D
1*
#284000
0*
#286000
06
0'
1$
12
0B
b10100 ,
b10100 .
b10100 ?
b1 E
b0 F
b101 /
b100 9
b100 >
1*
#288000
0*
0(
#290000
1B
b11111111111111111111111111111111 :
b1 F
1*
#292000
0*
#294000
1C
0B
b10 E
b0 F
1*
#296000
0*
#298000
0C
1B
b1 F
b0 E
0!
0D
1*
#300000
0*
#302000
0B
b1 E
b0 F
1*
#304000
b11 5
b11111111111111111111111111111111 :
b101 )
b110 #
b110 0
b110 @
b110 A
b111 7
b111 =
0*
1(
#306000
1B
b11111111111111111111111111111111 :
b1 F
1*
#308000
0*
#310000
0$
02
1C
b110 3
0B
b11111111111111111111111111111111 :
b10 E
b0 F
1*
#312000
0*
#314000
16
0C
1'
1B
b1 F
b0 E
1!
1D
1*
#316000
0*
#318000
06
0'
1$
12
0B
b10101 ,
b10101 .
b10101 ?
b1 E
b0 F
b110 /
b101 9
b101 >
1*
#320000
0*
0(
#322000
1B
b11111111111111111111111111111111 :
b1 F
1*
#324000
0*
#326000
1C
0B
b10 E
b0 F
1*
#328000
0*
#330000
0C
1B
b1 F
b0 E
0!
0D
1*
#332000
0*
#334000
0B
b1 E
b0 F
1*
#336000
b100 5
b11111111111111111111111111111111 :
b111 #
b111 0
b111 @
b111 A
b110 )
b1000 7
b1000 =
0*
1(
#338000
1B
b11111111111111111111111111111111 :
b1 F
1*
#340000
0*
#342000
0$
02
1C
b111 3
0B
b11111111111111111111111111111111 :
b10 E
b0 F
1*
#344000
0*
#346000
16
0C
1'
1B
b1 F
b0 E
1!
1D
1*
#348000
0*
#350000
06
0'
1$
12
0B
b10110 ,
b10110 .
b10110 ?
b1 E
b0 F
b111 /
b110 9
b110 >
1*
#352000
0*
0(
#354000
1B
b11111111111111111111111111111111 :
b1 F
1*
#356000
0*
#358000
1C
0B
b10 E
b0 F
1*
#360000
0*
#362000
0C
1B
b1 F
b0 E
0!
0D
1*
#364000
0*
#366000
0B
b1 E
b0 F
1*
#368000
b101 5
b11111111111111111111111111111111 :
b111 )
b1000 #
b1000 0
b1000 @
b1000 A
b1001 7
b1001 =
0*
1(
#370000
1B
b11111111111111111111111111111111 :
b1 F
1*
#372000
0*
#374000
0$
02
1C
b1000 3
0B
b11111111111111111111111111111111 :
b10 E
b0 F
1*
#376000
0*
#378000
16
0C
1'
1B
b1 F
b0 E
1!
1D
1*
#380000
0*
#382000
06
0'
1$
12
0B
b10111 ,
b10111 .
b10111 ?
b1 E
b0 F
b1000 /
b111 9
b111 >
1*
#384000
0*
0(
#386000
1B
b11111111111111111111111111111111 :
b1 F
1*
#388000
0*
#390000
1C
0B
b10 E
b0 F
1*
#392000
0*
#394000
0C
1B
b1 F
b0 E
0!
0D
1*
#396000
0*
#398000
0B
b1 E
b0 F
1*
#400000
b110 5
b11111111111111111111111111111111 :
b1001 #
b1001 0
b1001 @
b1001 A
b1000 )
b1010 7
b1010 =
0*
1(
#402000
1B
b11111111111111111111111111111111 :
b1 F
1*
#404000
0*
#406000
0$
02
1C
b1001 3
0B
b11111111111111111111111111111111 :
b10 E
b0 F
1*
#408000
0*
#410000
16
0C
1'
1B
b1 F
b0 E
1!
1D
1*
#412000
0*
#414000
06
0'
1$
12
0B
b11000 ,
b11000 .
b11000 ?
b1 E
b0 F
b1001 /
b1000 9
b1000 >
1*
#416000
0*
0(
#418000
1B
b11111111111111111111111111111111 :
b1 F
1*
#420000
0*
#422000
1C
0B
b10 E
b0 F
1*
#424000
0*
#426000
0C
1B
b1 F
b0 E
0!
0D
1*
#428000
0*
#430000
0B
b1 E
b0 F
1*
#432000
b111 5
b11111111111111111111111111111111 :
b1001 )
b1010 #
b1010 0
b1010 @
b1010 A
b1011 7
b1011 =
0*
1(
#434000
1B
b11111111111111111111111111111111 :
b1 F
1*
#436000
0*
#438000
0$
02
1C
b1010 3
0B
b11111111111111111111111111111111 :
b10 E
b0 F
1*
#440000
0*
#442000
16
0C
1'
1B
b1 F
b0 E
1!
1D
1*
#444000
0*
#446000
06
0'
1$
12
0B
b11001 ,
b11001 .
b11001 ?
b1 E
b0 F
b1010 /
b1001 9
b1001 >
1*
#448000
0*
0(
#450000
1B
b11111111111111111111111111111111 :
b1 F
1*
#452000
0*
#454000
1C
0B
b10 E
b0 F
1*
#456000
0*
#458000
0C
1B
b1 F
b0 E
0!
0D
1*
#460000
0*
#462000
0B
b1 E
b0 F
1*
#464000
b1000 5
b11111111111111111111111111111111 :
b1011 #
b1011 0
b1011 @
b1011 A
b1010 )
b1100 7
b1100 =
0*
1(
#466000
1B
b11111111111111111111111111111111 :
b1 F
1*
#468000
0*
#470000
0$
02
1C
b1011 3
0B
b11111111111111111111111111111111 :
b10 E
b0 F
1*
#472000
0*
#474000
16
0C
1'
1B
b1 F
b0 E
1!
1D
1*
#476000
0*
#478000
06
0'
1$
12
0B
b11010 ,
b11010 .
b11010 ?
b1 E
b0 F
b1011 /
b1010 9
b1010 >
1*
#480000
0*
0(
#482000
1B
b11111111111111111111111111111111 :
b1 F
1*
#484000
0*
#486000
1C
0B
b10 E
b0 F
1*
#488000
0*
#490000
0C
1B
b1 F
b0 E
0!
0D
1*
#492000
0*
#494000
0B
b1 E
b0 F
1*
#496000
b1001 5
b11111111111111111111111111111111 :
b1011 )
b1100 #
b1100 0
b1100 @
b1100 A
b1101 7
b1101 =
0*
1(
#498000
1B
b11111111111111111111111111111111 :
b1 F
1*
#500000
0*
#502000
0$
02
1C
b1100 3
0B
b11111111111111111111111111111111 :
b10 E
b0 F
1*
#504000
0*
#506000
16
0C
1'
1B
b1 F
b0 E
1!
1D
1*
#508000
0*
#510000
06
0'
1$
12
0B
b11011 ,
b11011 .
b11011 ?
b1 E
b0 F
b1100 /
b1011 9
b1011 >
1*
#512000
0*
0(
#514000
1B
b11111111111111111111111111111111 :
b1 F
1*
#516000
0*
#518000
1C
0B
b10 E
b0 F
1*
#520000
0*
#522000
0C
1B
b1 F
b0 E
0!
0D
1*
#524000
0*
#526000
0B
b1 E
b0 F
1*
#528000
b1010 5
b11111111111111111111111111111111 :
b1101 #
b1101 0
b1101 @
b1101 A
b1100 )
b1110 7
b1110 =
0*
1(
#530000
1B
b11111111111111111111111111111111 :
b1 F
1*
#532000
0*
#534000
0$
02
1C
b1101 3
0B
b11111111111111111111111111111111 :
b10 E
b0 F
1*
#536000
0*
#538000
16
0C
1'
1B
b1 F
b0 E
1!
1D
1*
#540000
0*
#542000
06
0'
1$
12
0B
b11100 ,
b11100 .
b11100 ?
b1 E
b0 F
b1101 /
b1100 9
b1100 >
1*
#544000
0*
0(
#546000
1B
b11111111111111111111111111111111 :
b1 F
1*
#548000
0*
#550000
1C
0B
b10 E
b0 F
1*
#552000
0*
#554000
0C
1B
b1 F
b0 E
0!
0D
1*
#556000
0*
#558000
0B
b1 E
b0 F
1*
#560000
b1011 5
b11111111111111111111111111111111 :
b1101 )
b1110 #
b1110 0
b1110 @
b1110 A
b1111 7
b1111 =
0*
1(
#562000
1B
b11111111111111111111111111111111 :
b1 F
1*
#564000
0*
#566000
0$
02
1C
b1110 3
0B
b11111111111111111111111111111111 :
b10 E
b0 F
1*
#568000
0*
#570000
16
0C
1'
1B
b1 F
b0 E
1!
1D
1*
#572000
0*
#574000
06
0'
1$
12
0B
b11101 ,
b11101 .
b11101 ?
b1 E
b0 F
b1110 /
b1101 9
b1101 >
1*
#576000
0*
0(
#578000
1B
b11111111111111111111111111111111 :
b1 F
1*
#580000
0*
#582000
1C
0B
b10 E
b0 F
1*
#584000
0*
#586000
0C
1B
b1 F
b0 E
0!
0D
1*
#588000
0*
#590000
0B
b1 E
b0 F
1*
#592000
b1100 5
b11111111111111111111111111111111 :
b1111 #
b1111 0
b1111 @
b1111 A
b1110 )
b0 7
b0 =
0*
1(
#594000
1B
b11111111111111111111111111111111 :
b1 F
1*
#596000
0*
#598000
0$
02
1C
b1111 3
0B
b11111111111111111111111111111111 :
b10 E
b0 F
1*
#600000
0*
#602000
16
0C
1'
1B
b1 F
b0 E
1!
1D
1*
#604000
0*
#606000
06
0'
1$
12
0B
b11110 ,
b11110 .
b11110 ?
b1 E
b0 F
b1111 /
b1110 9
b1110 >
1*
#608000
0*
0(
#610000
1B
b11111111111111111111111111111111 :
b1 F
1*
#612000
0*
#614000
1C
0B
b10 E
b0 F
1*
#616000
0*
#618000
0C
1B
b1 F
b0 E
0!
0D
1*
#620000
0*
#622000
0B
b1 E
b0 F
1*
#624000
b1101 5
b11111111111111111111111111111111 :
b1111 )
b10000 #
b10000 0
b10000 @
b10000 A
b1 7
b1 =
0*
1(
#626000
1B
b11111111111111111111111111111111 :
b1 F
1*
#628000
0*
#630000
0$
02
1C
b0 3
0B
b11111111111111111111111111111111 :
b10 E
b0 F
1*
#632000
0*
#634000
16
0C
1'
1B
b1 F
b0 E
1!
1D
1*
#636000
0*
#638000
06
0'
1$
12
0B
b11111 ,
b11111 .
b11111 ?
b1 E
b0 F
b0 /
b1111 9
b1111 >
1*
#640000
0*
0(
#642000
1B
b11111111111111111111111111111111 :
b1 F
1*
#644000
0*
#646000
1C
0B
b10 E
b0 F
1*
#648000
0*
#650000
0C
1B
b1 F
b0 E
0!
0D
1*
#652000
0*
#654000
0B
b1 E
b0 F
1*
#656000
b1110 5
b11111111111111111111111111111111 :
b10001 #
b10001 0
b10001 @
b10001 A
b10000 )
b10 7
b10 =
0*
1(
#658000
1B
b11111111111111111111111111111111 :
b1 F
1*
#660000
0*
#662000
0$
02
1C
b1 3
0B
b11111111111111111111111111111111 :
b10 E
b0 F
1*
#664000
0*
#666000
16
0C
1'
1B
b1 F
b0 E
1!
1D
1*
#668000
0*
#670000
06
0'
1$
12
0B
b100000 ,
b100000 .
b100000 ?
b1 E
b0 F
b1 /
b0 9
b0 >
1*
#672000
0*
0(
#674000
1B
b11111111111111111111111111111111 :
b1 F
1*
#676000
0*
#678000
1C
0B
b10 E
b0 F
1*
#680000
0*
#682000
0C
1B
b1 F
b0 E
0!
0D
1*
#684000
0*
#686000
0B
b1 E
b0 F
1*
#688000
b1111 5
b11111111111111111111111111111111 :
b10001 )
b10010 #
b10010 0
b10010 @
b10010 A
b11 7
b11 =
0*
1(
#690000
1B
b11111111111111111111111111111111 :
b1 F
1*
#692000
0*
#694000
0$
02
1C
b10 3
0B
b11111111111111111111111111111111 :
b10 E
b0 F
1*
#696000
0*
#698000
16
0C
1'
1B
b1 F
b0 E
1!
1D
1*
#700000
0*
#702000
06
0'
1$
12
0B
b100001 ,
b100001 .
b100001 ?
b1 E
b0 F
b10 /
b1 9
b1 >
1*
#704000
0*
0(
#706000
1B
b11111111111111111111111111111111 :
b1 F
1*
#708000
0*
#710000
1C
0B
b10 E
b0 F
1*
#712000
0*
#714000
0C
1B
b1 F
b0 E
0!
0D
1*
#716000
0*
#718000
0B
b1 E
b0 F
1*
#720000
b0 5
b11111111111111111111111111111111 :
b10011 #
b10011 0
b10011 @
b10011 A
b10010 )
b100 7
b100 =
0*
1(
#722000
1B
b11111111111111111111111111111111 :
b1 F
1*
#724000
0*
#726000
0$
02
1C
b11 3
0B
b11111111111111111111111111111111 :
b10 E
b0 F
1*
#728000
0*
#730000
16
0C
1'
1B
b1 F
b0 E
1!
1D
1*
#732000
0*
#734000
06
0'
1$
12
0B
b100010 ,
b100010 .
b100010 ?
b1 E
b0 F
b11 /
b10 9
b10 >
1*
#736000
0*
0(
#738000
1B
b11111111111111111111111111111111 :
b1 F
1*
#740000
0*
#742000
1C
0B
b10 E
b0 F
1*
#744000
0*
#746000
0C
1B
b1 F
b0 E
0!
0D
1*
#748000
0*
#750000
0B
b1 E
b0 F
1*
#752000
b1 5
b11111111111111111111111111111111 :
b10011 )
b10100 #
b10100 0
b10100 @
b10100 A
b101 7
b101 =
0*
1(
#754000
1B
b11111111111111111111111111111111 :
b1 F
1*
#756000
0*
#758000
0$
02
1C
b100 3
0B
b11111111111111111111111111111111 :
b10 E
b0 F
1*
#760000
0*
#762000
16
0C
1'
1B
b1 F
b0 E
1!
1D
1*
#764000
0*
#766000
06
0'
1$
12
0B
b100011 ,
b100011 .
b100011 ?
b1 E
b0 F
b100 /
b11 9
b11 >
1*
#768000
0*
0(
#770000
1B
b11111111111111111111111111111111 :
b1 F
1*
#772000
0*
#774000
1C
0B
b10 E
b0 F
1*
#776000
0*
#778000
0C
1B
b1 F
b0 E
0!
0D
1*
#780000
0*
#782000
0B
b1 E
b0 F
1*
#784000
b10 5
b11111111111111111111111111111111 :
b10101 #
b10101 0
b10101 @
b10101 A
b10100 )
b110 7
b110 =
0*
1(
#786000
1B
b11111111111111111111111111111111 :
b1 F
1*
#788000
0*
#790000
0$
02
1C
b101 3
0B
b11111111111111111111111111111111 :
b10 E
b0 F
1*
#792000
0*
#794000
16
0C
1'
1B
b1 F
b0 E
1!
1D
1*
#796000
0*
#798000
06
0'
1$
12
0B
b100100 ,
b100100 .
b100100 ?
b1 E
b0 F
b101 /
b100 9
b100 >
1*
#800000
0*
0(
#802000
1B
b11111111111111111111111111111111 :
b1 F
1*
#804000
0*
#806000
1C
0B
b10 E
b0 F
1*
#808000
0*
#810000
0C
1B
b1 F
b0 E
0!
0D
1*
#812000
0*
#814000
0B
b1 E
b0 F
1*
#816000
b11 5
b11111111111111111111111111111111 :
b10101 )
b10110 #
b10110 0
b10110 @
b10110 A
b111 7
b111 =
0*
1(
#818000
1B
b11111111111111111111111111111111 :
b1 F
1*
#820000
0*
#822000
0$
02
1C
b110 3
0B
b11111111111111111111111111111111 :
b10 E
b0 F
1*
#824000
0*
#826000
16
0C
1'
1B
b1 F
b0 E
1!
1D
1*
#828000
0*
#830000
06
0'
1$
12
0B
b100101 ,
b100101 .
b100101 ?
b1 E
b0 F
b110 /
b101 9
b101 >
1*
#832000
0*
0(
#834000
1B
b11111111111111111111111111111111 :
b1 F
1*
#836000
0*
#838000
1C
0B
b10 E
b0 F
1*
#840000
0*
#842000
0C
1B
b1 F
b0 E
0!
0D
1*
#844000
0*
#846000
0B
b1 E
b0 F
1*
#848000
b100 5
b11111111111111111111111111111111 :
b10111 #
b10111 0
b10111 @
b10111 A
b10110 )
b1000 7
b1000 =
0*
1(
#850000
1B
b11111111111111111111111111111111 :
b1 F
1*
#852000
0*
#854000
0$
02
1C
b111 3
0B
b11111111111111111111111111111111 :
b10 E
b0 F
1*
#856000
0*
#858000
16
0C
1'
1B
b1 F
b0 E
1!
1D
1*
#860000
0*
#862000
06
0'
1$
12
0B
b100110 ,
b100110 .
b100110 ?
b1 E
b0 F
b111 /
b110 9
b110 >
1*
#864000
0*
0(
#866000
1B
b11111111111111111111111111111111 :
b1 F
1*
#868000
0*
#870000
1C
0B
b10 E
b0 F
1*
#872000
0*
#874000
0C
1B
b1 F
b0 E
0!
0D
1*
#876000
0*
#878000
0B
b1 E
b0 F
1*
#880000
b101 5
b11111111111111111111111111111111 :
b10111 )
b11000 #
b11000 0
b11000 @
b11000 A
b1001 7
b1001 =
0*
1(
#882000
1B
b11111111111111111111111111111111 :
b1 F
1*
#884000
0*
#886000
0$
02
1C
b1000 3
0B
b11111111111111111111111111111111 :
b10 E
b0 F
1*
#888000
0*
#890000
16
0C
1'
1B
b1 F
b0 E
1!
1D
1*
#892000
0*
#894000
06
0'
1$
12
0B
b100111 ,
b100111 .
b100111 ?
b1 E
b0 F
b1000 /
b111 9
b111 >
1*
#896000
0*
0(
#898000
1B
b11111111111111111111111111111111 :
b1 F
1*
#900000
0*
#902000
1C
0B
b10 E
b0 F
1*
#904000
0*
#906000
0C
1B
b1 F
b0 E
0!
0D
1*
#908000
0*
#910000
0B
b1 E
b0 F
1*
#912000
b110 5
b11111111111111111111111111111111 :
b11001 #
b11001 0
b11001 @
b11001 A
b11000 )
b1010 7
b1010 =
0*
1(
#914000
1B
b11111111111111111111111111111111 :
b1 F
1*
#916000
0*
#918000
0$
02
1C
b1001 3
0B
b11111111111111111111111111111111 :
b10 E
b0 F
1*
#920000
0*
#922000
16
0C
1'
1B
b1 F
b0 E
1!
1D
1*
#924000
0*
#926000
06
0'
1$
12
0B
b101000 ,
b101000 .
b101000 ?
b1 E
b0 F
b1001 /
b1000 9
b1000 >
1*
#928000
0*
0(
#930000
1B
b11111111111111111111111111111111 :
b1 F
1*
#932000
0*
#934000
1C
0B
b10 E
b0 F
1*
#936000
0*
#938000
0C
1B
b1 F
b0 E
0!
0D
1*
#940000
0*
#942000
0B
b1 E
b0 F
1*
#944000
b111 5
b11111111111111111111111111111111 :
b11001 )
b11010 #
b11010 0
b11010 @
b11010 A
b1011 7
b1011 =
0*
1(
#946000
1B
b11111111111111111111111111111111 :
b1 F
1*
#948000
0*
#950000
0$
02
1C
b1010 3
0B
b11111111111111111111111111111111 :
b10 E
b0 F
1*
#952000
0*
#954000
16
0C
1'
1B
b1 F
b0 E
1!
1D
1*
#956000
0*
#958000
06
0'
1$
12
0B
b101001 ,
b101001 .
b101001 ?
b1 E
b0 F
b1010 /
b1001 9
b1001 >
1*
#960000
0*
0(
#962000
1B
b11111111111111111111111111111111 :
b1 F
1*
#964000
0*
#966000
1C
0B
b10 E
b0 F
1*
#968000
0*
#970000
0C
1B
b1 F
b0 E
0!
0D
1*
#972000
0*
#974000
0B
b1 E
b0 F
1*
#976000
b1000 5
b11111111111111111111111111111111 :
b11011 #
b11011 0
b11011 @
b11011 A
b11010 )
b1100 7
b1100 =
0*
1(
#978000
1B
b11111111111111111111111111111111 :
b1 F
1*
#980000
0*
#982000
0$
02
1C
b1011 3
0B
b11111111111111111111111111111111 :
b10 E
b0 F
1*
#984000
0*
#986000
16
0C
1'
1B
b1 F
b0 E
1!
1D
1*
#988000
0*
#990000
06
0'
1$
12
0B
b101010 ,
b101010 .
b101010 ?
b1 E
b0 F
b1011 /
b1010 9
b1010 >
1*
#992000
0*
0(
#994000
1B
b11111111111111111111111111111111 :
b1 F
1*
#996000
0*
#998000
1C
0B
b10 E
b0 F
1*
#1000000
0*
#1002000
0C
1B
b1 F
b0 E
0!
0D
1*
#1004000
0*
#1006000
0B
b1 E
b0 F
1*
#1008000
b1001 5
b11111111111111111111111111111111 :
b11011 )
b11100 #
b11100 0
b11100 @
b11100 A
b1101 7
b1101 =
0*
1(
#1010000
1B
b11111111111111111111111111111111 :
b1 F
1*
#1012000
0*
#1014000
0$
02
1C
b1100 3
0B
b11111111111111111111111111111111 :
b10 E
b0 F
1*
#1016000
0*
#1018000
16
0C
1'
1B
b1 F
b0 E
1!
1D
1*
#1020000
0*
#1022000
06
0'
1$
12
0B
b101011 ,
b101011 .
b101011 ?
b1 E
b0 F
b1100 /
b1011 9
b1011 >
1*
#1024000
0*
0(
#1026000
1B
b11111111111111111111111111111111 :
b1 F
1*
#1028000
0*
#1030000
1C
0B
b10 E
b0 F
1*
#1032000
0*
#1034000
0C
1B
b1 F
b0 E
0!
0D
1*
#1036000
0*
#1038000
0B
b1 E
b0 F
1*
#1040000
b1010 5
b11111111111111111111111111111111 :
b11101 #
b11101 0
b11101 @
b11101 A
b11100 )
b1110 7
b1110 =
0*
1(
#1042000
1B
b11111111111111111111111111111111 :
b1 F
1*
#1044000
0*
#1046000
0$
02
1C
b1101 3
0B
b11111111111111111111111111111111 :
b10 E
b0 F
1*
#1048000
0*
#1050000
16
0C
1'
1B
b1 F
b0 E
1!
1D
1*
#1052000
0*
#1054000
06
0'
1$
12
0B
b101100 ,
b101100 .
b101100 ?
b1 E
b0 F
b1101 /
b1100 9
b1100 >
1*
#1056000
0*
0(
#1058000
1B
b11111111111111111111111111111111 :
b1 F
1*
#1060000
0*
#1062000
1C
0B
b10 E
b0 F
1*
#1064000
0*
