Efinix/Trion/K5Stack10_MIDI/src/UltraFastInterfaceBus/sim/UFIB_tb.vcd
$date
	Sat Jul 22 13:55:25 2023
$end
$version
	Icarus Verilog
$end
$timescale
	1ps
$end
$scope module UFIB_tb $end
$var wire 32 ! wSUsiRd [31:0] $end
$var wire 16 " wWd [15:0] $end
$var wire 16 # wSUfiWd [15:0] $end
$var wire 32 $ wSUfiWAdrs [31:0] $end
$var wire 1 % wSUfiRdy $end
$var wire 16 & wSUfiRd [15:0] $end
$var wire 32 ' wSUfiAdrs [31:0] $end
$var wire 3 ( wMUfiRdy [2:0] $end
$var wire 16 ) wMUfiRd [15:0] $end
$var wire 32 * wMUfiAdrs [31:0] $end
$var wire 1 + wCmd $end
$var wire 1 , wCe $end
$var wire 5 - wAdrs [4:0] $end
$var reg 96 . qMUfiWAdrs [95:0] $end
$var reg 48 / qMUfiWd [47:0] $end
$var reg 1 0 qMemWEd $end
$var reg 16 1 qRd [15:0] $end
$var reg 32 2 rSUsiAdrs [31:0] $end
$var reg 32 3 rSUsiWd [31:0] $end
$var reg 1 4 wSCLK $end
$var reg 1 5 wSRST $end
$var reg 1 6 wnSRST $end
$scope function f_detect_bitwidth $end
$var integer 32 7 bitcnt [31:0] $end
$var integer 32 8 bitwidth [31:0] $end
$var integer 32 9 i [31:0] $end
$var integer 32 : number [31:0] $end
$upscope $end
$scope begin genblk1[0] $end
$upscope $end
$scope begin genblk1[1] $end
$upscope $end
$scope begin genblk1[2] $end
$upscope $end
$scope begin genblk2[0] $end
$scope module UfibReadWriteTester $end
$var wire 1 4 iCLK $end
$var wire 32 ; iMUfiAdrs [31:0] $end
$var wire 16 < iMUfiRd [15:0] $end
$var wire 1 = iMUfiRdy $end
$var wire 1 5 iRST $end
$var wire 1 6 inRST $end
$var wire 1 > wSfcRvd $end
$var wire 48 ? wSfcRd [47:0] $end
$var wire 1 @ wSfcFull $end
$var wire 1 A wSfcEmp $end
$var wire 1 B wBurstRun $end
$var wire 16 C oMUfiWd [15:0] $end
$var wire 32 D oMUfiAdrs [31:0] $end
$var reg 1 E qBurstCntCke $end
$var reg 1 F qPdgCke $end
$var reg 1 G qSfcRe $end
$var reg 48 H qSfcWd [47:0] $end
$var reg 1 I qSfcWe $end
$var reg 5 J rPdgWAdrs [4:0] $end
$var reg 16 K rPdgWd [15:0] $end
$scope module SyncFifoController $end
$var wire 1 4 iCLK $end
$var wire 1 G iRe $end
$var wire 48 L iWd [47:0] $end
$var wire 1 I iWe $end
$var wire 1 6 inARST $end
$var wire 1 A oEmp $end
$var wire 1 @ oFull $end
$var wire 8 M wWa [7:0] $end
$var wire 1 > oRvd $end
$var wire 48 N oRd [47:0] $end
$var reg 1 O qEmp $end
$var reg 1 P qFull $end
$var reg 1 Q qRe $end
$var reg 1 R qWe $end
$var reg 8 S rRa [7:0] $end
$var reg 1 > rRe $end
$var reg 8 T rWa [7:0] $end
$scope function fBitWidth $end
$var reg 32 U iVAL [31:0] $end
$var integer 32 V i [31:0] $end
$upscope $end
$scope module DualPortBramTrion $end
$var wire 1 4 iCLK $end
$var wire 8 W iRa [7:0] $end
$var wire 8 X iWa [7:0] $end
$var wire 48 Y iWd [47:0] $end
$var wire 1 R iWe $end
$var wire 48 Z oRd [47:0] $end
$var reg 48 [ rRd [47:0] $end
$var integer 32 \ x_ini [31:0] $end
$upscope $end
$upscope $end
$scope module UfibBurstCnt $end
$var wire 1 E iCKE $end
$var wire 1 4 iCLK $end
$var wire 1 5 iRST $end
$var wire 1 B oBurstRun $end
$var reg 1 ] qBurstCntCke $end
$var reg 1 ^ qBurstRunCke $end
$var reg 1 _ qBurstWaitCntCke $end
$var reg 5 ` rBurstCnt [4:0] $end
$var reg 1 a rBurstRun $end
$var reg 3 b rBurstWaitCnt [2:0] $end
$scope function f_detect_bitwidth $end
$var integer 32 c bitcnt [31:0] $end
$var integer 32 d bitwidth [31:0] $end
$var integer 32 e i [31:0] $end
$var integer 32 f number [31:0] $end
$upscope $end
$upscope $end
$upscope $end
$upscope $end
$scope begin genblk2[1] $end
$scope module UfibReadWriteTester $end
$var wire 1 4 iCLK $end
$var wire 32 g iMUfiAdrs [31:0] $end
$var wire 16 h iMUfiRd [15:0] $end
$var wire 1 i iMUfiRdy $end
$var wire 1 5 iRST $end
$var wire 1 6 inRST $end
$var wire 1 j wSfcRvd $end
$var wire 48 k wSfcRd [47:0] $end
$var wire 1 l wSfcFull $end
$var wire 1 m wSfcEmp $end
$var wire 1 n wBurstRun $end
$var wire 16 o oMUfiWd [15:0] $end
$var wire 32 p oMUfiAdrs [31:0] $end
$var reg 1 q qBurstCntCke $end
$var reg 1 r qPdgCke $end
$var reg 1 s qSfcRe $end
$var reg 48 t qSfcWd [47:0] $end
$var reg 1 u qSfcWe $end
$var reg 5 v rPdgWAdrs [4:0] $end
$var reg 16 w rPdgWd [15:0] $end
$scope module SyncFifoController $end
$var wire 1 4 iCLK $end
$var wire 1 s iRe $end
$var wire 48 x iWd [47:0] $end
$var wire 1 u iWe $end
$var wire 1 6 inARST $end
$var wire 1 m oEmp $end
$var wire 1 l oFull $end
$var wire 8 y wWa [7:0] $end
$var wire 1 j oRvd $end
$var wire 48 z oRd [47:0] $end
$var reg 1 { qEmp $end
$var reg 1 | qFull $end
$var reg 1 } qRe $end
$var reg 1 ~ qWe $end
$var reg 8 !" rRa [7:0] $end
$var reg 1 j rRe $end
$var reg 8 "" rWa [7:0] $end
$scope function fBitWidth $end
$var reg 32 #" iVAL [31:0] $end
$var integer 32 $" i [31:0] $end
$upscope $end
$scope module DualPortBramTrion $end
$var wire 1 4 iCLK $end
$var wire 8 %" iRa [7:0] $end
$var wire 8 &" iWa [7:0] $end
$var wire 48 '" iWd [47:0] $end
$var wire 1 ~ iWe $end
$var wire 48 (" oRd [47:0] $end
$var reg 48 )" rRd [47:0] $end
$var integer 32 *" x_ini [31:0] $end
$upscope $end
$upscope $end
$scope module UfibBurstCnt $end
$var wire 1 q iCKE $end
$var wire 1 4 iCLK $end
$var wire 1 5 iRST $end
$var wire 1 n oBurstRun $end
$var reg 1 +" qBurstCntCke $end
$var reg 1 ," qBurstRunCke $end
$var reg 1 -" qBurstWaitCntCke $end
$var reg 5 ." rBurstCnt [4:0] $end
$var reg 1 /" rBurstRun $end
$var reg 3 0" rBurstWaitCnt [2:0] $end
$scope function f_detect_bitwidth $end
$var integer 32 1" bitcnt [31:0] $end
$var integer 32 2" bitwidth [31:0] $end
$var integer 32 3" i [31:0] $end
$var integer 32 4" number [31:0] $end
$upscope $end
$upscope $end
$upscope $end
$upscope $end
$scope begin genblk2[2] $end
$scope module UfibReadWriteTester $end
$var wire 1 4 iCLK $end
$var wire 32 5" iMUfiAdrs [31:0] $end
$var wire 16 6" iMUfiRd [15:0] $end
$var wire 1 7" iMUfiRdy $end
$var wire 1 5 iRST $end
$var wire 1 6 inRST $end
$var wire 1 8" wSfcRvd $end
$var wire 48 9" wSfcRd [47:0] $end
$var wire 1 :" wSfcFull $end
$var wire 1 ;" wSfcEmp $end
$var wire 1 <" wBurstRun $end
$var wire 16 =" oMUfiWd [15:0] $end
$var wire 32 >" oMUfiAdrs [31:0] $end
$var reg 1 ?" qBurstCntCke $end
$var reg 1 @" qPdgCke $end
$var reg 1 A" qSfcRe $end
$var reg 48 B" qSfcWd [47:0] $end
$var reg 1 C" qSfcWe $end
$var reg 5 D" rPdgWAdrs [4:0] $end
$var reg 16 E" rPdgWd [15:0] $end
$scope module SyncFifoController $end
$var wire 1 4 iCLK $end
$var wire 1 A" iRe $end
$var wire 48 F" iWd [47:0] $end
$var wire 1 C" iWe $end
$var wire 1 6 inARST $end
$var wire 1 ;" oEmp $end
$var wire 1 :" oFull $end
$var wire 8 G" wWa [7:0] $end
$var wire 1 8" oRvd $end
$var wire 48 H" oRd [47:0] $end
$var reg 1 I" qEmp $end
$var reg 1 J" qFull $end
$var reg 1 K" qRe $end
$var reg 1 L" qWe $end
$var reg 8 M" rRa [7:0] $end
$var reg 1 8" rRe $end
$var reg 8 N" rWa [7:0] $end
$scope function fBitWidth $end
$var reg 32 O" iVAL [31:0] $end
$var integer 32 P" i [31:0] $end
$upscope $end
$scope module DualPortBramTrion $end
$var wire 1 4 iCLK $end
$var wire 8 Q" iRa [7:0] $end
$var wire 8 R" iWa [7:0] $end
$var wire 48 S" iWd [47:0] $end
$var wire 1 L" iWe $end
$var wire 48 T" oRd [47:0] $end
$var reg 48 U" rRd [47:0] $end
$var integer 32 V" x_ini [31:0] $end
$upscope $end
$upscope $end
$scope module UfibBurstCnt $end
$var wire 1 ?" iCKE $end
$var wire 1 4 iCLK $end
$var wire 1 5 iRST $end
$var wire 1 <" oBurstRun $end
$var reg 1 W" qBurstCntCke $end
$var reg 1 X" qBurstRunCke $end
$var reg 1 Y" qBurstWaitCntCke $end
$var reg 5 Z" rBurstCnt [4:0] $end
$var reg 1 [" rBurstRun $end
$var reg 3 \" rBurstWaitCnt [2:0] $end
$scope function f_detect_bitwidth $end
$var integer 32 ]" bitcnt [31:0] $end
$var integer 32 ^" bitwidth [31:0] $end
$var integer 32 _" i [31:0] $end
$var integer 32 `" number [31:0] $end
$upscope $end
$upscope $end
$upscope $end
$upscope $end
$scope module RAMBlock $end
$var wire 1 4 iSCLK $end
$var wire 16 a" iSRAMD [15:0] $end
$var wire 1 5 iSRST $end
$var wire 32 b" iSUsiAdrs [31:0] $end
$var wire 32 c" iSUsiWd [31:0] $end
$var wire 1 6 inSRST $end
$var wire 1 d" oDone $end
$var wire 1 e" oSRAM_LB $end
$var wire 1 f" oSRAM_UB $end
$var wire 1 g" oTestErr $end
$var wire 16 h" wRamIfPortUnitWd [15:0] $end
$var wire 1 i" wRamIfPortUnitRvd $end
$var wire 16 j" wRamIfPortUnitRd [15:0] $end
$var wire 32 k" wRamIfPortUnitAdrs [31:0] $end
$var wire 1 l" wCsrRamRst $end
$var wire 32 m" oSUsiRd [31:0] $end
$var wire 1 % oSUfiRdy $end
$var wire 16 n" oSUfiRd [15:0] $end
$var wire 32 o" oSUfiAdrs [31:0] $end
$var wire 1 + oSRAM_WE $end
$var wire 1 p" oSRAM_OE $end
$var wire 1 , oSRAM_CE $end
$var wire 16 q" oSRAMD [15:0] $end
$var wire 5 r" oSRAMA [4:0] $end
$var wire 16 s" iSUfiWd [15:0] $end
$var wire 32 t" iSUfiAdrs [31:0] $end
$var reg 16 u" qMemRdCsr [15:0] $end
$var reg 5 v" qRamIfPortUnitAdrs [4:0] $end
$var reg 1 w" qRamIfPortUnitCke $end
$var reg 1 x" qRamIfPortUnitCmd $end
$var reg 16 y" qRamIfPortUnitWd [15:0] $end
$scope module RAMIfPortUnit $end
$var wire 5 z" iAdrs [4:0] $end
$var wire 1 w" iCKE $end
$var wire 1 4 iCLK $end
$var wire 1 x" iCmd $end
$var wire 1 5 iRST $end
$var wire 16 {" iSRAMD [15:0] $end
$var wire 16 |" iWd [15:0] $end
$var wire 16 }" oRd [15:0] $end
$var wire 1 i" oRvd $end
$var wire 5 ~" oSRAMA [4:0] $end
$var wire 16 !# oSRAMD [15:0] $end
$var wire 1 , oSRAM_CE $end
$var wire 1 e" oSRAM_LB $end
$var wire 1 p" oSRAM_OE $end
$var wire 1 f" oSRAM_UB $end
$var wire 1 + oSRAM_WE $end
$var reg 5 "# rAdrs [4:0] $end
$var reg 1 ## rCE $end
$var reg 1 $# rOE $end
$var reg 16 %# rRd [15:0] $end
$var reg 1 &# rRvd $end
$var reg 1 '# rWE $end
$var reg 16 (# rWd [15:0] $end
$upscope $end
$scope module RamCsr $end
$var wire 16 )# iMemRd [15:0] $end
$var wire 1 4 iSCLK $end
$var wire 1 5 iSRST $end
$var wire 32 *# iSUsiAdrs [31:0] $end
$var wire 32 +# iSUsiWd [31:0] $end
$var wire 1 l" oRamRst $end
$var wire 32 ,# oSUsiRd [31:0] $end
$var reg 1 -# qCsrWCke00 $end
$var reg 16 .# rMemRd [15:0] $end
$var reg 1 /# rRamRst $end
$var reg 32 0# rSUsiRd [31:0] $end
$upscope $end
$scope module RamReadWriteArbiter $end
$var wire 1 4 iCLK $end
$var wire 1 5 iRST $end
$var wire 16 1# iRamIfPortUnitDq [15:0] $end
$var wire 1 i" iRamIfPortUnitWe $end
$var wire 1 6 inARST $end
$var wire 2 2# wFifoWriteFull [1:0] $end
$var wire 1 3# wFifoWriteEmp $end
$var wire 2 4# wFifoReadFull [1:0] $end
$var wire 1 5# wFifoReadEmp $end
$var wire 1 6# wDqReadFifoRvd $end
$var wire 32 7# wAdrsReadFifoRd [31:0] $end
$var wire 1 % oSUfiRdy $end
$var wire 16 8# oSUfiRd [15:0] $end
$var wire 32 9# oSUfiAdrs [31:0] $end
$var wire 16 :# oRamIfPortUnitWd [15:0] $end
$var wire 32 ;# oRamIfPortUnitAdrs [31:0] $end
$var wire 16 <# iSUfiWd [15:0] $end
$var wire 32 =# iSUfiAdrs [31:0] $end
$var reg 1 ># qAdrsReadFifoRe $end
$var reg 1 ?# qAdrsReadFifoWe $end
$var reg 1 @# qFifoWriteRe $end
$scope module AdrsReadSyncFifoController $end
$var wire 1 4 iCLK $end
$var wire 1 ># iRe $end
$var wire 1 ?# iWe $end
$var wire 1 6 inARST $end
$var wire 1 A# oEmp $end
$var wire 1 B# oRvd $end
$var wire 8 C# wWa [7:0] $end
$var wire 32 D# oRd [31:0] $end
$var wire 1 E# oFull $end
$var wire 32 F# iWd [31:0] $end
$var reg 1 G# qEmp $end
$var reg 1 E# qFull $end
$var reg 1 H# qRe $end
$var reg 1 I# qWe $end
$var reg 8 J# rRa [7:0] $end
$var reg 1 K# rRe $end
$var reg 8 L# rWa [7:0] $end
$scope function fBitWidth $end
$var reg 32 M# iVAL [31:0] $end
$var integer 32 N# i [31:0] $end
$upscope $end
$scope module DualPortBramTrion $end
$var wire 1 4 iCLK $end
$var wire 8 O# iRa [7:0] $end
$var wire 8 P# iWa [7:0] $end
$var wire 1 I# iWe $end
$var wire 32 Q# oRd [31:0] $end
$var wire 32 R# iWd [31:0] $end
$var reg 32 S# rRd [31:0] $end
$var integer 32 T# x_ini [31:0] $end
$upscope $end
$upscope $end
$scope module AdrsWriteSyncFifoController $end
$var wire 1 4 iCLK $end
$var wire 1 @# iRe $end
$var wire 1 U# iWe $end
$var wire 1 6 inARST $end
$var wire 1 V# oEmp $end
$var wire 8 W# wWa [7:0] $end
$var wire 1 X# oRvd $end
$var wire 32 Y# oRd [31:0] $end
$var wire 1 Z# oFull $end
$var wire 32 [# iWd [31:0] $end
$var reg 1 \# qEmp $end
$var reg 1 Z# qFull $end
$var reg 1 ]# qRe $end
$var reg 1 ^# qWe $end
$var reg 8 _# rRa [7:0] $end
$var reg 1 X# rRe $end
$var reg 8 `# rWa [7:0] $end
$scope function fBitWidth $end
$var reg 32 a# iVAL [31:0] $end
$var integer 32 b# i [31:0] $end
$upscope $end
$scope module DualPortBramTrion $end
$var wire 1 4 iCLK $end
$var wire 8 c# iRa [7:0] $end
$var wire 8 d# iWa [7:0] $end
$var wire 1 ^# iWe $end
$var wire 32 e# oRd [31:0] $end
$var wire 32 f# iWd [31:0] $end
$var reg 32 g# rRd [31:0] $end
$var integer 32 h# x_ini [31:0] $end
$upscope $end
$upscope $end
$scope module DqReadSyncFifoController $end
$var wire 1 4 iCLK $end
$var wire 1 ># iRe $end
$var wire 16 i# iWd [15:0] $end
$var wire 1 i" iWe $end
$var wire 1 6 inARST $end
$var wire 1 5# oEmp $end
$var wire 8 j# wWa [7:0] $end
$var wire 1 6# oRvd $end
$var wire 16 k# oRd [15:0] $end
$var wire 1 l# oFull $end
$var reg 1 m# qEmp $end
$var reg 1 l# qFull $end
$var reg 1 n# qRe $end
$var reg 1 o# qWe $end
$var reg 8 p# rRa [7:0] $end
$var reg 1 6# rRe $end
$var reg 8 q# rWa [7:0] $end
$scope function fBitWidth $end
$var reg 32 r# iVAL [31:0] $end
$var integer 32 s# i [31:0] $end
$upscope $end
$scope module DualPortBramTrion $end
$var wire 1 4 iCLK $end
$var wire 8 t# iRa [7:0] $end
$var wire 8 u# iWa [7:0] $end
$var wire 16 v# iWd [15:0] $end
$var wire 1 o# iWe $end
$var wire 16 w# oRd [15:0] $end
$var reg 16 x# rRd [15:0] $end
$var integer 32 y# x_ini [31:0] $end
$upscope $end
$upscope $end
$scope module DqWriteSyncFifoController $end
$var wire 1 4 iCLK $end
$var wire 1 @# iRe $end
$var wire 1 z# iWe $end
$var wire 1 6 inARST $end
$var wire 1 3# oEmp $end
$var wire 1 {# oRvd $end
$var wire 8 |# wWa [7:0] $end
$var wire 16 }# oRd [15:0] $end
$var wire 1 ~# oFull $end
$var wire 16 !$ iWd [15:0] $end
$var reg 1 "$ qEmp $end
$var reg 1 ~# qFull $end
$var reg 1 #$ qRe $end
$var reg 1 $$ qWe $end
$var reg 8 %$ rRa [7:0] $end
$var reg 1 &$ rRe $end
$var reg 8 '$ rWa [7:0] $end
$scope function fBitWidth $end
$var reg 32 ($ iVAL [31:0] $end
$var integer 32 )$ i [31:0] $end
$upscope $end
$scope module DualPortBramTrion $end
$var wire 1 4 iCLK $end
$var wire 8 *$ iRa [7:0] $end
$var wire 8 +$ iWa [7:0] $end
$var wire 1 $$ iWe $end
$var wire 16 ,$ oRd [15:0] $end
$var wire 16 -$ iWd [15:0] $end
$var reg 16 .$ rRd [15:0] $end
$var integer 32 /$ x_ini [31:0] $end
$upscope $end
$upscope $end
$upscope $end
$upscope $end
$scope module UFIB $end
$var wire 1 4 iCLK $end
$var wire 96 0$ iMUfiAdrs [95:0] $end
$var wire 48 1$ iMUfiWd [47:0] $end
$var wire 1 5 iRST $end
$var wire 32 2$ iSUfiAdrs [31:0] $end
$var wire 16 3$ iSUfiRd [15:0] $end
$var wire 1 % iSUfiRdy $end
$var wire 32 4$ oMUfiAdrs [31:0] $end
$var wire 16 5$ oMUfiRd [15:0] $end
$var wire 16 6$ oSUfiWd [15:0] $end
$var wire 3 7$ wEnableBit [2:0] $end
$var wire 32 8$ oSUfiAdrs [31:0] $end
$var wire 3 9$ oMUfiRdy [2:0] $end
$var reg 1 :$ qBlockSelectCke $end
$var reg 1 ;$ qBlockSelectRst $end
$var reg 3 <$ qMUfiRdy [2:0] $end
$var reg 2 =$ rBlockSelect [1:0] $end
$var reg 3 >$ rLatencyCnt [2:0] $end
$var reg 32 ?$ rMUfiAdrs [31:0] $end
$var reg 16 @$ rMUfiWd [15:0] $end
$scope begin genblk1[0] $end
$upscope $end
$scope begin genblk1[1] $end
$upscope $end
$scope begin genblk1[2] $end
$upscope $end
$scope begin genblk2[0] $end
$upscope $end
$scope begin genblk2[1] $end
$upscope $end
$scope begin genblk2[2] $end
$upscope $end
$upscope $end
$scope task reset_init $end
$upscope $end
$scope task usi_csr_setting $end
$var reg 32 A$ adrs [31:0] $end
$var reg 32 B$ wd [31:0] $end
$upscope $end
$scope task wait_flag $end
$var reg 32 C$ flag [31:0] $end
$upscope $end
$upscope $end
$enddefinitions $end
#0
$dumpvars
bx C$
bx B$
bx A$
bx @$
bx ?$
bx >$
bx =$
bx <$
1;$
x:$
bx 9$
bx 8$
b0 7$
bx 6$
bx 5$
b0xxxxxxxxxxxxxxxxxxxxxxxxxxxxxxx 4$
bx 3$
b0xxxxxxxxxxxxxxxxxxxxxxxxxxxxxxx 2$
bx 1$
b0xxxxxxxxxxxxxxxxxxxxxxxxxxxxxxx0xxxxxxxxxxxxxxxxxxxxxxxxxxxxxxx0xxxxxxxxxxxxxxxxxxxxxxxxxxxxxxx 0$
b100000000 /$
bx .$
bx -$
bx ,$
b0 +$
b0 *$
bx )$
bx ($
b0 '$
0&$
b0 %$
x$$
0#$
1"$
bx !$
0~#
bx }#
b1 |#
0{#
xz#
b100000000 y#
bx x#
bx w#
bx v#
b0 u#
b0 t#
bx s#
bx r#
b0 q#
b0 p#
xo#
0n#
1m#
0l#
bx k#
b1 j#
bx i#
b100000000 h#
bx g#
bx f#
bx e#
b0 d#
b0 c#
bx b#
bx a#
b0 `#
b0 _#
x^#
0]#
1\#
bx [#
0Z#
bx Y#
0X#
b1 W#
1V#
xU#
b100000000 T#
bx S#
bx R#
bx Q#
b0 P#
b0 O#
bx N#
bx M#
b0 L#
0K#
b0 J#
xI#
0H#
1G#
bx F#
0E#
bx D#
b1 C#
0B#
1A#
0@#
x?#
0>#
bx =#
bx <#
b0xxxxxxxxxxxxxxxxxxxxxxxxxxxxxxx ;#
bx :#
b0xxxxxxxxxxxxxxxxxxxxxxxxxxxxxxx 9#
bx 8#
bx 7#
06#
15#
b0 4#
13#
b0 2#
bx 1#
bx 0#
x/#
bx .#
0-#
bx ,#
b0 +#
b0 *#
bx )#
bx (#
x'#
x&#
bx %#
x$#
x##
bx "#
bx !#
bx ~"
bx }"
bx |"
bx {"
bx z"
bx y"
xx"
0w"
bx v"
bx u"
bx t"
bx s"
bx r"
bx q"
xp"
b0xxxxxxxxxxxxxxxxxxxxxxxxxxxxxxx o"
bx n"
bx m"
xl"
b0xxxxxxxxxxxxxxxxxxxxxxxxxxxxxxx k"
bx j"
xi"
bx h"
0g"
0f"
0e"
0d"
b0 c"
b0 b"
bx a"
bx `"
bx _"
bx ^"
bx ]"
bx \"
x["
bx Z"
xY"
1X"
0W"
b100000000 V"
bx U"
bx T"
b10000000000000000000000000xxxxxxxxxxxxxxxxxxxxx S"
b0 R"
b0 Q"
bx P"
bx O"
b0 N"
b0 M"
1L"
0K"
0J"
1I"
bx H"
b1 G"
b10000000000000000000000000xxxxxxxxxxxxxxxxxxxxx F"
bx E"
bx D"
1C"
b10000000000000000000000000xxxxxxxxxxxxxxxxxxxxx B"
0A"
1@"
0?"
b0xxxxxxxxxxxxxxxxxxxxxxxxxxxxxxx >"
bx ="
x<"
1;"
0:"
bx 9"
08"
x7"
bx 6"
b0xxxxxxxxxxxxxxxxxxxxxxxxxxxxxxx 5"
bx 4"
bx 3"
bx 2"
bx 1"
bx 0"
x/"
bx ."
x-"
1,"
0+"
b100000000 *"
bx )"
bx ("
b0xxxxxxxxxxxxxxxxxxxxx '"
b0 &"
b0 %"
bx $"
bx #"
b0 ""
b0 !"
1~
0}
0|
1{
bx z
b1 y
b0xxxxxxxxxxxxxxxxxxxxx x
bx w
bx v
1u
b0xxxxxxxxxxxxxxxxxxxxx t
0s
1r
0q
b0xxxxxxxxxxxxxxxxxxxxxxxxxxxxxxx p
bx o
xn
1m
0l
bx k
0j
xi
bx h
b0xxxxxxxxxxxxxxxxxxxxxxxxxxxxxxx g
bx f
bx e
bx d
bx c
bx b
xa
bx `
x_
1^
0]
b100000000 \
bx [
bx Z
b10000000000000000000000000xxxxxxxxxxxxxxxxxxxxx Y
b0 X
b0 W
bx V
bx U
b0 T
b0 S
1R
0Q
0P
1O
bx N
b1 M
b10000000000000000000000000xxxxxxxxxxxxxxxxxxxxx L
bx K
bx J
1I
b10000000000000000000000000xxxxxxxxxxxxxxxxxxxxx H
0G
1F
0E
b0xxxxxxxxxxxxxxxxxxxxxxxxxxxxxxx D
bx C
xB
1A
0@
bx ?
0>
x=
bx <
b0xxxxxxxxxxxxxxxxxxxxxxxxxxxxxxx ;
bx :
bx 9
bx 8
bx 7
06
15
04
b0 3
b0 2
bx 1
x0
bx /
b0xxxxxxxxxxxxxxxxxxxxxxxxxxxxxxx0xxxxxxxxxxxxxxxxxxxxxxxxxxxxxxx0xxxxxxxxxxxxxxxxxxxxxxxxxxxxxxx .
bx -
x,
x+
b0xxxxxxxxxxxxxxxxxxxxxxxxxxxxxxx *
bx )
bx (
b0xxxxxxxxxxxxxxxxxxxxxxxxxxxxxxx '
bx &
1%
bx $
bx #
bx "
bz !
$end
#1000
0I#
1=
0i
07"
b0 .
b0 0$
b0 /
b0 1$
0^#
0$$
1_
0^
b10000000000000000000000000000000000000000000000 H
b10000000000000000000000000000000000000000000000 L
b10000000000000000000000000000000000000000000000 Y
1-"
0,"
b0 t
b0 x
b0 '"
1Y"
0X"
b10000000000000000000000000000000000000000000000 B"
b10000000000000000000000000000000000000000000000 F"
b10000000000000000000000000000000000000000000000 S"
0:$
b1 (
b1 9$
b1 <$
0?#
0x"
b0 v"
b0 z"
b0 y"
b0 |"
0o#
00
b0 D
b0 C
b0 p
b0 o
b0 >"
b0 ="
0U#
0z#
b0 k"
b0 ;#
b0 *
b0 ;
b0 g
b0 5"
b0 4$
b0 '
b0 o"
b0 9#
b0 2$
b0 ?
b0 N
b0 Z
b0 [
b0 b
b0 `
0B
0a
b0 J
b0 K
b0 k
b0 z
b0 ("
b0 )"
b0 0"
b0 ."
0n
0/"
b0 v
b0 w
b0 9"
b0 H"
b0 T"
b0 U"
b0 \"
b0 Z"
0<"
0["
b0 D"
b0 E"
b0 >$
b0 =$
b0 $
b0 t"
b0 =#
b0 F#
b0 R#
b0 [#
b0 f#
b0 8$
b0 ?$
b0 .#
1l"
1/#
b0x m"
b0x ,#
b0x 0#
b0 h"
b0 :#
b0 }#
b0 ,$
b0 .$
b0 Y#
b0 e#
b0 g#
b0 )
b0 <
b0 h
b0 6"
b0 5$
b0 &
b0 n"
b0 8#
b0 k#
b0 w#
b0 x#
b0 3$
b0 7#
b0 D#
b0 Q#
b0 S#
0i"
0&#
1,
1##
0+
0'#
1p"
1$#
14
#2000
04
#3000
b10000000000000000000000000xxxxx000000000000000000000000000xxxxx010000000000000000000000000xxxxx .
b10000000000000000000000000xxxxx000000000000000000000000000xxxxx010000000000000000000000000xxxxx 0$
bx /
bx 1$
b10000000000000000000000000xxxxx >"
bx ="
b0xxxxx p
bx o
b10000000000000000000000000xxxxx D
bx C
b0 "
b0 q"
b0 !#
b0 (#
b0 -
b0 r"
b0 ~"
b0 "#
b1 m"
b1 ,#
b1 0#
b0 #
b0 s"
b0 <#
b0 !$
b0 -$
b0 6$
b0 @$
b10000000000000000000000000xxxxxxxxxxxxxxxxxxxxx 9"
b10000000000000000000000000xxxxxxxxxxxxxxxxxxxxx H"
b10000000000000000000000000xxxxxxxxxxxxxxxxxxxxx T"
b10000000000000000000000000xxxxxxxxxxxxxxxxxxxxx U"
b0xxxxxxxxxxxxxxxxxxxxx k
b0xxxxxxxxxxxxxxxxxxxxx z
b0xxxxxxxxxxxxxxxxxxxxx ("
b0xxxxxxxxxxxxxxxxxxxxx )"
b10000000000000000000000000xxxxxxxxxxxxxxxxxxxxx ?
b10000000000000000000000000xxxxxxxxxxxxxxxxxxxxx N
b10000000000000000000000000xxxxxxxxxxxxxxxxxxxxx Z
b10000000000000000000000000xxxxxxxxxxxxxxxxxxxxx [
14
#4000
04
#5000
b10000000000000000000000000000000000000000000000000000000000000001000000000000000000000000000000 .
b10000000000000000000000000000000000000000000000000000000000000001000000000000000000000000000000 0$
b0 /
b0 1$
b1000000000000000000000000000000 D
b0 C
b0 p
b0 o
b1000000000000000000000000000000 >"
b0 ="
b10000000000000000000000000000000000000000000000 ?
b10000000000000000000000000000000000000000000000 N
b10000000000000000000000000000000000000000000000 Z
b10000000000000000000000000000000000000000000000 [
b0 k
b0 z
b0 ("
b0 )"
b10000000000000000000000000000000000000000000000 9"
b10000000000000000000000000000000000000000000000 H"
b10000000000000000000000000000000000000000000000 T"
b10000000000000000000000000000000000000000000000 U"
bx #
bx s"
bx <#
bx !$
bx -$
bx 6$
bx @$
14
#6000
04
#7000
b0 #
b0 s"
b0 <#
b0 !$
b0 -$
b0 6$
b0 @$
14
#8000
04
#9000
14
#10000
0;$
04
16
05
#11000
1E
b10000000000000000000000000000010000000000000001 B"
b10000000000000000000000000000010000000000000001 F"
b10000000000000000000000000000010000000000000001 S"
b10000000000000001 t
b10000000000000001 x
b10000000000000001 '"
b10000000000000000000000000000010000000000000001 H
b10000000000000000000000000000010000000000000001 L
b10000000000000000000000000000010000000000000001 Y
0A
0O
0m
0{
0;"
0I"
bx .#
b1 >$
b1000000000000000000000000000000 $
b1000000000000000000000000000000 t"
b1000000000000000000000000000000 =#
b1000000000000000000000000000000 F#
b1000000000000000000000000000000 R#
b1000000000000000000000000000000 [#
b1000000000000000000000000000000 f#
b1000000000000000000000000000000 8$
b1000000000000000000000000000000 ?$
b1 D"
b1 E"
b1 \"
b1 v
b1 w
b1 0"
b1 J
b1 K
b1 b
b10 M
b1 T
b1 X
b10 y
b1 ""
b1 &"
b10 G"
b1 N"
b1 R"
14
#12000
04
#13000
b10000000000000000000000000000100000000000000010 H
b10000000000000000000000000000100000000000000010 L
b10000000000000000000000000000100000000000000010 Y
b100000000000000010 t
b100000000000000010 x
b100000000000000010 '"
b10000000000000000000000000000100000000000000010 B"
b10000000000000000000000000000100000000000000010 F"
b10000000000000000000000000000100000000000000010 S"
b10 b
b10 J
b10 K
b10 0"
b10 v
b10 w
b10 \"
b10 D"
b10 E"
b10 >$
b11 G"
b10 N"
b10 R"
b11 y
b10 ""
b10 &"
b11 M
b10 T
b10 X
14
#14000
04
#15000
b10000000000000000000000000000110000000000000011 B"
b10000000000000000000000000000110000000000000011 F"
b10000000000000000000000000000110000000000000011 S"
b110000000000000011 t
b110000000000000011 x
b110000000000000011 '"
b10000000000000000000000000000110000000000000011 H
b10000000000000000000000000000110000000000000011 L
b10000000000000000000000000000110000000000000011 Y
b11 >$
b11 D"
b11 E"
b11 \"
b11 v
b11 w
b11 0"
b11 J
b11 K
b11 b
b100 M
b11 T
b11 X
b100 y
b11 ""
b11 &"
b100 G"
b11 N"
b11 R"
14
#16000
04
