Efinix/Titanium/Ti180MIPI25GRxHDMIV101/la0_waveform.vcd
#0 $dumpon
$date today $end
$timescale 1 ns $end
$scope module top $end
$var wire 1 0 MCsiRxController/rHsClk $end
$var wire 1 1 MCsiRxController/qNotTrigger $end
$var wire 1 2 MCsiRxController/rStopState $end
$var wire 2 3 MCsiRxController/rHsStartTrigger $end
$var wire 1 4 MCsiRxController/rSkewCalHs $end
$var wire 1 5 MCsiRxController/rErrSotHs $end
$var wire 16 6 MCsiRxController/rValidCnt $end
$var wire 1 7 MCsiRxController/rErrSotSyncHs $end
$var wire 8 8 MCsiRxController/rRxLaneData0 $end
$var wire 8 9 MCsiRxController/rRxLaneData1 $end
$var wire 1 a MCsiRxController/rActiveHs $end
$var wire 1 b MCsiRxController/rHsValid $end
$upscope $end
$enddefinitions $end
#0
$dumpvars
10
01
02
b00 3
04
05
b0000000000000000 6
07
b00000000 8
b00000000 9
0a
0b
$end
#1
00
#2
10
#3
00
#4
10
#5
00
#6
10
#7
00
#8
10
#9
00
#10
10
#11
00
b11 3
1a
#12
10
b00 3
b0000000000000001 6
b00011110 8
1b
#13
00
b0000000000000010 6
b00001111 8
b00010100 9
#14
10
b0000000000000011 6
b10000000 8
b00000000 9
#15
00
b0000000000000100 6
#16
10
b0000000000000101 6
#17
00
b0000000000000110 6
#18
10
b0000000000000111 6
#19
00
b0000000000001000 6
#20
10
b0000000000001001 6
#21
00
b0000000000001010 6
#22
10
b0000000000001011 6
#23
00
b0000000000001100 6
#24
10
b0000000000001101 6
#25
00
b0000000000001110 6
#26
10
b0000000000001111 6
#27
00
b0000000000010000 6
#28
10
b0000000000010001 6
#29
00
b0000000000010010 6
#30
10
b0000000000010011 6
#31
00
b0000000000010100 6
#32
10
b0000000000010101 6
#33
00
b0000000000010110 6
#34
10
b0000000000010111 6
#35
00
b0000000000011000 6
#36
10
b0000000000011001 6
#37
00
b0000000000011010 6
#38
10
b0000000000011011 6
#39
00
b0000000000011100 6
#40
10
b0000000000011101 6
#41
00
b0000000000011110 6
#42
10
b0000000000011111 6
#43
00
b0000000000100000 6
#44
10
b0000000000100001 6
#45
00
b0000000000100010 6
#46
10
b0000000000100011 6
#47
00
b0000000000100100 6
#48
10
b0000000000100101 6
#49
00
b0000000000100110 6
#50
10
b0000000000100111 6
#51
00
b0000000000101000 6
#52
10
b0000000000101001 6
#53
00
b0000000000101010 6
#54
10
b0000000000101011 6
#55
00
b0000000000101100 6
#56
10
b0000000000101101 6
#57
00
b0000000000101110 6
#58
10
b0000000000101111 6
#59
00
b0000000000110000 6
#60
10
b0000000000110001 6
#61
00
b0000000000110010 6
#62
10
b0000000000110011 6
#63
00
b0000000000110100 6
#64
10
b0000000000110101 6
#65
00
b0000000000110110 6
#66
10
b0000000000110111 6
#67
00
b0000000000111000 6
#68
10
b0000000000111001 6
#69
00
b0000000000111010 6
#70
10
b0000000000111011 6
#71
00
b0000000000111100 6
#72
10
b0000000000111101 6
#73
00
b0000000000111110 6
#74
10
b0000000000111111 6
#75
00
b0000000001000000 6
#76
10
b0000000001000001 6
#77
00
b0000000001000010 6
#78
10
b0000000001000011 6
#79
00
b0000000001000100 6
#80
10
b0000000001000101 6
#81
00
b0000000001000110 6
#82
10
b0000000001000111 6
#83
00
b0000000001001000 6
#84
10
b0000000001001001 6
#85
00
b0000000001001010 6
#86
10
b0000000001001011 6
#87
00
b0000000001001100 6
#88
10
b0000000001001101 6
#89
00
b0000000001001110 6
#90
10
b0000000001001111 6
#91
00
b0000000001010000 6
#92
10
b0000000001010001 6
#93
00
b0000000001010010 6
#94
10
b0000000001010011 6
#95
00
b0000000001010100 6
#96
10
b0000000001010101 6
#97
00
b0000000001010110 6
#98
10
b0000000001010111 6
#99
00
b0000000001011000 6
#100
10
b0000000001011001 6
#101
00
b0000000001011010 6
#102
10
b0000000001011011 6
#103
00
b0000000001011100 6
#104
10
b0000000001011101 6
#105
00
b0000000001011110 6
#106
10
b0000000001011111 6
#107
00
b0000000001100000 6
#108
10
b0000000001100001 6
#109
00
b0000000001100010 6
#110
10
b0000000001100011 6
#111
00
b0000000001100100 6
#112
10
b0000000001100101 6
#113
00
b0000000001100110 6
#114
10
b0000000001100111 6
#115
00
b0000000001101000 6
#116
10
b0000000001101001 6
#117
00
b0000000001101010 6
#118
10
b0000000001101011 6
#119
00
b0000000001101100 6
#120
10
b0000000001101101 6
#121
00
b0000000001101110 6
#122
10
b0000000001101111 6
#123
00
b0000000001110000 6
#124
10
b0000000001110001 6
#125
00
b0000000001110010 6
#126
10
b0000000001110011 6
#127
00
b0000000001110100 6
#128
10
b0000000001110101 6
#129
00
b0000000001110110 6
#130
10
b0000000001110111 6
#131
00
b0000000001111000 6
#132
10
b0000000001111001 6
#133
00
b0000000001111010 6
#134
10
b0000000001111011 6
#135
00
b0000000001111100 6
#136
10
b0000000001111101 6
#137
00
b0000000001111110 6
#138
10
b0000000001111111 6
#139
00
b0000000010000000 6
#140
10
b0000000010000001 6
#141
00
b0000000010000010 6
#142
10
b0000000010000011 6
#143
00
b0000000010000100 6
#144
10
b0000000010000101 6
#145
00
b0000000010000110 6
#146
10
b0000000010000111 6
#147
00
b0000000010001000 6
#148
10
b0000000010001001 6
#149
00
b0000000010001010 6
#150
10
b0000000010001011 6
#151
00
b0000000010001100 6
#152
10
b0000000010001101 6
#153
00
b0000000010001110 6
#154
10
b0000000010001111 6
#155
00
b0000000010010000 6
#156
10
b0000000010010001 6
#157
00
b0000000010010010 6
#158
10
b0000000010010011 6
#159
00
b0000000010010100 6
#160
10
b0000000010010101 6
#161
00
b0000000010010110 6
#162
10
b0000000010010111 6
#163
00
b0000000010011000 6
#164
10
b0000000010011001 6
#165
00
b0000000010011010 6
#166
10
b0000000010011011 6
#167
00
b0000000010011100 6
#168
10
b0000000010011101 6
#169
00
b0000000010011110 6
#170
10
b0000000010011111 6
#171
00
b0000000010100000 6
#172
10
b0000000010100001 6
#173
00
b0000000010100010 6
#174
10
b0000000010100011 6
#175
00
b0000000010100100 6
#176
10
b0000000010100101 6
#177
00
b0000000010100110 6
#178
10
b0000000010100111 6
#179
00
b0000000010101000 6
#180
10
b0000000010101001 6
#181
00
b0000000010101010 6
#182
10
b0000000010101011 6
#183
00
b0000000010101100 6
#184
10
b0000000010101101 6
#185
00
b0000000010101110 6
#186
10
b0000000010101111 6
#187
00
b0000000010110000 6
#188
10
b0000000010110001 6
#189
00
b0000000010110010 6
#190
10
b0000000010110011 6
#191
00
b0000000010110100 6
#192
10
b0000000010110101 6
#193
00
b0000000010110110 6
#194
10
b0000000010110111 6
#195
00
b0000000010111000 6
#196
10
b0000000010111001 6
#197
00
b0000000010111010 6
#198
10
b0000000010111011 6
#199
00
b0000000010111100 6
#200
10
b0000000010111101 6
#201
00
b0000000010111110 6
#202
10
b0000000010111111 6
#203
00
b0000000011000000 6
#204
10
b0000000011000001 6
#205
00
b0000000011000010 6
#206
10
b0000000011000011 6
#207
00
b0000000011000100 6
#208
10
b0000000011000101 6
#209
00
b0000000011000110 6
#210
10
b0000000011000111 6
#211
00
b0000000011001000 6
#212
10
b0000000011001001 6
#213
00
b0000000011001010 6
#214
10
b0000000011001011 6
#215
00
b0000000011001100 6
#216
10
b0000000011001101 6
#217
00
b0000000011001110 6
#218
10
b0000000011001111 6
#219
00
b0000000011010000 6
#220
10
b0000000011010001 6
#221
00
b0000000011010010 6
#222
10
b0000000011010011 6
#223
00
b0000000011010100 6
#224
10
b0000000011010101 6
#225
00
b0000000011010110 6
#226
10
b0000000011010111 6
#227
00
b0000000011011000 6
#228
10
b0000000011011001 6
#229
00
b0000000011011010 6
#230
10
b0000000011011011 6
#231
00
b0000000011011100 6
#232
10
b0000000011011101 6
#233
00
b0000000011011110 6
#234
10
b0000000011011111 6
#235
00
b0000000011100000 6
#236
10
b0000000011100001 6
#237
00
b0000000011100010 6
#238
10
b0000000011100011 6
#239
00
b0000000011100100 6
#240
10
b0000000011100101 6
#241
00
b0000000011100110 6
#242
10
b0000000011100111 6
#243
00
b0000000011101000 6
#244
10
b0000000011101001 6
#245
00
b0000000011101010 6
#246
10
b0000000011101011 6
#247
00
b0000000011101100 6
#248
10
b0000000011101101 6
#249
00
b0000000011101110 6
#250
10
b0000000011101111 6
#251
00
b0000000011110000 6
#252
10
b0000000011110001 6
#253
00
b0000000011110010 6
#254
10
b0000000011110011 6
#255
00
b0000000011110100 6
#256
10
b0000000011110101 6
#257
00
b0000000011110110 6
#258
10
b0000000011110111 6
#259
00
b0000000011111000 6
#260
10
b0000000011111001 6
#261
00
b0000000011111010 6
#262
10
b0000000011111011 6
#263
00
b0000000011111100 6
#264
10
b0000000011111101 6
#265
00
b0000000011111110 6
#266
10
b0000000011111111 6
#267
00
b0000000100000000 6
#268
10
b0000000100000001 6
#269
00
b0000000100000010 6
#270
10
b0000000100000011 6
#271
00
b0000000100000100 6
#272
10
b0000000100000101 6
#273
00
b0000000100000110 6
#274
10
b0000000100000111 6
#275
00
b0000000100001000 6
#276
10
b0000000100001001 6
#277
00
b0000000100001010 6
#278
10
b0000000100001011 6
#279
00
b0000000100001100 6
#280
10
b0000000100001101 6
#281
00
b0000000100001110 6
#282
10
b0000000100001111 6
#283
00
b0000000100010000 6
#284
10
b0000000100010001 6
#285
00
b0000000100010010 6
#286
10
b0000000100010011 6
#287
00
b0000000100010100 6
#288
10
b0000000100010101 6
#289
00
b0000000100010110 6
#290
10
b0000000100010111 6
#291
00
b0000000100011000 6
#292
10
b0000000100011001 6
#293
00
b0000000100011010 6
#294
10
b0000000100011011 6
#295
00
b0000000100011100 6
#296
10
b0000000100011101 6
#297
00
b0000000100011110 6
#298
10
b0000000100011111 6
#299
00
b0000000100100000 6
#300
10
b0000000100100001 6
#301
00
b0000000100100010 6
#302
10
b0000000100100011 6
#303
00
b0000000100100100 6
#304
10
b0000000100100101 6
#305
00
b0000000100100110 6
#306
10
b0000000100100111 6
#307
00
b0000000100101000 6
#308
10
b0000000100101001 6
#309
00
b0000000100101010 6
#310
10
b0000000100101011 6
#311
00
b0000000100101100 6
#312
10
b0000000100101101 6
#313
00
b0000000100101110 6
#314
10
b0000000100101111 6
#315
00
b0000000100110000 6
#316
10
b0000000100110001 6
#317
00
b0000000100110010 6
#318
10
b0000000100110011 6
#319
00
b0000000100110100 6
#320
10
b0000000100110101 6
#321
00
b0000000100110110 6
#322
10
b0000000100110111 6
#323
00
b0000000100111000 6
#324
10
b0000000100111001 6
#325
00
b0000000100111010 6
#326
10
b0000000100111011 6
#327
00
b0000000100111100 6
#328
10
b0000000100111101 6
#329
00
b0000000100111110 6
#330
10
b0000000100111111 6
#331
00
b0000000101000000 6
#332
10
b0000000101000001 6
#333
00
b0000000101000010 6
#334
10
b0000000101000011 6
#335
00
b0000000101000100 6
#336
10
b0000000101000101 6
#337
00
b0000000101000110 6
#338
10
b0000000101000111 6
#339
00
b0000000101001000 6
#340
10
b0000000101001001 6
#341
00
b0000000101001010 6
#342
10
b0000000101001011 6
#343
00
b0000000101001100 6
#344
10
b0000000101001101 6
#345
00
b0000000101001110 6
#346
10
b0000000101001111 6
#347
00
b0000000101010000 6
#348
10
b0000000101010001 6
#349
00
b0000000101010010 6
#350
10
b0000000101010011 6
#351
00
b0000000101010100 6
#352
10
b0000000101010101 6
#353
00
b0000000101010110 6
#354
10
b0000000101010111 6
#355
00
b0000000101011000 6
#356
10
b0000000101011001 6
#357
00
b0000000101011010 6
#358
10
b0000000101011011 6
#359
00
b0000000101011100 6
#360
10
b0000000101011101 6
#361
00
b0000000101011110 6
#362
10
b0000000101011111 6
#363
00
b0000000101100000 6
#364
10
b0000000101100001 6
#365
00
b0000000101100010 6
#366
10
b0000000101100011 6
#367
00
b0000000101100100 6
#368
10
b0000000101100101 6
#369
00
b0000000101100110 6
#370
10
b0000000101100111 6
#371
00
b0000000101101000 6
#372
10
b0000000101101001 6
#373
00
b0000000101101010 6
#374
10
b0000000101101011 6
#375
00
b0000000101101100 6
#376
10
b0000000101101101 6
#377
00
b0000000101101110 6
#378
10
b0000000101101111 6
#379
00
b0000000101110000 6
#380
10
b0000000101110001 6
#381
00
b0000000101110010 6
#382
10
b0000000101110011 6
#383
00
b0000000101110100 6
#384
10
b0000000101110101 6
#385
00
b0000000101110110 6
#386
10
b0000000101110111 6
#387
00
b0000000101111000 6
#388
10
b0000000101111001 6
#389
00
b0000000101111010 6
#390
10
b0000000101111011 6
#391
00
b0000000101111100 6
#392
10
b0000000101111101 6
#393
00
b0000000101111110 6
#394
10
b0000000101111111 6
#395
00
b0000000110000000 6
#396
10
b0000000110000001 6
#397
00
b0000000110000010 6
#398
10
b0000000110000011 6
#399
00
b0000000110000100 6
#400
10
b0000000110000101 6
#401
00
b0000000110000110 6
#402
10
b0000000110000111 6
#403
00
b0000000110001000 6
#404
10
b0000000110001001 6
#405
00
b0000000110001010 6
#406
10
b0000000110001011 6
#407
00
b0000000110001100 6
#408
10
b0000000110001101 6
#409
00
b0000000110001110 6
#410
10
b0000000110001111 6
#411
00
b0000000110010000 6
#412
10
b0000000110010001 6
#413
00
b0000000110010010 6
#414
10
b0000000110010011 6
#415
00
b0000000110010100 6
#416
10
b0000000110010101 6
#417
00
b0000000110010110 6
#418
10
b0000000110010111 6
#419
00
b0000000110011000 6
#420
10
b0000000110011001 6
#421
00
b0000000110011010 6
#422
10
b0000000110011011 6
#423
00
b0000000110011100 6
#424
10
b0000000110011101 6
#425
00
b0000000110011110 6
#426
10
b0000000110011111 6
#427
00
b0000000110100000 6
#428
10
b0000000110100001 6
#429
00
b0000000110100010 6
#430
10
b0000000110100011 6
#431
00
b0000000110100100 6
#432
10
b0000000110100101 6
#433
00
b0000000110100110 6
#434
10
b0000000110100111 6
#435
00
b0000000110101000 6
#436
10
b0000000110101001 6
#437
00
b0000000110101010 6
#438
10
b0000000110101011 6
#439
00
b0000000110101100 6
#440
10
b0000000110101101 6
#441
00
b0000000110101110 6
#442
10
b0000000110101111 6
#443
00
b0000000110110000 6
#444
10
b0000000110110001 6
#445
00
b0000000110110010 6
#446
10
b0000000110110011 6
#447
00
b0000000110110100 6
#448
10
b0000000110110101 6
#449
00
b0000000110110110 6
#450
10
b0000000110110111 6
#451
00
b0000000110111000 6
#452
10
b0000000110111001 6
#453
00
b0000000110111010 6
#454
10
b0000000110111011 6
#455
00
b0000000110111100 6
#456
10
b0000000110111101 6
#457
00
b0000000110111110 6
#458
10
b0000000110111111 6
#459
00
b0000000111000000 6
#460
10
b0000000111000001 6
#461
00
b0000000111000010 6
#462
10
b0000000111000011 6
#463
00
b0000000111000100 6
#464
10
b0000000111000101 6
#465
00
b0000000111000110 6
#466
10
b0000000111000111 6
#467
00
b0000000111001000 6
#468
10
b0000000111001001 6
#469
00
b0000000111001010 6
#470
10
b0000000111001011 6
#471
00
b0000000111001100 6
#472
10
b0000000111001101 6
#473
00
b0000000111001110 6
#474
10
b0000000111001111 6
#475
00
b0000000111010000 6
#476
10
b0000000111010001 6
#477
00
b0000000111010010 6
#478
10
b0000000111010011 6
#479
00
b0000000111010100 6
#480
10
b0000000111010101 6
#481
00
b0000000111010110 6
#482
10
b0000000111010111 6
#483
00
b0000000111011000 6
#484
10
b0000000111011001 6
#485
00
b0000000111011010 6
#486
10
b0000000111011011 6
#487
00
b0000000111011100 6
#488
10
b0000000111011101 6
#489
00
b0000000111011110 6
#490
10
b0000000111011111 6
#491
00
b0000000111100000 6
#492
10
b0000000111100001 6
#493
00
b0000000111100010 6
#494
10
b0000000111100011 6
#495
00
b0000000111100100 6
#496
10
b0000000111100101 6
#497
00
b0000000111100110 6
#498
10
b0000000111100111 6
#499
00
b0000000111101000 6
#500
10
b0000000111101001 6
#501
00
b0000000111101010 6
#502
10
b0000000111101011 6
#503
00
b0000000111101100 6
#504
10
b0000000111101101 6
#505
00
b0000000111101110 6
#506
10
b0000000111101111 6
#507
00
b0000000111110000 6
#508
10
b0000000111110001 6
#509
00
b0000000111110010 6
#510
10
b0000000111110011 6
#511
00
b0000000111110100 6
#512
10
b0000000111110101 6
#513
00
b0000000111110110 6
#514
10
b0000000111110111 6
#515
00
b0000000111111000 6
#516
10
b0000000111111001 6
#517
00
b0000000111111010 6
#518
10
b0000000111111011 6
#519
00
b0000000111111100 6
#520
10
b0000000111111101 6
#521
00
b0000000111111110 6
#522
10
b0000000111111111 6
#523
00
b0000001000000000 6
#524
10
b0000001000000001 6
#525
00
b0000001000000010 6
#526
10
b0000001000000011 6
#527
00
b0000001000000100 6
#528
10
b0000001000000101 6
#529
00
b0000001000000110 6
#530
10
b0000001000000111 6
#531
00
b0000001000001000 6
#532
10
b0000001000001001 6
#533
00
b0000001000001010 6
#534
10
b0000001000001011 6
#535
00
b0000001000001100 6
#536
10
b0000001000001101 6
#537
00
b0000001000001110 6
#538
10
b0000001000001111 6
#539
00
b0000001000010000 6
#540
10
b0000001000010001 6
#541
00
b0000001000010010 6
#542
10
b0000001000010011 6
#543
00
b0000001000010100 6
#544
10
b0000001000010101 6
#545
00
b0000001000010110 6
#546
10
b0000001000010111 6
#547
00
b0000001000011000 6
#548
10
b0000001000011001 6
#549
00
b0000001000011010 6
#550
10
b0000001000011011 6
#551
00
b0000001000011100 6
#552
10
b0000001000011101 6
#553
00
b0000001000011110 6
#554
10
b0000001000011111 6
#555
00
b0000001000100000 6
#556
10
b0000001000100001 6
#557
00
b0000001000100010 6
#558
10
b0000001000100011 6
#559
00
b0000001000100100 6
#560
10
b0000001000100101 6
#561
00
b0000001000100110 6
#562
10
b0000001000100111 6
#563
00
b0000001000101000 6
#564
10
b0000001000101001 6
#565
00
b0000001000101010 6
#566
10
b0000001000101011 6
#567
00
b0000001000101100 6
#568
10
b0000001000101101 6
#569
00
b0000001000101110 6
#570
10
b0000001000101111 6
#571
00
b0000001000110000 6
#572
10
b0000001000110001 6
#573
00
b0000001000110010 6
#574
10
b0000001000110011 6
#575
00
b0000001000110100 6
#576
10
b0000001000110101 6
#577
00
b0000001000110110 6
#578
10
b0000001000110111 6
#579
00
b0000001000111000 6
#580
10
b0000001000111001 6
#581
00
b0000001000111010 6
#582
10
b0000001000111011 6
#583
00
b0000001000111100 6
#584
10
b0000001000111101 6
#585
00
b0000001000111110 6
#586
10
b0000001000111111 6
#587
00
b0000001001000000 6
#588
10
b0000001001000001 6
#589
00
b0000001001000010 6
#590
10
b0000001001000011 6
#591
00
b0000001001000100 6
#592
10
b0000001001000101 6
#593
00
b0000001001000110 6
#594
10
b0000001001000111 6
#595
00
b0000001001001000 6
#596
10
b0000001001001001 6
#597
00
b0000001001001010 6
#598
10
b0000001001001011 6
#599
00
b0000001001001100 6
#600
10
b0000001001001101 6
#601
00
b0000001001001110 6
#602
10
b0000001001001111 6
#603
00
b0000001001010000 6
#604
10
b0000001001010001 6
#605
00
b0000001001010010 6
#606
10
b0000001001010011 6
#607
00
b0000001001010100 6
#608
10
b0000001001010101 6
#609
00
b0000001001010110 6
#610
10
b0000001001010111 6
#611
00
b0000001001011000 6
#612
10
b0000001001011001 6
#613
00
b0000001001011010 6
#614
10
b0000001001011011 6
#615
00
b0000001001011100 6
#616
10
b0000001001011101 6
#617
00
b0000001001011110 6
#618
10
b0000001001011111 6
#619
00
b0000001001100000 6
#620
10
b0000001001100001 6
#621
00
b0000001001100010 6
#622
10
b0000001001100011 6
#623
00
b0000001001100100 6
#624
10
b0000001001100101 6
#625
00
b0000001001100110 6
#626
10
b0000001001100111 6
#627
00
b0000001001101000 6
#628
10
b0000001001101001 6
#629
00
b0000001001101010 6
#630
10
b0000001001101011 6
#631
00
b0000001001101100 6
#632
10
b0000001001101101 6
#633
00
b0000001001101110 6
#634
10
b0000001001101111 6
#635
00
b0000001001110000 6
#636
10
b0000001001110001 6
#637
00
b0000001001110010 6
#638
10
b0000001001110011 6
#639
00
b0000001001110100 6
#640
10
b0000001001110101 6
#641
00
b0000001001110110 6
#642
10
b0000001001110111 6
#643
00
b0000001001111000 6
#644
10
b0000001001111001 6
#645
00
b0000001001111010 6
#646
10
b0000001001111011 6
#647
00
b0000001001111100 6
#648
10
b0000001001111101 6
#649
00
b0000001001111110 6
#650
10
b0000001001111111 6
#651
00
b0000001010000000 6
#652
10
b0000001010000001 6
#653
00
b0000001010000010 6
#654
10
b0000001010000011 6
#655
00
b0000001010000100 6
#656
10
b0000001010000101 6
#657
00
b0000001010000110 6
#658
10
b0000001010000111 6
#659
00
b0000001010001000 6
#660
10
b0000001010001001 6
#661
00
b0000001010001010 6
#662
10
b0000001010001011 6
#663
00
b0000001010001100 6
#664
10
b0000001010001101 6
#665
00
b0000001010001110 6
#666
10
b0000001010001111 6
#667
00
b0000001010010000 6
#668
10
b0000001010010001 6
#669
00
b0000001010010010 6
#670
10
b0000001010010011 6
#671
00
b0000001010010100 6
#672
10
b0000001010010101 6
#673
00
b0000001010010110 6
#674
10
b0000001010010111 6
#675
00
b0000001010011000 6
#676
10
b0000001010011001 6
#677
00
b0000001010011010 6
#678
10
b0000001010011011 6
#679
00
b0000001010011100 6
#680
10
b0000001010011101 6
#681
00
b0000001010011110 6
#682
10
b0000001010011111 6
#683
00
b0000001010100000 6
#684
10
b0000001010100001 6
#685
00
b0000001010100010 6
#686
10
b0000001010100011 6
#687
00
b0000001010100100 6
#688
10
b0000001010100101 6
#689
00
b0000001010100110 6
#690
10
b0000001010100111 6
#691
00
b0000001010101000 6
#692
10
b0000001010101001 6
#693
00
b0000001010101010 6
#694
10
b0000001010101011 6
#695
00
b0000001010101100 6
#696
10
b0000001010101101 6
#697
00
b0000001010101110 6
#698
10
b0000001010101111 6
#699
00
b0000001010110000 6
#700
10
b0000001010110001 6
#701
00
b0000001010110010 6
#702
10
b0000001010110011 6
#703
00
b0000001010110100 6
#704
10
b0000001010110101 6
#705
00
b0000001010110110 6
#706
10
b0000001010110111 6
#707
00
b0000001010111000 6
#708
10
b0000001010111001 6
#709
00
b0000001010111010 6
#710
10
b0000001010111011 6
#711
00
b0000001010111100 6
#712
10
b0000001010111101 6
#713
00
b0000001010111110 6
#714
10
b0000001010111111 6
#715
00
b0000001011000000 6
#716
10
b0000001011000001 6
#717
00
b0000001011000010 6
#718
10
b0000001011000011 6
#719
00
b0000001011000100 6
#720
10
b0000001011000101 6
#721
00
b0000001011000110 6
#722
10
b0000001011000111 6
#723
00
b0000001011001000 6
#724
10
b0000001011001001 6
#725
00
b0000001011001010 6
#726
10
b0000001011001011 6
#727
00
b0000001011001100 6
#728
10
b0000001011001101 6
#729
00
b0000001011001110 6
#730
10
b0000001011001111 6
#731
00
b0000001011010000 6
#732
10
b0000001011010001 6
#733
00
b0000001011010010 6
#734
10
b0000001011010011 6
#735
00
b0000001011010100 6
#736
10
b0000001011010101 6
#737
00
b0000001011010110 6
#738
10
b0000001011010111 6
#739
00
b0000001011011000 6
#740
10
b0000001011011001 6
#741
00
b0000001011011010 6
#742
10
b0000001011011011 6
#743
00
b0000001011011100 6
#744
10
b0000001011011101 6
#745
00
b0000001011011110 6
#746
10
b0000001011011111 6
#747
00
b0000001011100000 6
#748
10
b0000001011100001 6
#749
00
b0000001011100010 6
#750
10
b0000001011100011 6
#751
00
b0000001011100100 6
#752
10
b0000001011100101 6
#753
00
b0000001011100110 6
#754
10
b0000001011100111 6
#755
00
b0000001011101000 6
#756
10
b0000001011101001 6
#757
00
b0000001011101010 6
#758
10
b0000001011101011 6
#759
00
b0000001011101100 6
#760
10
b0000001011101101 6
#761
00
b0000001011101110 6
#762
10
b0000001011101111 6
#763
00
b0000001011110000 6
#764
10
b0000001011110001 6
#765
00
b0000001011110010 6
#766
10
b0000001011110011 6
#767
00
b0000001011110100 6
#768
10
b0000001011110101 6
#769
00
b0000001011110110 6
#770
10
b0000001011110111 6
#771
00
b0000001011111000 6
#772
10
b0000001011111001 6
#773
00
b0000001011111010 6
#774
10
b0000001011111011 6
#775
00
b0000001011111100 6
#776
10
b0000001011111101 6
#777
00
b0000001011111110 6
#778
10
b0000001011111111 6
#779
00
b0000001100000000 6
#780
10
b0000001100000001 6
#781
00
b0000001100000010 6
#782
10
b0000001100000011 6
#783
00
b0000001100000100 6
#784
10
b0000001100000101 6
#785
00
b0000001100000110 6
#786
10
b0000001100000111 6
#787
00
b0000001100001000 6
#788
10
b0000001100001001 6
#789
00
b0000001100001010 6
#790
10
b0000001100001011 6
#791
00
b0000001100001100 6
#792
10
b0000001100001101 6
#793
00
b0000001100001110 6
#794
10
b0000001100001111 6
#795
00
b0000001100010000 6
#796
10
b0000001100010001 6
#797
00
b0000001100010010 6
#798
10
b0000001100010011 6
#799
00
b0000001100010100 6
#800
10
b0000001100010101 6
#801
00
b0000001100010110 6
#802
10
b0000001100010111 6
#803
00
b0000001100011000 6
#804
10
b0000001100011001 6
#805
00
b0000001100011010 6
#806
10
b0000001100011011 6
#807
00
b0000001100011100 6
#808
10
b0000001100011101 6
#809
00
b0000001100011110 6
#810
10
b0000001100011111 6
#811
00
b0000001100100000 6
#812
10
b0000001100100001 6
#813
00
b0000001100100010 6
#814
10
b0000001100100011 6
#815
00
b0000001100100100 6
#816
10
b0000001100100101 6
#817
00
b0000001100100110 6
#818
10
b0000001100100111 6
#819
00
b0000001100101000 6
#820
10
b0000001100101001 6
#821
00
b0000001100101010 6
#822
10
b0000001100101011 6
#823
00
b0000001100101100 6
#824
10
b0000001100101101 6
#825
00
b0000001100101110 6
#826
10
b0000001100101111 6
#827
00
b0000001100110000 6
#828
10
b0000001100110001 6
#829
00
b0000001100110010 6
#830
10
b0000001100110011 6
#831
00
b0000001100110100 6
#832
10
b0000001100110101 6
#833
00
b0000001100110110 6
#834
10
b0000001100110111 6
#835
00
b0000001100111000 6
#836
10
b0000001100111001 6
#837
00
b0000001100111010 6
#838
10
b0000001100111011 6
#839
00
b0000001100111100 6
#840
10
b0000001100111101 6
#841
00
b0000001100111110 6
#842
10
b0000001100111111 6
#843
00
b0000001101000000 6
#844
10
b0000001101000001 6
#845
00
b0000001101000010 6
#846
10
b0000001101000011 6
#847
00
b0000001101000100 6
#848
10
b0000001101000101 6
#849
00
b0000001101000110 6
#850
10
b0000001101000111 6
#851
00
b0000001101001000 6
#852
10
b0000001101001001 6
#853
00
b0000001101001010 6
#854
10
b0000001101001011 6
#855
00
b0000001101001100 6
#856
10
b0000001101001101 6
#857
00
b0000001101001110 6
#858
10
b0000001101001111 6
#859
00
b0000001101010000 6
#860
10
b0000001101010001 6
#861
00
b0000001101010010 6
#862
10
b0000001101010011 6
#863
00
b0000001101010100 6
#864
10
b0000001101010101 6
#865
00
b0000001101010110 6
#866
10
b0000001101010111 6
#867
00
b0000001101011000 6
#868
10
b0000001101011001 6
#869
00
b0000001101011010 6
#870
10
b0000001101011011 6
#871
00
b0000001101011100 6
#872
10
b0000001101011101 6
#873
00
b0000001101011110 6
#874
10
b0000001101011111 6
#875
00
b0000001101100000 6
#876
10
b0000001101100001 6
#877
00
b0000001101100010 6
#878
10
b0000001101100011 6
#879
00
b0000001101100100 6
#880
10
b0000001101100101 6
#881
00
b0000001101100110 6
#882
10
b0000001101100111 6
#883
00
b0000001101101000 6
#884
10
b0000001101101001 6
#885
00
b0000001101101010 6
#886
10
b0000001101101011 6
#887
00
b0000001101101100 6
#888
10
b0000001101101101 6
#889
00
b0000001101101110 6
#890
10
b0000001101101111 6
#891
00
b0000001101110000 6
#892
10
b0000001101110001 6
#893
00
b0000001101110010 6
#894
10
b0000001101110011 6
#895
00
b0000001101110100 6
#896
10
b0000001101110101 6
#897
00
b0000001101110110 6
#898
10
b0000001101110111 6
#899
00
b0000001101111000 6
#900
10
b0000001101111001 6
#901
00
b0000001101111010 6
#902
10
b0000001101111011 6
#903
00
b0000001101111100 6
#904
10
b0000001101111101 6
#905
00
b0000001101111110 6
#906
10
b0000001101111111 6
#907
00
b0000001110000000 6
#908
10
b0000001110000001 6
#909
00
b0000001110000010 6
#910
10
b0000001110000011 6
#911
00
b0000001110000100 6
#912
10
b0000001110000101 6
#913
00
b0000001110000110 6
#914
10
b0000001110000111 6
#915
00
b0000001110001000 6
#916
10
b0000001110001001 6
#917
00
b0000001110001010 6
#918
10
b0000001110001011 6
#919
00
b0000001110001100 6
#920
10
b0000001110001101 6
#921
00
b0000001110001110 6
#922
10
b0000001110001111 6
#923
00
b0000001110010000 6
#924
10
b0000001110010001 6
#925
00
b0000001110010010 6
#926
10
b0000001110010011 6
#927
00
b0000001110010100 6
#928
10
b0000001110010101 6
#929
00
b0000001110010110 6
#930
10
b0000001110010111 6
#931
00
b0000001110011000 6
#932
10
b0000001110011001 6
#933
00
b0000001110011010 6
#934
10
b0000001110011011 6
#935
00
b0000001110011100 6
#936
10
b0000001110011101 6
#937
00
b0000001110011110 6
#938
10
b0000001110011111 6
#939
00
b0000001110100000 6
#940
10
b0000001110100001 6
#941
00
b0000001110100010 6
#942
10
b0000001110100011 6
#943
00
b0000001110100100 6
#944
10
b0000001110100101 6
#945
00
b0000001110100110 6
#946
10
b0000001110100111 6
#947
00
b0000001110101000 6
#948
10
b0000001110101001 6
#949
00
b0000001110101010 6
#950
10
b0000001110101011 6
#951
00
b0000001110101100 6
#952
10
b0000001110101101 6
#953
00
b0000001110101110 6
#954
10
b0000001110101111 6
#955
00
b0000001110110000 6
#956
10
b0000001110110001 6
#957
00
b0000001110110010 6
#958
10
b0000001110110011 6
#959
00
b0000001110110100 6
#960
10
b0000001110110101 6
#961
00
b0000001110110110 6
#962
10
b0000001110110111 6
#963
00
b0000001110111000 6
#964
10
b0000001110111001 6
#965
00
b0000001110111010 6
#966
10
b0000001110111011 6
#967
00
b0000001110111100 6
#968
10
b0000001110111101 6
#969
00
b0000001110111110 6
#970
10
b0000001110111111 6
#971
00
b0000001111000000 6
#972
10
b0000001111000001 6
