Efinix/Titanium/Ti180MIPI25GRxHDMIV101/la1_waveform.vcd
#0 $dumpon
$date today $end
$timescale 1 ns $end
$scope module top $end
$var wire 13 0 MCsiRxController/MCsi2Decoder/rFrameWidthCnt $end
$var wire 1 1 MCsiRxController/MCsi2Decoder/rHsValid $end
$var wire 8 2 MCsiRxController/MCsi2Decoder/rEcc $end
$var wire 1 3 MCsiRxController/MCsi2Decoder/qFtiRe $end
$var wire 1 4 MCsiRxController/MCsi2Decoder/qWidthMaxCke $end
$var wire 6 5 MCsiRxController/MCsi2Decoder/rDatatype $end
$var wire 20 6 MCsiRxController/MCsi2Decoder/wFtiRd $end
$var wire 16 7 MCsiRxController/MCsi2Decoder/rWordcnt $end
$var wire 1 8 MCsiRxController/MCsi2Decoder/qFtiLs $end
$var wire 2 9 MCsiRxController/MCsi2Decoder/wFtiRvd $end
$var wire 3 a MCsiRxController/MCsi2Decoder/rHsSt $end
$upscope $end
$enddefinitions $end
#0
$dumpvars
b0000000000000 0
01
b00000000 2
03
04
b000000 5
b00000000001111111111 6
b0000000000000000 7
08
b00 9
b000 a
$end
#2046
13
#2048
b00010000000000000000 6
18
b11 9
#2049
b00000000000000011110 6
08
b001 a
#2050
b011110 5
b00000001010000001111 6
b010 a
#2051
b00010100 2
b00000000000010000000 6
b0000111100000000 7
b011 a
#2052
b0000000000001 0
11
#2053
b0000000000010 0
#2054
b0000000000011 0
#2055
b0000000000100 0
#2056
b0000000000101 0
#2057
b0000000000110 0
#2058
b0000000000111 0
#2059
b0000000001000 0
#2060
b0000000001001 0
#2061
b0000000001010 0
#2062
b0000000001011 0
#2063
b0000000001100 0
#2064
b0000000001101 0
#2065
b0000000001110 0
#2066
b0000000001111 0
#2067
b0000000010000 0
#2068
b0000000010001 0
#2069
b0000000010010 0
#2070
b0000000010011 0
#2071
b0000000010100 0
#2072
b0000000010101 0
#2073
b0000000010110 0
#2074
b0000000010111 0
#2075
b0000000011000 0
#2076
b0000000011001 0
#2077
b0000000011010 0
#2078
b0000000011011 0
#2079
b0000000011100 0
#2080
b0000000011101 0
#2081
b0000000011110 0
#2082
b0000000011111 0
#2083
b0000000100000 0
#2084
b0000000100001 0
#2085
b0000000100010 0
#2086
b0000000100011 0
#2087
b0000000100100 0
#2088
b0000000100101 0
#2089
b0000000100110 0
#2090
b0000000100111 0
#2091
b0000000101000 0
#2092
b0000000101001 0
#2093
b0000000101010 0
#2094
b0000000101011 0
#2095
b0000000101100 0
#2096
b0000000101101 0
#2097
b0000000101110 0
#2098
b0000000101111 0
#2099
b0000000110000 0
#2100
b0000000110001 0
#2101
b0000000110010 0
#2102
b0000000110011 0
#2103
b0000000110100 0
#2104
b0000000110101 0
#2105
b0000000110110 0
#2106
b0000000110111 0
#2107
b0000000111000 0
#2108
b0000000111001 0
#2109
b0000000111010 0
#2110
b0000000111011 0
#2111
b0000000111100 0
#2112
b0000000111101 0
#2113
b0000000111110 0
#2114
b0000000111111 0
#2115
b0000001000000 0
#2116
b0000001000001 0
#2117
b0000001000010 0
#2118
b0000001000011 0
#2119
b0000001000100 0
#2120
b0000001000101 0
#2121
b0000001000110 0
#2122
b0000001000111 0
#2123
b0000001001000 0
#2124
b0000001001001 0
#2125
b0000001001010 0
#2126
b0000001001011 0
#2127
b0000001001100 0
#2128
b0000001001101 0
#2129
b0000001001110 0
#2130
b0000001001111 0
#2131
b0000001010000 0
#2132
b0000001010001 0
#2133
b0000001010010 0
#2134
b0000001010011 0
#2135
b0000001010100 0
#2136
b0000001010101 0
#2137
b0000001010110 0
#2138
b0000001010111 0
#2139
b0000001011000 0
#2140
b0000001011001 0
#2141
b0000001011010 0
#2142
b0000001011011 0
#2143
b0000001011100 0
#2144
b0000001011101 0
#2145
b0000001011110 0
#2146
b0000001011111 0
#2147
b0000001100000 0
#2148
b0000001100001 0
#2149
b0000001100010 0
#2150
b0000001100011 0
#2151
b0000001100100 0
#2152
b0000001100101 0
#2153
b0000001100110 0
#2154
b0000001100111 0
#2155
b0000001101000 0
#2156
b0000001101001 0
#2157
b0000001101010 0
#2158
b0000001101011 0
#2159
b0000001101100 0
#2160
b0000001101101 0
#2161
b0000001101110 0
#2162
b0000001101111 0
#2163
b0000001110000 0
#2164
b0000001110001 0
#2165
b0000001110010 0
#2166
b0000001110011 0
#2167
b0000001110100 0
#2168
b0000001110101 0
#2169
b0000001110110 0
#2170
b0000001110111 0
#2171
b0000001111000 0
#2172
b0000001111001 0
#2173
b0000001111010 0
#2174
b0000001111011 0
#2175
b0000001111100 0
#2176
b0000001111101 0
#2177
b0000001111110 0
#2178
b0000001111111 0
#2179
b0000010000000 0
#2180
b0000010000001 0
#2181
b0000010000010 0
#2182
b0000010000011 0
#2183
b0000010000100 0
#2184
b0000010000101 0
#2185
b0000010000110 0
#2186
b0000010000111 0
#2187
b0000010001000 0
#2188
b0000010001001 0
#2189
b0000010001010 0
#2190
b0000010001011 0
#2191
b0000010001100 0
#2192
b0000010001101 0
#2193
b0000010001110 0
#2194
b0000010001111 0
#2195
b0000010010000 0
#2196
b0000010010001 0
#2197
b0000010010010 0
#2198
b0000010010011 0
#2199
b0000010010100 0
#2200
b0000010010101 0
#2201
b0000010010110 0
#2202
b0000010010111 0
#2203
b0000010011000 0
#2204
b0000010011001 0
#2205
b0000010011010 0
#2206
b0000010011011 0
#2207
b0000010011100 0
#2208
b0000010011101 0
#2209
b0000010011110 0
#2210
b0000010011111 0
#2211
b0000010100000 0
#2212
b0000010100001 0
#2213
b0000010100010 0
#2214
b0000010100011 0
#2215
b0000010100100 0
#2216
b0000010100101 0
#2217
b0000010100110 0
#2218
b0000010100111 0
#2219
b0000010101000 0
#2220
b0000010101001 0
#2221
b0000010101010 0
#2222
b0000010101011 0
#2223
b0000010101100 0
#2224
b0000010101101 0
#2225
b0000010101110 0
#2226
b0000010101111 0
#2227
b0000010110000 0
#2228
b0000010110001 0
#2229
b0000010110010 0
#2230
b0000010110011 0
#2231
b0000010110100 0
#2232
b0000010110101 0
#2233
b0000010110110 0
#2234
b0000010110111 0
#2235
b0000010111000 0
#2236
b0000010111001 0
#2237
b0000010111010 0
#2238
b0000010111011 0
#2239
b0000010111100 0
#2240
b0000010111101 0
#2241
b0000010111110 0
#2242
b0000010111111 0
#2243
b0000011000000 0
#2244
b0000011000001 0
#2245
b0000011000010 0
#2246
b0000011000011 0
#2247
b0000011000100 0
#2248
b0000011000101 0
#2249
b0000011000110 0
#2250
b0000011000111 0
#2251
b0000011001000 0
#2252
b0000011001001 0
#2253
b0000011001010 0
#2254
b0000011001011 0
#2255
b0000011001100 0
#2256
b0000011001101 0
#2257
b0000011001110 0
#2258
b0000011001111 0
#2259
b0000011010000 0
#2260
b0000011010001 0
#2261
b0000011010010 0
#2262
b0000011010011 0
#2263
b0000011010100 0
#2264
b0000011010101 0
#2265
b0000011010110 0
#2266
b0000011010111 0
#2267
b0000011011000 0
#2268
b0000011011001 0
#2269
b0000011011010 0
#2270
b0000011011011 0
#2271
b0000011011100 0
#2272
b0000011011101 0
#2273
b0000011011110 0
#2274
b0000011011111 0
#2275
b0000011100000 0
#2276
b0000011100001 0
#2277
b0000011100010 0
#2278
b0000011100011 0
#2279
b0000011100100 0
#2280
b0000011100101 0
#2281
b0000011100110 0
#2282
b0000011100111 0
#2283
b0000011101000 0
#2284
b0000011101001 0
#2285
b0000011101010 0
#2286
b0000011101011 0
#2287
b0000011101100 0
#2288
b0000011101101 0
#2289
b0000011101110 0
#2290
b0000011101111 0
#2291
b0000011110000 0
#2292
b0000011110001 0
#2293
b0000011110010 0
#2294
b0000011110011 0
#2295
b0000011110100 0
#2296
b0000011110101 0
#2297
b0000011110110 0
#2298
b0000011110111 0
#2299
b0000011111000 0
#2300
b0000011111001 0
#2301
b0000011111010 0
#2302
b0000011111011 0
#2303
b0000011111100 0
#2304
b0000011111101 0
#2305
b0000011111110 0
#2306
b0000011111111 0
#2307
b0000100000000 0
#2308
b0000100000001 0
#2309
b0000100000010 0
#2310
b0000100000011 0
#2311
b0000100000100 0
#2312
b0000100000101 0
#2313
b0000100000110 0
#2314
b0000100000111 0
#2315
b0000100001000 0
#2316
b0000100001001 0
#2317
b0000100001010 0
#2318
b0000100001011 0
#2319
b0000100001100 0
#2320
b0000100001101 0
#2321
b0000100001110 0
#2322
b0000100001111 0
#2323
b0000100010000 0
#2324
b0000100010001 0
#2325
b0000100010010 0
#2326
b0000100010011 0
#2327
b0000100010100 0
#2328
b0000100010101 0
#2329
b0000100010110 0
#2330
b0000100010111 0
#2331
b0000100011000 0
#2332
b0000100011001 0
#2333
b0000100011010 0
#2334
b0000100011011 0
#2335
b0000100011100 0
#2336
b0000100011101 0
#2337
b0000100011110 0
#2338
b0000100011111 0
#2339
b0000100100000 0
#2340
b0000100100001 0
#2341
b0000100100010 0
#2342
b0000100100011 0
#2343
b0000100100100 0
#2344
b0000100100101 0
#2345
b0000100100110 0
#2346
b0000100100111 0
#2347
b0000100101000 0
#2348
b0000100101001 0
#2349
b0000100101010 0
#2350
b0000100101011 0
#2351
b0000100101100 0
#2352
b0000100101101 0
#2353
b0000100101110 0
#2354
b0000100101111 0
#2355
b0000100110000 0
#2356
b0000100110001 0
#2357
b0000100110010 0
#2358
b0000100110011 0
#2359
b0000100110100 0
#2360
b0000100110101 0
#2361
b0000100110110 0
#2362
b0000100110111 0
#2363
b0000100111000 0
#2364
b0000100111001 0
#2365
b0000100111010 0
#2366
b0000100111011 0
#2367
b0000100111100 0
#2368
b0000100111101 0
#2369
b0000100111110 0
#2370
b0000100111111 0
#2371
b0000101000000 0
#2372
b0000101000001 0
#2373
b0000101000010 0
#2374
b0000101000011 0
#2375
b0000101000100 0
#2376
b0000101000101 0
#2377
b0000101000110 0
#2378
b0000101000111 0
#2379
b0000101001000 0
#2380
b0000101001001 0
#2381
b0000101001010 0
#2382
b0000101001011 0
#2383
b0000101001100 0
#2384
b0000101001101 0
#2385
b0000101001110 0
#2386
b0000101001111 0
#2387
b0000101010000 0
#2388
b0000101010001 0
#2389
b0000101010010 0
#2390
b0000101010011 0
#2391
b0000101010100 0
#2392
b0000101010101 0
#2393
b0000101010110 0
#2394
b0000101010111 0
#2395
b0000101011000 0
#2396
b0000101011001 0
#2397
b0000101011010 0
#2398
b0000101011011 0
#2399
b0000101011100 0
#2400
b0000101011101 0
#2401
b0000101011110 0
#2402
b0000101011111 0
#2403
b0000101100000 0
#2404
b0000101100001 0
#2405
b0000101100010 0
#2406
b0000101100011 0
#2407
b0000101100100 0
#2408
b0000101100101 0
#2409
b0000101100110 0
#2410
b0000101100111 0
#2411
b0000101101000 0
#2412
b0000101101001 0
#2413
b0000101101010 0
#2414
b0000101101011 0
#2415
b0000101101100 0
#2416
b0000101101101 0
#2417
b0000101101110 0
#2418
b0000101101111 0
#2419
b0000101110000 0
#2420
b0000101110001 0
#2421
b0000101110010 0
#2422
b0000101110011 0
#2423
b0000101110100 0
#2424
b0000101110101 0
#2425
b0000101110110 0
#2426
b0000101110111 0
#2427
b0000101111000 0
#2428
b0000101111001 0
#2429
b0000101111010 0
#2430
b0000101111011 0
#2431
b0000101111100 0
#2432
b0000101111101 0
#2433
b0000101111110 0
#2434
b0000101111111 0
#2435
b0000110000000 0
#2436
b0000110000001 0
#2437
b0000110000010 0
#2438
b0000110000011 0
#2439
b0000110000100 0
#2440
b0000110000101 0
#2441
b0000110000110 0
#2442
b0000110000111 0
#2443
b0000110001000 0
#2444
b0000110001001 0
#2445
b0000110001010 0
#2446
b0000110001011 0
#2447
b0000110001100 0
#2448
b0000110001101 0
#2449
b0000110001110 0
#2450
b0000110001111 0
#2451
b0000110010000 0
#2452
b0000110010001 0
#2453
b0000110010010 0
#2454
b0000110010011 0
#2455
b0000110010100 0
#2456
b0000110010101 0
#2457
b0000110010110 0
#2458
b0000110010111 0
#2459
b0000110011000 0
#2460
b0000110011001 0
#2461
b0000110011010 0
#2462
b0000110011011 0
#2463
b0000110011100 0
#2464
b0000110011101 0
#2465
b0000110011110 0
#2466
b0000110011111 0
#2467
b0000110100000 0
#2468
b0000110100001 0
#2469
b0000110100010 0
#2470
b0000110100011 0
#2471
b0000110100100 0
#2472
b0000110100101 0
#2473
b0000110100110 0
#2474
b0000110100111 0
#2475
b0000110101000 0
#2476
b0000110101001 0
#2477
b0000110101010 0
#2478
b0000110101011 0
#2479
b0000110101100 0
#2480
b0000110101101 0
#2481
b0000110101110 0
#2482
b0000110101111 0
#2483
b0000110110000 0
#2484
b0000110110001 0
#2485
b0000110110010 0
#2486
b0000110110011 0
#2487
b0000110110100 0
#2488
b0000110110101 0
#2489
b0000110110110 0
#2490
b0000110110111 0
#2491
b0000110111000 0
#2492
b0000110111001 0
#2493
b0000110111010 0
#2494
b0000110111011 0
#2495
b0000110111100 0
#2496
b0000110111101 0
#2497
b0000110111110 0
#2498
b0000110111111 0
#2499
b0000111000000 0
#2500
b0000111000001 0
#2501
b0000111000010 0
#2502
b0000111000011 0
#2503
b0000111000100 0
#2504
b0000111000101 0
#2505
b0000111000110 0
#2506
b0000111000111 0
#2507
b0000111001000 0
#2508
b0000111001001 0
#2509
b0000111001010 0
#2510
b0000111001011 0
#2511
b0000111001100 0
#2512
b0000111001101 0
#2513
b0000111001110 0
#2514
b0000111001111 0
#2515
b0000111010000 0
#2516
b0000111010001 0
#2517
b0000111010010 0
#2518
b0000111010011 0
#2519
b0000111010100 0
#2520
b0000111010101 0
#2521
b0000111010110 0
#2522
b0000111010111 0
#2523
b0000111011000 0
#2524
b0000111011001 0
#2525
b0000111011010 0
#2526
b0000111011011 0
#2527
b0000111011100 0
#2528
b0000111011101 0
#2529
b0000111011110 0
#2530
b0000111011111 0
#2531
b0000111100000 0
#2532
b0000111100001 0
#2533
b0000111100010 0
#2534
b0000111100011 0
#2535
b0000111100100 0
#2536
b0000111100101 0
#2537
b0000111100110 0
#2538
b0000111100111 0
#2539
b0000111101000 0
#2540
b0000111101001 0
#2541
b0000111101010 0
#2542
b0000111101011 0
#2543
b0000111101100 0
#2544
b0000111101101 0
#2545
b0000111101110 0
#2546
b0000111101111 0
#2547
b0000111110000 0
#2548
b0000111110001 0
#2549
b0000111110010 0
#2550
b0000111110011 0
#2551
b0000111110100 0
#2552
b0000111110101 0
#2553
b0000111110110 0
#2554
b0000111110111 0
#2555
b0000111111000 0
#2556
b0000111111001 0
#2557
b0000111111010 0
#2558
b0000111111011 0
#2559
b0000111111100 0
#2560
b0000111111101 0
#2561
b0000111111110 0
#2562
b0000111111111 0
#2563
b0001000000000 0
#2564
b0001000000001 0
#2565
b0001000000010 0
#2566
b0001000000011 0
#2567
b0001000000100 0
#2568
b0001000000101 0
#2569
b0001000000110 0
#2570
b0001000000111 0
#2571
b0001000001000 0
#2572
b0001000001001 0
#2573
b0001000001010 0
#2574
b0001000001011 0
#2575
b0001000001100 0
#2576
b0001000001101 0
#2577
b0001000001110 0
#2578
b0001000001111 0
#2579
b0001000010000 0
#2580
b0001000010001 0
#2581
b0001000010010 0
#2582
b0001000010011 0
#2583
b0001000010100 0
#2584
b0001000010101 0
#2585
b0001000010110 0
#2586
b0001000010111 0
#2587
b0001000011000 0
#2588
b0001000011001 0
#2589
b0001000011010 0
#2590
b0001000011011 0
#2591
b0001000011100 0
#2592
b0001000011101 0
#2593
b0001000011110 0
#2594
b0001000011111 0
#2595
b0001000100000 0
#2596
b0001000100001 0
#2597
b0001000100010 0
#2598
b0001000100011 0
#2599
b0001000100100 0
#2600
b0001000100101 0
#2601
b0001000100110 0
#2602
b0001000100111 0
#2603
b0001000101000 0
#2604
b0001000101001 0
#2605
b0001000101010 0
#2606
b0001000101011 0
#2607
b0001000101100 0
#2608
b0001000101101 0
#2609
b0001000101110 0
#2610
b0001000101111 0
#2611
b0001000110000 0
#2612
b0001000110001 0
#2613
b0001000110010 0
#2614
b0001000110011 0
#2615
b0001000110100 0
#2616
b0001000110101 0
#2617
b0001000110110 0
#2618
b0001000110111 0
#2619
b0001000111000 0
#2620
b0001000111001 0
#2621
b0001000111010 0
#2622
b0001000111011 0
#2623
b0001000111100 0
#2624
b0001000111101 0
#2625
b0001000111110 0
#2626
b0001000111111 0
#2627
b0001001000000 0
#2628
b0001001000001 0
#2629
b0001001000010 0
#2630
b0001001000011 0
#2631
b0001001000100 0
#2632
b0001001000101 0
#2633
b0001001000110 0
#2634
b0001001000111 0
#2635
b0001001001000 0
#2636
b0001001001001 0
#2637
b0001001001010 0
#2638
b0001001001011 0
#2639
b0001001001100 0
#2640
b0001001001101 0
#2641
b0001001001110 0
#2642
b0001001001111 0
#2643
b0001001010000 0
#2644
b0001001010001 0
#2645
b0001001010010 0
#2646
b0001001010011 0
#2647
b0001001010100 0
#2648
b0001001010101 0
#2649
b0001001010110 0
#2650
b0001001010111 0
#2651
b0001001011000 0
#2652
b0001001011001 0
#2653
b0001001011010 0
#2654
b0001001011011 0
#2655
b0001001011100 0
#2656
b0001001011101 0
#2657
b0001001011110 0
#2658
b0001001011111 0
#2659
b0001001100000 0
#2660
b0001001100001 0
#2661
b0001001100010 0
#2662
b0001001100011 0
#2663
b0001001100100 0
#2664
b0001001100101 0
#2665
b0001001100110 0
#2666
b0001001100111 0
#2667
b0001001101000 0
#2668
b0001001101001 0
#2669
b0001001101010 0
#2670
b0001001101011 0
#2671
b0001001101100 0
#2672
b0001001101101 0
#2673
b0001001101110 0
#2674
b0001001101111 0
#2675
b0001001110000 0
#2676
b0001001110001 0
#2677
b0001001110010 0
#2678
b0001001110011 0
#2679
b0001001110100 0
#2680
b0001001110101 0
#2681
b0001001110110 0
#2682
b0001001110111 0
#2683
b0001001111000 0
#2684
b0001001111001 0
#2685
b0001001111010 0
#2686
b0001001111011 0
#2687
b0001001111100 0
#2688
b0001001111101 0
#2689
b0001001111110 0
#2690
b0001001111111 0
#2691
b0001010000000 0
#2692
b0001010000001 0
#2693
b0001010000010 0
#2694
b0001010000011 0
#2695
b0001010000100 0
#2696
b0001010000101 0
#2697
b0001010000110 0
#2698
b0001010000111 0
#2699
b0001010001000 0
#2700
b0001010001001 0
#2701
b0001010001010 0
#2702
b0001010001011 0
#2703
b0001010001100 0
#2704
b0001010001101 0
#2705
b0001010001110 0
#2706
b0001010001111 0
#2707
b0001010010000 0
#2708
b0001010010001 0
#2709
b0001010010010 0
#2710
b0001010010011 0
#2711
b0001010010100 0
#2712
b0001010010101 0
#2713
b0001010010110 0
#2714
b0001010010111 0
#2715
b0001010011000 0
#2716
b0001010011001 0
#2717
b0001010011010 0
#2718
b0001010011011 0
#2719
b0001010011100 0
#2720
b0001010011101 0
#2721
b0001010011110 0
#2722
b0001010011111 0
#2723
b0001010100000 0
#2724
b0001010100001 0
#2725
b0001010100010 0
#2726
b0001010100011 0
#2727
b0001010100100 0
#2728
b0001010100101 0
#2729
b0001010100110 0
#2730
b0001010100111 0
#2731
b0001010101000 0
#2732
b0001010101001 0
#2733
b0001010101010 0
#2734
b0001010101011 0
#2735
b0001010101100 0
#2736
b0001010101101 0
#2737
b0001010101110 0
#2738
b0001010101111 0
#2739
b0001010110000 0
#2740
b0001010110001 0
#2741
b0001010110010 0
#2742
b0001010110011 0
#2743
b0001010110100 0
#2744
b0001010110101 0
#2745
b0001010110110 0
#2746
b0001010110111 0
#2747
b0001010111000 0
#2748
b0001010111001 0
#2749
b0001010111010 0
#2750
b0001010111011 0
#2751
b0001010111100 0
#2752
b0001010111101 0
#2753
b0001010111110 0
#2754
b0001010111111 0
#2755
b0001011000000 0
#2756
b0001011000001 0
#2757
b0001011000010 0
#2758
b0001011000011 0
#2759
b0001011000100 0
#2760
b0001011000101 0
#2761
b0001011000110 0
#2762
b0001011000111 0
#2763
b0001011001000 0
#2764
b0001011001001 0
#2765
b0001011001010 0
#2766
b0001011001011 0
#2767
b0001011001100 0
#2768
b0001011001101 0
#2769
b0001011001110 0
#2770
b0001011001111 0
#2771
b0001011010000 0
#2772
b0001011010001 0
#2773
b0001011010010 0
#2774
b0001011010011 0
#2775
b0001011010100 0
#2776
b0001011010101 0
#2777
b0001011010110 0
#2778
b0001011010111 0
#2779
b0001011011000 0
#2780
b0001011011001 0
#2781
b0001011011010 0
#2782
b0001011011011 0
#2783
b0001011011100 0
#2784
b0001011011101 0
#2785
b0001011011110 0
#2786
b0001011011111 0
#2787
b0001011100000 0
#2788
b0001011100001 0
#2789
b0001011100010 0
#2790
b0001011100011 0
#2791
b0001011100100 0
#2792
b0001011100101 0
#2793
b0001011100110 0
#2794
b0001011100111 0
#2795
b0001011101000 0
#2796
b0001011101001 0
#2797
b0001011101010 0
#2798
b0001011101011 0
#2799
b0001011101100 0
#2800
b0001011101101 0
#2801
b0001011101110 0
#2802
b0001011101111 0
#2803
b0001011110000 0
#2804
b0001011110001 0
#2805
b0001011110010 0
#2806
b0001011110011 0
#2807
b0001011110100 0
#2808
b0001011110101 0
#2809
b0001011110110 0
#2810
b0001011110111 0
#2811
b0001011111000 0
#2812
b0001011111001 0
#2813
b0001011111010 0
#2814
b0001011111011 0
#2815
b0001011111100 0
#2816
b0001011111101 0
#2817
b0001011111110 0
#2818
b0001011111111 0
#2819
b0001100000000 0
#2820
b0001100000001 0
#2821
b0001100000010 0
#2822
b0001100000011 0
#2823
b0001100000100 0
#2824
b0001100000101 0
#2825
b0001100000110 0
#2826
b0001100000111 0
#2827
b0001100001000 0
#2828
b0001100001001 0
#2829
b0001100001010 0
#2830
b0001100001011 0
#2831
b0001100001100 0
#2832
b0001100001101 0
#2833
b0001100001110 0
#2834
b0001100001111 0
#2835
b0001100010000 0
#2836
b0001100010001 0
#2837
b0001100010010 0
#2838
b0001100010011 0
#2839
b0001100010100 0
#2840
b0001100010101 0
#2841
b0001100010110 0
#2842
b0001100010111 0
#2843
b0001100011000 0
#2844
b0001100011001 0
#2845
b0001100011010 0
#2846
b0001100011011 0
#2847
b0001100011100 0
#2848
b0001100011101 0
#2849
b0001100011110 0
#2850
b0001100011111 0
#2851
b0001100100000 0
#2852
b0001100100001 0
#2853
b0001100100010 0
#2854
b0001100100011 0
#2855
b0001100100100 0
#2856
b0001100100101 0
#2857
b0001100100110 0
#2858
b0001100100111 0
#2859
b0001100101000 0
#2860
b0001100101001 0
#2861
b0001100101010 0
#2862
b0001100101011 0
#2863
b0001100101100 0
#2864
b0001100101101 0
#2865
b0001100101110 0
#2866
b0001100101111 0
#2867
b0001100110000 0
#2868
b0001100110001 0
#2869
b0001100110010 0
#2870
b0001100110011 0
#2871
b0001100110100 0
#2872
b0001100110101 0
#2873
b0001100110110 0
#2874
b0001100110111 0
#2875
b0001100111000 0
#2876
b0001100111001 0
#2877
b0001100111010 0
#2878
b0001100111011 0
#2879
b0001100111100 0
#2880
b0001100111101 0
#2881
b0001100111110 0
#2882
b0001100111111 0
#2883
b0001101000000 0
#2884
b0001101000001 0
#2885
b0001101000010 0
#2886
b0001101000011 0
#2887
b0001101000100 0
#2888
b0001101000101 0
#2889
b0001101000110 0
#2890
b0001101000111 0
#2891
b0001101001000 0
#2892
b0001101001001 0
#2893
b0001101001010 0
#2894
b0001101001011 0
#2895
b0001101001100 0
#2896
b0001101001101 0
#2897
b0001101001110 0
#2898
b0001101001111 0
#2899
b0001101010000 0
#2900
b0001101010001 0
#2901
b0001101010010 0
#2902
b0001101010011 0
#2903
b0001101010100 0
#2904
b0001101010101 0
#2905
b0001101010110 0
#2906
b0001101010111 0
#2907
b0001101011000 0
#2908
b0001101011001 0
#2909
b0001101011010 0
#2910
b0001101011011 0
#2911
b0001101011100 0
#2912
b0001101011101 0
#2913
b0001101011110 0
#2914
b0001101011111 0
#2915
b0001101100000 0
#2916
b0001101100001 0
#2917
b0001101100010 0
#2918
b0001101100011 0
#2919
b0001101100100 0
#2920
b0001101100101 0
#2921
b0001101100110 0
#2922
b0001101100111 0
#2923
b0001101101000 0
#2924
b0001101101001 0
#2925
b0001101101010 0
#2926
b0001101101011 0
#2927
b0001101101100 0
#2928
b0001101101101 0
#2929
b0001101101110 0
#2930
b0001101101111 0
#2931
b0001101110000 0
#2932
b0001101110001 0
#2933
b0001101110010 0
#2934
b0001101110011 0
#2935
b0001101110100 0
#2936
b0001101110101 0
#2937
b0001101110110 0
#2938
b0001101110111 0
#2939
b0001101111000 0
#2940
b0001101111001 0
#2941
b0001101111010 0
#2942
b0001101111011 0
#2943
b0001101111100 0
#2944
b0001101111101 0
#2945
b0001101111110 0
#2946
b0001101111111 0
#2947
b0001110000000 0
#2948
b0001110000001 0
#2949
b0001110000010 0
#2950
b0001110000011 0
#2951
b0001110000100 0
#2952
b0001110000101 0
#2953
b0001110000110 0
#2954
b0001110000111 0
#2955
b0001110001000 0
#2956
b0001110001001 0
#2957
b0001110001010 0
#2958
b0001110001011 0
#2959
b0001110001100 0
#2960
b0001110001101 0
#2961
b0001110001110 0
#2962
b0001110001111 0
#2963
b0001110010000 0
#2964
b0001110010001 0
#2965
b0001110010010 0
#2966
b0001110010011 0
#2967
b0001110010100 0
#2968
b0001110010101 0
#2969
b0001110010110 0
#2970
b0001110010111 0
#2971
b0001110011000 0
#2972
b0001110011001 0
#2973
b0001110011010 0
#2974
b0001110011011 0
#2975
b0001110011100 0
#2976
b0001110011101 0
#2977
b0001110011110 0
#2978
b0001110011111 0
#2979
b0001110100000 0
#2980
b0001110100001 0
#2981
b0001110100010 0
#2982
b0001110100011 0
#2983
b0001110100100 0
#2984
b0001110100101 0
#2985
b0001110100110 0
#2986
b0001110100111 0
#2987
b0001110101000 0
#2988
b0001110101001 0
#2989
b0001110101010 0
#2990
b0001110101011 0
#2991
b0001110101100 0
#2992
b0001110101101 0
#2993
b0001110101110 0
#2994
b0001110101111 0
#2995
b0001110110000 0
#2996
b0001110110001 0
#2997
b0001110110010 0
#2998
b0001110110011 0
#2999
b0001110110100 0
#3000
b0001110110101 0
#3001
b0001110110110 0
#3002
b0001110110111 0
#3003
b0001110111000 0
#3004
b0001110111001 0
#3005
b0001110111010 0
#3006
b0001110111011 0
#3007
b0001110111100 0
#3008
b0001110111101 0
#3009
b0001110111110 0
#3010
b0001110111111 0
#3011
b0001111000000 0
#3012
b0001111000001 0
#3013
b0001111000010 0
#3014
b0001111000011 0
#3015
b0001111000100 0
#3016
b0001111000101 0
#3017
b0001111000110 0
#3018
b0001111000111 0
#3019
b0001111001000 0
#3020
b0001111001001 0
#3021
b0001111001010 0
#3022
b0001111001011 0
#3023
b0001111001100 0
#3024
b0001111001101 0
#3025
b0001111001110 0
#3026
b0001111001111 0
#3027
b0001111010000 0
#3028
b0001111010001 0
#3029
b0001111010010 0
#3030
b0001111010011 0
#3031
b0001111010100 0
#3032
b0001111010101 0
#3033
b0001111010110 0
#3034
b0001111010111 0
#3035
b0001111011000 0
#3036
b0001111011001 0
#3037
b0001111011010 0
#3038
b0001111011011 0
#3039
b0001111011100 0
#3040
b0001111011101 0
#3041
b0001111011110 0
#3042
b0001111011111 0
#3043
b0001111100000 0
#3044
b0001111100001 0
#3045
b0001111100010 0
#3046
b0001111100011 0
#3047
b0001111100100 0
#3048
b0001111100101 0
#3049
b0001111100110 0
#3050
b0001111100111 0
#3051
b0001111101000 0
#3052
b0001111101001 0
#3053
b0001111101010 0
#3054
b0001111101011 0
#3055
b0001111101100 0
#3056
b0001111101101 0
#3057
b0001111101110 0
#3058
b0001111101111 0
#3059
b0001111110000 0
#3060
b0001111110001 0
#3061
b0001111110010 0
#3062
b0001111110011 0
#3063
b0001111110100 0
#3064
b0001111110101 0
#3065
b0001111110110 0
#3066
b0001111110111 0
#3067
b0001111111000 0
#3068
b0001111111001 0
#3069
b0001111111010 0
#3070
b0001111111011 0
#3071
b0001111111100 0
#3072
b0001111111101 0
#3073
b0001111111110 0
#3074
b0001111111111 0
#3075
b0010000000000 0
#3076
b0010000000001 0
#3077
b0010000000010 0
#3078
b0010000000011 0
#3079
b0010000000100 0
#3080
b0010000000101 0
#3081
b0010000000110 0
#3082
b0010000000111 0
#3083
b0010000001000 0
#3084
b0010000001001 0
#3085
b0010000001010 0
#3086
b0010000001011 0
#3087
b0010000001100 0
#3088
b0010000001101 0
#3089
b0010000001110 0
#3090
b0010000001111 0
#3091
b0010000010000 0
#3092
b0010000010001 0
#3093
b0010000010010 0
#3094
b0010000010011 0
#3095
b0010000010100 0
#3096
b0010000010101 0
#3097
b0010000010110 0
#3098
b0010000010111 0
#3099
b0010000011000 0
#3100
b0010000011001 0
#3101
b0010000011010 0
#3102
b0010000011011 0
#3103
b0010000011100 0
#3104
b0010000011101 0
#3105
b0010000011110 0
#3106
b0010000011111 0
#3107
b0010000100000 0
#3108
b0010000100001 0
#3109
b0010000100010 0
#3110
b0010000100011 0
#3111
b0010000100100 0
#3112
b0010000100101 0
#3113
b0010000100110 0
#3114
b0010000100111 0
#3115
b0010000101000 0
#3116
b0010000101001 0
#3117
b0010000101010 0
#3118
b0010000101011 0
#3119
b0010000101100 0
#3120
b0010000101101 0
#3121
b0010000101110 0
#3122
b0010000101111 0
#3123
b0010000110000 0
#3124
b0010000110001 0
#3125
b0010000110010 0
#3126
b0010000110011 0
#3127
b0010000110100 0
#3128
b0010000110101 0
#3129
b0010000110110 0
#3130
b0010000110111 0
#3131
b0010000111000 0
#3132
b0010000111001 0
#3133
b0010000111010 0
#3134
b0010000111011 0
#3135
b0010000111100 0
#3136
b0010000111101 0
#3137
b0010000111110 0
#3138
b0010000111111 0
#3139
b0010001000000 0
#3140
b0010001000001 0
#3141
b0010001000010 0
#3142
b0010001000011 0
#3143
b0010001000100 0
#3144
b0010001000101 0
#3145
b0010001000110 0
#3146
b0010001000111 0
#3147
b0010001001000 0
#3148
b0010001001001 0
#3149
b0010001001010 0
#3150
b0010001001011 0
#3151
b0010001001100 0
#3152
b0010001001101 0
