Efinix/Titanium/Ti180MIPI25GRxHDMIV101/la1_waveform.vcd
#0 $dumpon
$date today $end
$timescale 1 ns $end
$scope module top $end
$var wire 13 0 MCsiRxController/MCsi2Decoder/rFrameWidthCnt $end
$var wire 16 1 MCsiRxController/MCsi2Decoder/rHsWordCnt $end
$var wire 32 2 MCsiRxController/MCsi2Decoder/rHsPixel $end
$var wire 1 3 MCsiRxController/MCsi2Decoder/qWidthMaxCke $end
$var wire 2 4 MCsiRxController/MCsi2Decoder/rHsSt $end
$var wire 6 5 MCsiRxController/MCsi2Decoder/rHsDatatype $end
$var wire 1 6 MCsiRxController/MCsi2Decoder/rHsValid $end
$var wire 1 7 MCsiRxController/MCsi2Decoder/wFtifull[0] $end
$upscope $end
$enddefinitions $end
#0
$dumpvars
b0010111101000 0
b0100000000000010 1
b00000000000000001111000011100000 2
03
b11 4
b101000 5
16
17
$end
#2
b101010 5
#3
b0010111101010 0
b00000000000000000000000011111111 2
#26
b00000000000000000000000000000000 2
b000001 5
06
07
#93
b0010111101011 0
b00000000000000000101110000000001 2
16
#94
b0010111101100 0
b00000000000000000000010001001110 2
#95
b0010111101101 0
b00000000000000001111111111111111 2
#96
b0010111101110 0
#97
b0010111101111 0
#98
b0010111110000 0
#99
b0010111110001 0
#100
b0010111110010 0
#101
b0010111110011 0
#102
b0010111110100 0
#103
b0010111110101 0
#104
b0010111110110 0
#105
b0010111110111 0
#106
b0010111111000 0
#107
b0010111111001 0
#108
b0010111111010 0
#109
b0010111111011 0
#110
b0010111111100 0
#111
b0010111111101 0
#112
b0010111111110 0
#113
b0010111111111 0
b00000000000000001000001110000011 2
#114
b0011000000000 0
b00000000000000001111111111111111 2
#115
b0011000000001 0
b00000000000000000000000011111111 2
#116
06
#117
b00000000000000000000000000000000 2
#148
b0000000000000 0
b0000000000000000 1
b00 4
b000000 5
#208
b01 4
#209
b0000000001011101 1
b10 4
#210
b0100111001011101 1
b11 4
#211
b0000000000001 0
b00000000000000001111111111111111 2
16
#212
b0000000000010 0
#213
b0000000000011 0
#214
b0000000000100 0
#215
b0000000000101 0
#216
b0000000000110 0
#217
b0000000000111 0
#218
b0000000001000 0
#219
b0000000001001 0
#220
b0000000001010 0
#221
b0000000001011 0
#222
b0000000001100 0
#223
b0000000001101 0
#224
b0000000001110 0
#225
b0000000001111 0
#226
b0000000010000 0
#227
b0000000010001 0
#228
b0000000010010 0
#229
b0000000010011 0
b00000000000000001000001110000011 2
#230
b0000000010100 0
b00000000000000001111111111111111 2
#231
b0000000010101 0
b00000000000000000000000011111111 2
#232
06
#233
b00000000000000000000000000000000 2
#239
b010101 5
#242
b0000000000000 0
b0000000000000000 1
b00 4
b000000 5
#269
b0000000010101 0
b0100111001011101 1
b11 4
#325
b0000000010110 0
b00000000000000000000000000011110 2
16
#326
b0000000010111 0
b00000000000000000001010000001111 2
#327
b0000000011000 0
b00000000000000000000000010000000 2
#328
b0000000011001 0
#329
b0000000011010 0
#330
b0000000011011 0
#331
b0000000011100 0
#332
b0000000011101 0
#333
b0000000011110 0
#334
b0000000011111 0
#335
b0000000100000 0
#336
b0000000100001 0
#337
b0000000100010 0
#338
b0000000100011 0
#339
b0000000100100 0
#340
b0000000100101 0
#341
b0000000100110 0
#342
b0000000100111 0
#343
b0000000101000 0
#344
b0000000101001 0
#345
b0000000101010 0
#346
b0000000101011 0
#347
b0000000101100 0
#348
b0000000101101 0
#349
b0000000101110 0
#350
b0000000101111 0
#351
b0000000110000 0
#352
b0000000110001 0
#353
b0000000110010 0
#354
b0000000110011 0
#355
b0000000110100 0
#356
b0000000110101 0
#357
b0000000110110 0
#358
b0000000110111 0
#359
b0000000111000 0
#360
b0000000111001 0
#361
b0000000111010 0
#362
b0000000111011 0
#363
b0000000111100 0
#364
b0000000111101 0
#365
b0000000111110 0
#366
b0000000111111 0
#367
b0000001000000 0
#368
b0000001000001 0
#369
b0000001000010 0
#370
b0000001000011 0
#371
b0000001000100 0
#372
b0000001000101 0
#373
b0000001000110 0
#374
b0000001000111 0
#375
b0000001001000 0
#376
b0000001001001 0
#377
b0000001001010 0
#378
b0000001001011 0
#379
b0000001001100 0
#380
b0000001001101 0
#381
b0000001001110 0
#382
b0000001001111 0
#383
b0000001010000 0
#384
b0000001010001 0
#385
b0000001010010 0
#386
b0000001010011 0
#387
b0000001010100 0
#388
b0000001010101 0
#389
b0000001010110 0
#390
b0000001010111 0
#391
b0000001011000 0
#392
b0000001011001 0
#393
b0000001011010 0
#394
b0000001011011 0
#395
b0000001011100 0
#396
b0000001011101 0
#397
b0000001011110 0
#398
b0000001011111 0
#399
b0000001100000 0
#400
b0000001100001 0
#401
b0000001100010 0
#402
b0000001100011 0
#403
b0000001100100 0
#404
b0000001100101 0
#405
b0000001100110 0
#406
b0000001100111 0
#407
b0000001101000 0
#408
b0000001101001 0
#409
b0000001101010 0
#410
b0000001101011 0
#411
b0000001101100 0
#412
b0000001101101 0
#413
b0000001101110 0
#414
b0000001101111 0
#415
b0000001110000 0
#416
b0000001110001 0
#417
b0000001110010 0
#418
b0000001110011 0
#419
b0000001110100 0
#420
b0000001110101 0
#421
b0000001110110 0
#422
b0000001110111 0
#423
b0000001111000 0
#424
b0000001111001 0
#425
b0000001111010 0
#426
b0000001111011 0
#427
b0000001111100 0
#428
b0000001111101 0
#429
b0000001111110 0
#430
b0000001111111 0
#431
b0000010000000 0
#432
b0000010000001 0
#433
b0000010000010 0
#434
b0000010000011 0
#435
b0000010000100 0
#436
b0000010000101 0
#437
b0000010000110 0
#438
b0000010000111 0
#439
b0000010001000 0
#440
b0000010001001 0
#441
b0000010001010 0
#442
b0000010001011 0
#443
b0000010001100 0
#444
b0000010001101 0
#445
b0000010001110 0
#446
b0000010001111 0
#447
b0000010010000 0
#448
b0000010010001 0
#449
b0000010010010 0
#450
b0000010010011 0
#451
b0000010010100 0
#452
b0000010010101 0
#453
b0000010010110 0
#454
b0000010010111 0
#455
b0000010011000 0
#456
b0000010011001 0
#457
b0000010011010 0
#458
b0000010011011 0
#459
b0000010011100 0
#460
b0000010011101 0
#461
b0000010011110 0
#462
b0000010011111 0
#463
b0000010100000 0
#464
b0000010100001 0
#465
b0000010100010 0
#466
b0000010100011 0
#467
b0000010100100 0
#468
b0000010100101 0
#469
b0000010100110 0
#470
b0000010100111 0
#471
b0000010101000 0
#472
b0000010101001 0
#473
b0000010101010 0
#474
b0000010101011 0
#475
b0000010101100 0
#476
b0000010101101 0
#477
b0000010101110 0
#478
b0000010101111 0
b101111 5
06
17
#480
b000000 5
16
07
#481
b0000001000000 0
b0000000000000000 1
b00000000000000000000000000000000 2
b00 4
#484
b0000010110010 0
b0100111001011101 1
b00000000000000000000000010000000 2
b11 4
b110010 5
06
17
#507
b000000 5
16
07
#508
b0000011001101 0
#509
b0000011001110 0
#510
b0000011001111 0
#511
b0000011010000 0
#512
b0000011010001 0
#513
b0000011010010 0
#514
b0000011010011 0
#515
b0000011010100 0
#516
b0000011010101 0
#517
b0000011010110 0
#518
b0000011010111 0
#519
b0000011011000 0
#520
b0000011011001 0
#521
b0000011011010 0
#522
b0000011011011 0
#523
b0000011011100 0
#524
b0000011011101 0
#525
b0000011011110 0
#526
b0000011011111 0
#527
b0000011100000 0
#528
b0000011100001 0
#529
b0000011100010 0
#530
b0000011100011 0
#531
b0000011100100 0
#532
b0000011100101 0
#533
b0000011100110 0
#534
b0000011100111 0
#535
b0000011101000 0
#536
b0000011101001 0
#537
b0000011101010 0
#538
b0000011101011 0
#539
b0000011101100 0
#540
b0000011101101 0
#541
b0000011101110 0
#542
b0000011101111 0
#543
b0000011110000 0
#544
b0000011110001 0
#545
b0000011110010 0
#546
b0000011110011 0
#547
b0000011110100 0
#548
b0000011110101 0
#549
b0000011110110 0
#550
b0000011110111 0
#551
b0000011111000 0
#552
b0000011111001 0
#553
b0000011111010 0
#554
b0000011111011 0
#555
b0000011111100 0
#556
b0000011111101 0
#557
b0000011111110 0
#558
b0000011111111 0
#559
b0000100000000 0
#560
b0000100000001 0
#561
b0000100000010 0
#562
b0000100000011 0
#563
b0000100000100 0
#564
b0000100000101 0
#565
b0000100000110 0
#566
b0000100000111 0
#567
b0000100001000 0
#568
b0000100001001 0
#569
b0000100001010 0
#570
b0000100001011 0
#571
b0000100001100 0
#572
b0000100001101 0
#573
b0000100001110 0
#574
b0000100001111 0
#575
b0000100010000 0
#576
b0000100010001 0
#577
b0000100010010 0
#578
b0000100010011 0
#579
b0000100010100 0
#580
b0000100010101 0
#581
b0000100010110 0
#582
b0000100010111 0
#583
b0000100011000 0
#584
b0000100011001 0
#585
b0000100011010 0
#586
b0000100011011 0
#587
b0000100011100 0
#588
b0000100011101 0
#589
b0000100011110 0
#590
b0000100011111 0
#591
b0000100100000 0
#592
b0000100100001 0
#593
b0000100100010 0
#594
b0000100100011 0
#595
b0000100100100 0
#596
b0000100100101 0
#597
b0000100100110 0
#598
b0000100100111 0
#599
b0000100101000 0
#600
b0000100101001 0
#601
b0000100101010 0
#602
b0000100101011 0
#603
b0000100101100 0
#604
b0000100101101 0
#605
b0000100101110 0
#606
b0000100101111 0
#607
b0000100110000 0
#608
b0000100110001 0
#609
b0000100110010 0
#610
b0000100110011 0
#611
b0000100110100 0
#612
b0000100110101 0
#613
b0000100110110 0
#614
b0000100110111 0
#615
b0000100111000 0
#616
b0000100111001 0
#617
b0000100111010 0
#618
b0000100111011 0
#619
b0000100111100 0
#620
b0000100111101 0
#621
b0000100111110 0
#622
b0000100111111 0
#623
b0000101000000 0
#624
b0000101000001 0
#625
b0000101000010 0
#626
b0000101000011 0
#627
b0000101000100 0
#628
b0000101000101 0
#629
b0000101000110 0
#630
b0000101000111 0
#631
b0000101001000 0
#632
b0000101001001 0
#633
b0000101001010 0
#634
b0000101001011 0
#635
b0000101001100 0
#636
b0000101001101 0
#637
b0000101001110 0
#638
b0000101001111 0
#639
b0000101010000 0
#640
b0000101010001 0
#641
b0000101010010 0
#642
b0000101010011 0
#643
b0000101010100 0
#644
b0000101010101 0
#645
b0000101010110 0
#646
b0000101010111 0
#647
b0000101011000 0
#648
b0000101011001 0
#649
b0000101011010 0
#650
b0000101011011 0
#651
b0000101011100 0
#652
b0000101011101 0
#653
b0000101011110 0
#654
b0000101011111 0
#655
b0000101100000 0
#656
b0000101100001 0
#657
b0000101100010 0
#658
b0000101100011 0
#659
b0000101100100 0
#660
b0000101100101 0
#661
b0000101100110 0
#662
b0000101100111 0
#663
b0000101101000 0
#664
b0000101101001 0
#665
b0000101101010 0
#666
b0000101101011 0
#667
b0000101101100 0
#668
b0000101101101 0
#669
b0000101101110 0
#670
b0000101101111 0
#671
b0000101110000 0
#672
b0000101110001 0
#673
b0000101110010 0
#674
b0000101110011 0
#675
b0000101110100 0
#676
b0000101110101 0
#677
b0000101110110 0
#678
b0000101110111 0
#679
b0000101111000 0
#680
b0000101111001 0
#681
b0000101111010 0
#682
b0000101111011 0
#683
b0000101111100 0
#684
b0000101111101 0
#685
b0000101111110 0
#686
b0000101111111 0
#687
b0000110000000 0
#688
b0000110000001 0
#689
b0000110000010 0
#690
b0000110000011 0
#691
b0000110000100 0
#692
b0000110000101 0
#693
b0000110000110 0
#694
b0000110000111 0
#695
b0000110001000 0
#696
b0000110001001 0
#697
b0000110001010 0
#698
b0000110001011 0
#699
b0000110001100 0
#700
b0000110001101 0
#701
b0000110001110 0
#702
b0000110001111 0
#703
b0000110010000 0
#704
b0000110010001 0
#705
b0000110010010 0
#706
b0000001000000 0
b0000000000000000 1
b00000000000000000000000000000000 2
b00 4
#708
b010011 5
06
17
#709
b0000110010011 0
b0100111001011101 1
b00000000000000000000000010000000 2
b11 4
#712
b0000110010110 0
b010110 5
#735
b000000 5
16
07
#736
b0000110110001 0
#737
b0000110110010 0
#738
b0000110110011 0
#739
b0000110110100 0
#740
b0000110110101 0
#741
b0000110110110 0
#742
b0000110110111 0
#743
b0000110111000 0
#744
b0000110111001 0
#745
b0000110111010 0
#746
b0000110111011 0
#747
b0000110111100 0
#748
b0000110111101 0
#749
b0000110111110 0
#750
b0000110111111 0
#751
b0000111000000 0
#752
b0000111000001 0
#753
b0000111000010 0
#754
b0000111000011 0
#755
b0000111000100 0
#756
b0000111000101 0
#757
b0000111000110 0
#758
b0000111000111 0
#759
b0000111001000 0
#760
b0000111001001 0
#761
b0000111001010 0
#762
b0000111001011 0
#763
b0000111001100 0
#764
b0000111001101 0
#765
b0000111001110 0
#766
b0000111001111 0
#767
b0000111010000 0
#768
b0000111010001 0
#769
b0000111010010 0
#770
b0000111010011 0
#771
b0000111010100 0
#772
b0000111010101 0
#773
b0000111010110 0
#774
b0000111010111 0
#775
b0000111011000 0
#776
b0000111011001 0
#777
b0000111011010 0
#778
b0000111011011 0
#779
b0000111011100 0
#780
b0000111011101 0
#781
b0000111011110 0
#782
b0000111011111 0
#783
b0000111100000 0
#784
b0000111100001 0
#785
b0000111100010 0
#786
b0000111100011 0
#787
b0000111100100 0
#788
b0000111100101 0
#789
b0000111100110 0
#790
b0000111100111 0
#791
b0000111101000 0
#792
b0000111101001 0
#793
b0000111101010 0
#794
b0000111101011 0
#795
b0000111101100 0
#796
b0000111101101 0
#797
b0000111101110 0
#798
b0000111101111 0
#799
b0000111110000 0
#800
b0000111110001 0
#801
b0000111110010 0
#802
b0000111110011 0
#803
b0000111110100 0
#804
b0000111110101 0
#805
b0000111110110 0
#806
b0000111110111 0
#807
b0000111111000 0
#808
b0000111111001 0
#809
b0000111111010 0
#810
b0000111111011 0
#811
b0000111111100 0
#812
b0000111111101 0
#813
b0000111111110 0
#814
b0000111111111 0
#815
b0001000000000 0
#816
b0001000000001 0
#817
b0001000000010 0
#818
b0001000000011 0
#819
b0001000000100 0
#820
b0001000000101 0
#821
b0001000000110 0
#822
b0001000000111 0
#823
b0001000001000 0
#824
b0001000001001 0
#825
b0001000001010 0
#826
b0001000001011 0
#827
b0001000001100 0
#828
b0001000001101 0
#829
b0001000001110 0
#830
b0001000001111 0
#831
b0001000010000 0
#832
b0001000010001 0
#833
b0001000010010 0
#834
b0001000010011 0
#835
b0001000010100 0
#836
b0001000010101 0
#837
b0001000010110 0
#838
b0001000010111 0
#839
b0001000011000 0
#840
b0001000011001 0
#841
b0001000011010 0
#842
b0001000011011 0
#843
b0001000011100 0
#844
b0001000011101 0
#845
b0001000011110 0
#846
b0001000011111 0
#847
b0001000100000 0
#848
b0001000100001 0
#849
b0001000100010 0
#850
b0001000100011 0
#851
b0001000100100 0
#852
b0001000100101 0
#853
b0001000100110 0
#854
b0001000100111 0
#855
b0001000101000 0
#856
b0001000101001 0
#857
b0001000101010 0
#858
b0001000101011 0
#859
b0001000101100 0
#860
b0001000101101 0
#861
b0001000101110 0
#862
b0001000101111 0
#863
b0001000110000 0
#864
b0001000110001 0
#865
b0001000110010 0
#866
b0001000110011 0
#867
b0001000110100 0
#868
b0001000110101 0
#869
b0001000110110 0
#870
b0001000110111 0
#871
b0001000111000 0
#872
b0001000111001 0
#873
b0001000111010 0
#874
b0001000111011 0
#875
b0001000111100 0
#876
b0001000111101 0
#877
b0001000111110 0
#878
b0001000111111 0
#879
b0001001000000 0
#880
b0001001000001 0
#881
b0001001000010 0
#882
b0001001000011 0
#883
b0001001000100 0
#884
b0001001000101 0
#885
b0001001000110 0
#886
b0001001000111 0
#887
b0001001001000 0
#888
b0001001001001 0
#889
b0001001001010 0
#890
b0001001001011 0
#891
b0001001001100 0
#892
b0001001001101 0
#893
b0001001001110 0
#894
b0001001001111 0
#895
b0001001010000 0
#896
b0001001010001 0
#897
b0001001010010 0
#898
b0001001010011 0
#899
b0001001010100 0
#900
b0001001010101 0
#901
b0001001010110 0
#902
b0001001010111 0
#903
b0001001011000 0
#904
b0001001011001 0
#905
b0001001011010 0
#906
b0001001011011 0
#907
b0001001011100 0
#908
b0001001011101 0
#909
b0001001011110 0
#910
b0001001011111 0
#911
b0001001100000 0
#912
b0001001100001 0
#913
b0001001100010 0
#914
b0001001100011 0
#915
b0001001100100 0
#916
b0001001100101 0
#917
b0001001100110 0
#918
b0001001100111 0
#919
b0001001101000 0
#920
b0001001101001 0
#921
b0000001000000 0
b0000000000000000 1
b00000000000000000000000000000000 2
b00 4
#923
b101010 5
#924
b0001001101010 0
b0100111001011101 1
b00000000000000000000000010000000 2
b11 4
#927
b0001001101101 0
b101101 5
#950
b000000 5
#951
b0001010001000 0
#952
b0001010001001 0
#953
b0001010001010 0
#954
b0001010001011 0
#955
b0001010001100 0
#956
b0001010001101 0
#957
b0001010001110 0
#958
b0001010001111 0
#959
b0001010010000 0
#960
b0001010010001 0
#961
b0001010010010 0
#962
b0001010010011 0
#963
b0001010010100 0
#964
b0001010010101 0
#965
b0001010010110 0
#966
b0001010010111 0
#967
b0001010011000 0
#968
b0001010011001 0
#969
b0001010011010 0
#970
b0001010011011 0
#971
b0001010011100 0
#972
b0001010011101 0
#973
b0001010011110 0
#974
b0001010011111 0
#975
b0001010100000 0
#976
b0001010100001 0
#977
b0001010100010 0
#978
b0001010100011 0
#979
b0001010100100 0
#980
b0001010100101 0
#981
b0001010100110 0
#982
b0001010100111 0
#983
b0001010101000 0
#984
b0001010101001 0
#985
b0001010101010 0
#986
b0001010101011 0
#987
b0001010101100 0
#988
b0001010101101 0
#989
b0001010101110 0
#990
b0001010101111 0
#991
b0001010110000 0
#992
b0001010110001 0
#993
b0001010110010 0
#994
b0001010110011 0
#995
b0001010110100 0
#996
b0001010110101 0
#997
b0001010110110 0
#998
b0001010110111 0
#999
b0001010111000 0
#1000
b0001010111001 0
#1001
b0001010111010 0
#1002
b0001010111011 0
#1003
b0001010111100 0
#1004
b0001010111101 0
#1005
b0001010111110 0
#1006
b0001010111111 0
#1007
b0001011000000 0
#1008
b0001011000001 0
#1009
b0001011000010 0
#1010
b0001011000011 0
#1011
b0001011000100 0
#1012
b0001011000101 0
#1013
b0001011000110 0
#1014
b0001011000111 0
#1015
b0001011001000 0
#1016
b0001011001001 0
#1017
b0001011001010 0
#1018
b0001011001011 0
#1019
b0001011001100 0
#1020
b0001011001101 0
#1021
b0001011001110 0
#1022
b0001011001111 0
#1023
b0001011010000 0
#1024
b0001011010001 0
#1025
b0001011010010 0
#1026
b0001011010011 0
#1027
b0001011010100 0
#1028
b0001011010101 0
#1029
b0001011010110 0
#1030
b0001011010111 0
#1031
b0001011011000 0
#1032
b0001011011001 0
#1033
b0001011011010 0
#1034
b0001011011011 0
#1035
b0001011011100 0
#1036
b0001011011101 0
#1037
b0001011011110 0
#1038
b0001011011111 0
#1039
b0001011100000 0
#1040
b0001011100001 0
#1041
b0001011100010 0
#1042
b0001011100011 0
#1043
b0001011100100 0
#1044
b0001011100101 0
#1045
b0001011100110 0
#1046
b0001011100111 0
#1047
b0001011101000 0
#1048
b0001011101001 0
#1049
b0001011101010 0
#1050
b0001011101011 0
#1051
b0001011101100 0
#1052
b0001011101101 0
#1053
b0001011101110 0
#1054
b0001011101111 0
#1055
b0001011110000 0
#1056
b0001011110001 0
#1057
b0001011110010 0
#1058
b0001011110011 0
#1059
b0001011110100 0
#1060
b0001011110101 0
#1061
b0001011110110 0
#1062
b0001011110111 0
#1063
b0001011111000 0
#1064
b0001011111001 0
#1065
b0001011111010 0
#1066
b0001011111011 0
#1067
b0001011111100 0
#1068
b0001011111101 0
#1069
b0001011111110 0
#1070
b0001011111111 0
#1071
b0001100000000 0
#1072
b0001100000001 0
#1073
b0001100000010 0
#1074
b0001100000011 0
#1075
b0001100000100 0
#1076
b0001100000101 0
#1077
b0001100000110 0
#1078
b0001100000111 0
#1079
b0001100001000 0
#1080
b0001100001001 0
#1081
b0001100001010 0
#1082
b0001100001011 0
#1083
b0001100001100 0
#1084
b0001100001101 0
#1085
b0001100001110 0
#1086
b0001100001111 0
#1087
b0001100010000 0
#1088
b0001100010001 0
#1089
b0001100010010 0
#1090
b0001100010011 0
#1091
b0001100010100 0
#1092
b0001100010101 0
#1093
b0001100010110 0
#1094
b0001100010111 0
#1095
b0001100011000 0
#1096
b0001100011001 0
#1097
b0001100011010 0
#1098
b0001100011011 0
#1099
b0001100011100 0
#1100
b0001100011101 0
#1101
b0001100011110 0
#1102
b0001100011111 0
#1103
b0001100100000 0
#1104
b0001100100001 0
#1105
b0001100100010 0
#1106
b0001100100011 0
#1107
b0001100100100 0
#1108
b0001100100101 0
#1109
b0001100100110 0
#1110
b0001100100111 0
#1111
b0001100101000 0
#1112
b0001100101001 0
#1113
b0001100101010 0
#1114
b0001100101011 0
#1115
b0001100101100 0
b101100 5
06
#1118
b0000001000000 0
b0000000000000000 1
b00000000000000000000000000000000 2
b00 4
b000000 5
16
#1145
b0001101001010 0
b0100111001011101 1
b00000000000000000000000010000000 2
b11 4
#1146
b0001101001011 0
#1147
b0001101001100 0
#1148
b0001101001101 0
#1149
b0001101001110 0
#1150
b0001101001111 0
#1151
b0001101010000 0
#1152
b0001101010001 0
#1153
b0001101010010 0
#1154
b0001101010011 0
#1155
b0001101010100 0
#1156
b0001101010101 0
#1157
b0001101010110 0
#1158
b0001101010111 0
#1159
b0001101011000 0
#1160
b0001101011001 0
#1161
b0001101011010 0
#1162
b0001101011011 0
#1163
b0001101011100 0
#1164
b0001101011101 0
#1165
b0001101011110 0
#1166
b0001101011111 0
#1167
b0001101100000 0
#1168
b0001101100001 0
#1169
b0001101100010 0
#1170
b0001101100011 0
#1171
b0001101100100 0
#1172
b0001101100101 0
#1173
b0001101100110 0
#1174
b0001101100111 0
#1175
b0001101101000 0
#1176
b0001101101001 0
#1177
b0001101101010 0
#1178
b0001101101011 0
#1179
b0001101101100 0
#1180
b0001101101101 0
#1181
b0001101101110 0
#1182
b0001101101111 0
#1183
b0001101110000 0
#1184
b0001101110001 0
#1185
b0001101110010 0
#1186
b0001101110011 0
#1187
b0001101110100 0
#1188
b0001101110101 0
#1189
b0001101110110 0
#1190
b0001101110111 0
#1191
b0001101111000 0
#1192
b0001101111001 0
#1193
b0001101111010 0
#1194
b0001101111011 0
#1195
b0001101111100 0
#1196
b0001101111101 0
#1197
b0001101111110 0
#1198
b0001101111111 0
#1199
b0001110000000 0
#1200
b0001110000001 0
#1201
b0001110000010 0
#1202
b0001110000011 0
#1203
b0001110000100 0
#1204
b0001110000101 0
#1205
b0001110000110 0
#1206
b0001110000111 0
#1207
b0001110001000 0
#1208
b0001110001001 0
#1209
b0001110001010 0
#1210
b0001110001011 0
#1211
b0001110001100 0
#1212
b0001110001101 0
#1213
b0001110001110 0
#1214
b0001110001111 0
#1215
b0001110010000 0
#1216
b0001110010001 0
#1217
b0001110010010 0
#1218
b0001110010011 0
#1219
b0001110010100 0
#1220
b0001110010101 0
#1221
b0001110010110 0
#1222
b0001110010111 0
#1223
b0001110011000 0
#1224
b0001110011001 0
#1225
b0001110011010 0
#1226
b0001110011011 0
#1227
b0001110011100 0
#1228
b0001110011101 0
#1229
b0001110011110 0
#1230
b0001110011111 0
#1231
b0001110100000 0
#1232
b0001110100001 0
#1233
b0001110100010 0
#1234
b0001110100011 0
#1235
b0001110100100 0
#1236
b0001110100101 0
#1237
b0001110100110 0
#1238
b0001110100111 0
#1239
b0001110101000 0
#1240
b0001110101001 0
#1241
b0001110101010 0
#1242
b0001110101011 0
#1243
b0001110101100 0
#1244
b0001110101101 0
#1245
b0001110101110 0
#1246
b0001110101111 0
#1247
b0001110110000 0
#1248
b0001110110001 0
#1249
b0001110110010 0
#1250
b0001110110011 0
#1251
b0001110110100 0
#1252
b0001110110101 0
#1253
b0001110110110 0
#1254
b0001110110111 0
#1255
b0001110111000 0
#1256
b0001110111001 0
#1257
b0001110111010 0
#1258
b0001110111011 0
#1259
b0001110111100 0
#1260
b0001110111101 0
#1261
b0001110111110 0
#1262
b0001110111111 0
#1263
b0001111000000 0
#1264
b0001111000001 0
#1265
b0001111000010 0
#1266
b0001111000011 0
#1267
b0001111000100 0
#1268
b0001111000101 0
#1269
b0001111000110 0
#1270
b0001111000111 0
#1271
b0001111001000 0
#1272
b0001111001001 0
#1273
b0001111001010 0
#1274
b0001111001011 0
#1275
b0001111001100 0
#1276
b0001111001101 0
#1277
b0001111001110 0
#1278
b0001111001111 0
#1279
b0001111010000 0
#1280
b0001111010001 0
#1281
b0001111010010 0
#1282
b0001111010011 0
#1283
b0001111010100 0
#1284
b0001111010101 0
#1285
b0001111010110 0
#1286
b0001111010111 0
#1287
b0001111011000 0
#1288
b0001111011001 0
#1289
b0001111011010 0
#1290
b0001111011011 0
#1291
b0001111011100 0
#1292
b0001111011101 0
#1293
b0001111011110 0
#1294
b0001111011111 0
#1295
b0001111100000 0
#1296
b0001111100001 0
#1297
b0001111100010 0
#1298
b0001111100011 0
#1299
b0001111100100 0
#1300
b0001111100101 0
#1301
b0001111100110 0
#1302
b0001111100111 0
#1303
b0001111101000 0
#1304
b0001111101001 0
#1305
b0001111101010 0
#1306
b0001111101011 0
#1307
b0001111101100 0
#1308
b0001111101101 0
#1309
b0001111101110 0
#1310
b0001111101111 0
#1311
b0001111110000 0
#1312
b0001111110001 0
#1313
b0001111110010 0
#1314
b0001111110011 0
#1315
b0001111110100 0
#1316
b0001111110101 0
#1317
b0001111110110 0
#1318
b0001111110111 0
#1319
b0001111111000 0
#1320
b0001111111001 0
#1321
b0001111111010 0
#1322
b0001111111011 0
#1323
b0001111111100 0
#1324
b0001111111101 0
#1325
b0001111111110 0
#1326
b0001111111111 0
#1327
b0010000000000 0
#1328
b0010000000001 0
#1329
b0010000000010 0
#1330
b0010000000011 0
#1331
b0010000000100 0
#1332
b0010000000101 0
#1333
b0010000000110 0
#1334
b0010000000111 0
#1335
b0010000001000 0
#1336
b0010000001001 0
#1337
b0010000001010 0
#1338
b0010000001011 0
#1339
b0010000001100 0
#1340
b0010000001101 0
#1341
b0010000001110 0
#1342
b0010000001111 0
#1343
b0010000010000 0
#1344
b0010000010001 0
#1345
b0010000010010 0
#1346
b0010000010011 0
#1347
b0010000010100 0
#1348
b0010000010101 0
#1349
b0010000010110 0
#1350
b0010000010111 0
#1351
b0010000011000 0
#1352
b0010000011001 0
#1353
b0010000011010 0
#1354
b0010000011011 0
#1355
b0010000011100 0
#1356
b0010000011101 0
#1357
b0010000011110 0
#1358
b0010000011111 0
#1359
b0010000100000 0
#1360
b0000001000000 0
b0000000000000000 1
b00000000000000000000000000000000 2
b00 4
#1368
b100001 5
06
#1369
b0010000101010 0
b0100111001011101 1
b00000000000000000000000010000000 2
b11 4
b000000 5
16
#1370
b0010000101011 0
#1371
b0010000101100 0
#1372
b0010000101101 0
#1373
b0010000101110 0
#1374
b0010000101111 0
#1375
b0010000110000 0
#1376
b0010000110001 0
#1377
b0010000110010 0
#1378
b0010000110011 0
#1379
b0010000110100 0
#1380
b0010000110101 0
#1381
b0010000110110 0
#1382
b0010000110111 0
#1383
b0010000111000 0
#1384
b0010000111001 0
#1385
b0010000111010 0
#1386
b0010000111011 0
#1387
b0010000111100 0
#1388
b0010000111101 0
#1389
b0010000111110 0
#1390
b0010000111111 0
#1391
b0010001000000 0
#1392
b0010001000001 0
#1393
b0010001000010 0
#1394
b0010001000011 0
#1395
b0010001000100 0
#1396
b0010001000101 0
#1397
b0010001000110 0
#1398
b0010001000111 0
#1399
b0010001001000 0
#1400
b0010001001001 0
#1401
b0010001001010 0
#1402
b0010001001011 0
#1403
b0010001001100 0
#1404
b0010001001101 0
#1405
b0010001001110 0
#1406
b0010001001111 0
#1407
b0010001010000 0
#1408
b0010001010001 0
#1409
b0010001010010 0
#1410
b0010001010011 0
#1411
b0010001010100 0
#1412
b0010001010101 0
#1413
b0010001010110 0
#1414
b0010001010111 0
#1415
b0010001011000 0
#1416
b0010001011001 0
#1417
b0010001011010 0
#1418
b0010001011011 0
#1419
b0010001011100 0
#1420
b0010001011101 0
#1421
b0010001011110 0
#1422
b0010001011111 0
#1423
b0010001100000 0
#1424
b0010001100001 0
#1425
b0010001100010 0
#1426
b0010001100011 0
#1427
b0010001100100 0
#1428
b0010001100101 0
#1429
b0010001100110 0
#1430
b0010001100111 0
#1431
b0010001101000 0
#1432
b0010001101001 0
#1433
b0010001101010 0
#1434
b0010001101011 0
#1435
b0010001101100 0
#1436
b0010001101101 0
#1437
b0010001101110 0
#1438
b0010001101111 0
#1439
b0010001110000 0
#1440
b0010001110001 0
#1441
b0010001110010 0
#1442
b0010001110011 0
#1443
b0010001110100 0
#1444
b0010001110101 0
#1445
b0010001110110 0
#1446
b0010001110111 0
#1447
b0010001111000 0
#1448
b0010001111001 0
#1449
b0010001111010 0
#1450
b0010001111011 0
#1451
b0010001111100 0
#1452
b0010001111101 0
#1453
b0010001111110 0
#1454
b0010001111111 0
#1455
b0010010000000 0
#1456
b0010010000001 0
#1457
b0010010000010 0
#1458
b0010010000011 0
#1459
b0010010000100 0
#1460
b0010010000101 0
#1461
b0010010000110 0
#1462
b0010010000111 0
#1463
b0010010001000 0
#1464
b0010010001001 0
#1465
b0010010001010 0
#1466
b0010010001011 0
#1467
b0010010001100 0
#1468
b0010010001101 0
#1469
b0010010001110 0
#1470
b0010010001111 0
#1471
b0010010010000 0
#1472
b0010010010001 0
#1473
b0010010010010 0
#1474
b0010010010011 0
#1475
b0010010010100 0
#1476
b0010010010101 0
#1477
b0010010010110 0
#1478
b0010010010111 0
#1479
b0010010011000 0
#1480
b0010010011001 0
#1481
b0010010011010 0
#1482
b0010010011011 0
#1483
b0010010011100 0
#1484
b0010010011101 0
#1485
b0010010011110 0
#1486
b0010010011111 0
#1487
b0010010100000 0
#1488
b0010010100001 0
#1489
b0010010100010 0
#1490
b0010010100011 0
#1491
b0010010100100 0
#1492
b0010010100101 0
#1493
b0010010100110 0
#1494
b0010010100111 0
#1495
b0010010101000 0
#1496
b0010010101001 0
