Efinix/Trion/K5Stack10_MIDI/src/common/Serial/sim/UartRX_tb.vcd
$date
	Tue Aug 22 22:07:00 2023
$end
$version
	Icarus Verilog
$end
$timescale
	1s
$end
$scope module UartRX_tb $end
$var wire 1 ! wVd $end
$var wire 8 " wRd [7:0] $end
$var reg 1 # rCLK $end
$var reg 8 $ rCnt [7:0] $end
$var reg 1 % rRST $end
$var reg 10 & rUartRX [9:0] $end
$scope module UartRX $end
$var wire 1 # iCLK $end
$var wire 1 % iRST $end
$var wire 1 ' iUartRX $end
$var wire 1 ( oUartRxThru $end
$var wire 1 ! oVd $end
$var wire 8 ) oRd [7:0] $end
$var reg 1 * qBaudRateCntMaxCke $end
$var reg 1 + qBaudRateCntRst $end
$var reg 1 , qCenterCke $end
$var reg 1 - qRdCke $end
$var reg 1 . qSampCke $end
$var reg 1 / qVdCke $end
$var reg 4 0 rBaudRateCnt [3:0] $end
$var reg 4 1 rCenterCnt [3:0] $end
$var reg 8 2 rRd [7:0] $end
$var reg 4 3 rSampCnt [3:0] $end
$var reg 2 4 rState [1:0] $end
$var reg 1 5 rUartRxThru $end
$var reg 1 6 rVd $end
$scope function func_getwidth $end
$var reg 32 7 iVAL [31:0] $end
$var integer 32 8 i [31:0] $end
$upscope $end
$upscope $end
$scope task reset_init $end
$upscope $end
$upscope $end
$enddefinitions $end
#0
$dumpvars
bx 8
bx 7
x6
x5
bx 4
bx 3
bx 2
bx 1
bx 0
x/
x.
x-
x,
x+
x*
bx )
x(
x'
bx &
1%
bx $
0#
bx "
x!
$end
#1
0-
0,
1+
b0 4
b0 1
0!
06
1#
#2
1'
b1001110101 &
b0 $
0#
#3
0/
0.
0*
b0 0
b0 3
1(
15
1#
#4
0#
#5
1#
#6
0#
#7
1#
#8
0#
#9
1#
#10
b1 $
0#
0%
#11
1#
#12
b10 $
0#
#13
1#
#14
b11 $
0#
#15
1#
#16
b100 $
0#
#17
1#
#18
b101 $
0#
#19
1#
#20
b110 $
0#
#21
1#
#22
b111 $
0#
#23
1#
#24
b1000 $
0#
#25
1#
#26
0'
b11101011 &
b0 $
0#
#27
b1 4
0(
05
1#
#28
b1 $
0#
#29
b1 1
1#
#30
b10 $
0#
#31
b10 1
1#
#32
b11 $
0#
#33
b11 1
1#
#34
b100 $
0#
#35
1,
b100 1
1#
#36
b101 $
0#
#37
0,
0+
b10 4
b101 1
1#
#38
b110 $
0#
#39
b1 0
b0 1
1#
#40
b111 $
0#
#41
b10 0
1#
#42
b1000 $
0#
#43
b11 0
1#
#44
b111010111 &
b0 $
0#
#45
b100 0
1#
#46
b1 $
0#
#47
b101 0
1#
#48
b10 $
0#
#49
b110 0
1#
#50
b11 $
0#
#51
b111 0
1#
#52
b100 $
0#
#53
1-
1+
1*
b1000 0
1#
#54
b101 $
0#
#55
0-
0+
0*
b0xxxxxxx "
b0xxxxxxx )
b0 0
b1 3
bx0 2
1#
#56
b110 $
0#
#57
b1 0
1#
#58
b111 $
0#
#59
b10 0
1#
#60
b1000 $
0#
#61
b11 0
1#
#62
1'
b1110101111 &
b0 $
0#
#63
b100 0
1(
15
1#
#64
b1 $
0#
#65
b101 0
1#
#66
b10 $
0#
#67
b110 0
1#
#68
b11 $
0#
#69
b111 0
1#
#70
b100 $
0#
#71
1-
1+
1*
b1000 0
1#
#72
b101 $
0#
#73
0-
0+
0*
b10xxxxxx "
b10xxxxxx )
b0 0
b10 3
bx01 2
1#
#74
b110 $
0#
#75
b1 0
1#
#76
b111 $
0#
#77
b10 0
1#
#78
b1000 $
0#
#79
b11 0
1#
#80
b1101011111 &
b0 $
0#
#81
b100 0
1#
#82
b1 $
0#
#83
b101 0
1#
#84
b10 $
0#
#85
b110 0
1#
#86
b11 $
0#
#87
b111 0
1#
#88
b100 $
0#
#89
1-
1+
1*
b1000 0
1#
#90
b101 $
0#
#91
0-
0+
0*
b110xxxxx "
b110xxxxx )
b0 0
b11 3
bx011 2
1#
#92
b110 $
0#
#93
b1 0
1#
#94
b111 $
0#
#95
b10 0
1#
#96
b1000 $
0#
#97
b11 0
1#
#98
b1010111111 &
b0 $
0#
#99
b100 0
1#
#100
b1 $
0#
#101
b101 0
1#
#102
b10 $
0#
#103
b110 0
1#
#104
b11 $
0#
#105
b111 0
1#
#106
b100 $
0#
#107
1-
1+
1*
b1000 0
1#
#108
b101 $
0#
#109
0-
0+
0*
b1110xxxx "
b1110xxxx )
b0 0
b100 3
bx0111 2
1#
#110
b110 $
0#
#111
b1 0
1#
#112
b111 $
0#
#113
b10 0
1#
#114
b1000 $
0#
#115
b11 0
1#
#116
0'
b101111111 &
b0 $
0#
#117
0(
05
b100 0
1#
#118
b1 $
0#
#119
b101 0
1#
#120
b10 $
0#
#121
b110 0
1#
#122
b11 $
0#
#123
b111 0
1#
#124
b100 $
0#
#125
1-
1+
1*
b1000 0
1#
#126
b101 $
0#
#127
0-
0+
0*
b1110xxx "
b1110xxx )
b0 0
b101 3
bx01110 2
1#
#128
b110 $
0#
#129
b1 0
1#
#130
b111 $
0#
#131
b10 0
1#
#132
b1000 $
0#
#133
b11 0
1#
#134
1'
b1011111111 &
b0 $
0#
#135
b100 0
1(
15
1#
#136
b1 $
0#
#137
b101 0
1#
#138
b10 $
0#
#139
b110 0
1#
#140
b11 $
0#
#141
b111 0
1#
#142
b100 $
0#
#143
1-
1+
1*
b1000 0
1#
#144
b101 $
0#
#145
0-
0+
0*
b101110xx "
b101110xx )
b0 0
b110 3
bx011101 2
1#
#146
b110 $
0#
#147
b1 0
1#
#148
b111 $
0#
#149
b10 0
1#
#150
b1000 $
0#
#151
b11 0
1#
#152
0'
b111111111 &
b0 $
0#
#153
0(
05
b100 0
1#
#154
b1 $
0#
#155
b101 0
1#
#156
b10 $
0#
#157
b110 0
1#
#158
b11 $
0#
#159
b111 0
1#
#160
b100 $
0#
#161
1-
1+
1*
b1000 0
1#
#162
b101 $
0#
#163
0-
0+
0*
b101110x "
b101110x )
b0 0
b111 3
bx0111010 2
1#
#164
b110 $
0#
#165
b1 0
1#
#166
b111 $
0#
#167
b10 0
1#
#168
b1000 $
0#
#169
b11 0
1#
#170
1'
b1111111111 &
b0 $
0#
#171
b100 0
1(
15
1#
#172
b1 $
0#
#173
b101 0
1#
#174
b10 $
0#
#175
b110 0
1#
#176
b11 $
0#
#177
b111 0
1#
#178
b100 $
0#
#179
1-
1+
1*
b1000 0
1#
#180
b101 $
0#
#181
0-
0+
1.
0*
b10101110 "
b10101110 )
b0 0
b1000 3
b1110101 2
1#
#182
b110 $
0#
#183
b1 0
b11 4
1#
#184
b111 $
0#
#185
b10 0
1#
#186
b1000 $
0#
#187
b11 0
1#
#188
b0 $
0#
#189
b100 0
1#
#190
b1 $
0#
#191
b101 0
1#
#192
b10 $
0#
#193
b110 0
1#
#194
b11 $
0#
#195
b111 0
1#
#196
b100 $
0#
#197
1/
1+
1*
b1000 0
1#
#198
b101 $
0#
#199
0/
0.
0*
b0 0
b1001 3
1!
16
b0 4
1#
#200
b110 $
0#
#201
b0 3
0!
06
1#
#202
b111 $
0#
#203
1#
#204
b1000 $
0#
#205
1#
#206
b0 $
0#
#207
1#
#208
b1 $
0#
#209
1#
#210
b10 $
0#
#211
1#
#212
b11 $
0#
#213
1#
#214
b100 $
0#
#215
1#
#216
b101 $
0#
#217
1#
#218
b110 $
0#
#219
1#
#220
b111 $
0#
#221
1#
#222
b1000 $
0#
#223
1#
#224
b0 $
0#
#225
1#
#226
b1 $
0#
#227
1#
#228
b10 $
0#
#229
1#
#230
b11 $
0#
#231
1#
#232
b100 $
0#
#233
1#
#234
b101 $
0#
#235
1#
#236
b110 $
0#
#237
1#
#238
b111 $
0#
#239
1#
#240
b1000 $
0#
#241
1#
#242
b0 $
0#
#243
1#
#244
b1 $
0#
#245
1#
#246
b10 $
0#
#247
1#
#248
b11 $
0#
#249
1#
#250
b100 $
0#
#251
1#
#252
b101 $
0#
#253
1#
#254
b110 $
0#
#255
1#
#256
b111 $
0#
#257
1#
#258
b1000 $
0#
#259
1#
#260
b0 $
0#
#261
1#
#262
b1 $
0#
#263
1#
#264
b10 $
0#
#265
1#
#266
b11 $
0#
#267
1#
#268
b100 $
0#
#269
1#
#270
b101 $
0#
#271
1#
#272
b110 $
0#
#273
1#
#274
b111 $
0#
#275
1#
#276
b1000 $
0#
#277
1#
#278
b0 $
0#
#279
1#
#280
b1 $
0#
#281
1#
#282
b10 $
0#
#283
1#
#284
b11 $
0#
#285
1#
#286
b100 $
0#
#287
1#
#288
b101 $
0#
#289
1#
#290
b110 $
0#
#291
1#
#292
b111 $
0#
#293
1#
#294
b1000 $
0#
#295
1#
#296
b0 $
0#
#297
1#
#298
b1 $
0#
#299
1#
#300
b10 $
0#
#301
1#
#302
b11 $
0#
#303
1#
#304
b100 $
0#
#305
1#
#306
b101 $
0#
#307
1#
#308
b110 $
0#
#309
1#
#310
b111 $
0#
#311
1#
#312
b1000 $
0#
#313
1#
#314
b0 $
0#
#315
1#
#316
b1 $
0#
#317
1#
#318
b10 $
0#
#319
1#
#320
b11 $
0#
#321
1#
#322
b100 $
0#
#323
1#
#324
b101 $
0#
#325
1#
#326
b110 $
0#
#327
1#
#328
b111 $
0#
#329
1#
#330
b1000 $
0#
#331
1#
#332
b0 $
0#
#333
1#
#334
b1 $
0#
#335
1#
#336
b10 $
0#
#337
1#
#338
b11 $
0#
#339
1#
#340
b100 $
0#
#341
1#
#342
b101 $
0#
#343
1#
#344
b110 $
0#
#345
1#
#346
b111 $
0#
#347
1#
#348
b1000 $
0#
#349
1#
#350
b0 $
0#
#351
1#
#352
b1 $
0#
#353
1#
#354
b10 $
0#
#355
1#
#356
b11 $
0#
#357
1#
#358
b100 $
0#
#359
1#
#360
b101 $
0#
#361
1#
#362
b110 $
0#
#363
1#
#364
b111 $
0#
#365
1#
#366
b1000 $
0#
#367
1#
#368
b0 $
0#
#369
1#
#370
b1 $
0#
#371
1#
#372
b10 $
0#
#373
1#
#374
b11 $
0#
#375
1#
#376
b100 $
0#
#377
1#
#378
b101 $
0#
#379
1#
#380
b110 $
0#
#381
1#
#382
b111 $
0#
#383
1#
#384
b1000 $
0#
#385
1#
#386
b0 $
0#
#387
1#
#388
b1 $
0#
#389
1#
#390
b10 $
0#
#391
1#
#392
b11 $
0#
#393
1#
#394
b100 $
0#
#395
1#
#396
b101 $
0#
#397
1#
#398
b110 $
0#
#399
1#
#400
b111 $
0#
#401
1#
#402
b1000 $
0#
#403
1#
#404
b0 $
0#
#405
1#
#406
b1 $
0#
#407
1#
#408
b10 $
0#
#409
1#
#410
b11 $
0#
#411
1#
#412
b100 $
0#
#413
1#
#414
b101 $
0#
#415
1#
#416
b110 $
0#
#417
1#
#418
b111 $
0#
#419
1#
#420
b1000 $
0#
#421
1#
#422
b0 $
0#
#423
1#
#424
b1 $
0#
#425
1#
#426
b10 $
0#
#427
1#
#428
b11 $
0#
#429
1#
#430
b100 $
0#
#431
1#
#432
b101 $
0#
#433
1#
#434
b110 $
0#
#435
1#
#436
b111 $
0#
#437
1#
#438
b1000 $
0#
#439
1#
#440
b0 $
0#
#441
1#
#442
b1 $
0#
#443
1#
#444
b10 $
0#
#445
1#
#446
b11 $
0#
#447
1#
#448
b100 $
0#
#449
1#
#450
b101 $
0#
#451
1#
#452
b110 $
0#
#453
1#
#454
b111 $
0#
#455
1#
#456
b1000 $
0#
#457
1#
#458
b0 $
0#
#459
1#
#460
b1 $
0#
#461
1#
#462
b10 $
0#
#463
1#
#464
b11 $
0#
#465
1#
#466
b100 $
0#
#467
1#
#468
b101 $
0#
#469
1#
#470
b110 $
0#
#471
1#
#472
b111 $
0#
#473
1#
#474
b1000 $
0#
#475
1#
#476
b0 $
0#
#477
1#
#478
b1 $
0#
#479
1#
#480
b10 $
0#
#481
1#
#482
b11 $
0#
#483
1#
#484
b100 $
0#
#485
1#
#486
b101 $
0#
#487
1#
#488
b110 $
0#
#489
1#
#490
b111 $
0#
#491
1#
#492
b1000 $
0#
#493
1#
#494
b0 $
0#
#495
1#
#496
b1 $
0#
#497
1#
#498
b10 $
0#
#499
1#
#500
b11 $
0#
#501
1#
#502
b100 $
0#
#503
1#
#504
b101 $
0#
#505
1#
#506
b110 $
0#
#507
1#
#508
b111 $
0#
#509
1#
#510
b1000 $
0#
#511
1#
#512
b0 $
0#
#513
1#
#514
b1 $
0#
#515
1#
#516
b10 $
0#
#517
1#
#518
b11 $
0#
#519
1#
#520
b100 $
0#
#521
1#
#522
b101 $
0#
#523
1#
#524
b110 $
0#
#525
1#
#526
b111 $
0#
#527
1#
#528
b1000 $
0#
#529
1#
#530
b0 $
0#
#531
1#
#532
b1 $
0#
#533
1#
#534
b10 $
0#
#535
1#
#536
b11 $
0#
#537
1#
#538
b100 $
0#
#539
1#
#540
b101 $
0#
#541
1#
#542
b110 $
0#
#543
1#
#544
b111 $
0#
#545
1#
#546
b1000 $
0#
#547
1#
#548
b0 $
0#
#549
1#
#550
b1 $
0#
#551
1#
#552
b10 $
0#
#553
1#
#554
b11 $
0#
#555
1#
#556
b100 $
0#
#557
1#
#558
b101 $
0#
#559
1#
#560
b110 $
0#
#561
1#
#562
b111 $
0#
#563
1#
#564
b1000 $
0#
#565
1#
#566
b0 $
0#
#567
1#
#568
b1 $
0#
#569
1#
#570
b10 $
0#
#571
1#
#572
b11 $
0#
#573
1#
#574
b100 $
0#
#575
1#
#576
b101 $
0#
#577
1#
#578
b110 $
0#
#579
1#
#580
b111 $
0#
#581
1#
#582
b1000 $
0#
#583
1#
#584
b0 $
0#
#585
1#
#586
b1 $
0#
#587
1#
#588
b10 $
0#
#589
1#
#590
b11 $
0#
#591
1#
#592
b100 $
0#
#593
1#
#594
b101 $
0#
#595
1#
#596
b110 $
0#
#597
1#
#598
b111 $
0#
#599
1#
#600
b1000 $
0#
#601
1#
#602
b0 $
0#
#603
1#
#604
b1 $
0#
#605
1#
#606
b10 $
0#
#607
1#
#608
b11 $
0#
#609
1#
#610
b100 $
0#
#611
1#
#612
b101 $
0#
#613
1#
#614
b110 $
0#
#615
1#
#616
b111 $
0#
#617
1#
#618
b1000 $
0#
#619
1#
#620
b0 $
0#
#621
1#
#622
b1 $
0#
#623
1#
#624
b10 $
0#
#625
1#
#626
b11 $
0#
#627
1#
#628
b100 $
0#
#629
1#
#630
b101 $
0#
#631
1#
#632
b110 $
0#
#633
1#
#634
b111 $
0#
#635
1#
#636
b1000 $
0#
#637
1#
#638
b0 $
0#
#639
1#
#640
b1 $
0#
#641
1#
#642
b10 $
0#
#643
1#
#644
b11 $
0#
#645
1#
#646
b100 $
0#
#647
1#
#648
b101 $
0#
#649
1#
#650
b110 $
0#
#651
1#
#652
b111 $
0#
#653
1#
#654
b1000 $
0#
#655
1#
#656
b0 $
0#
#657
1#
#658
b1 $
0#
#659
1#
#660
b10 $
0#
#661
1#
#662
b11 $
0#
#663
1#
#664
b100 $
0#
#665
1#
#666
b101 $
0#
#667
1#
#668
b110 $
0#
#669
1#
#670
b111 $
0#
#671
1#
#672
b1000 $
0#
#673
1#
#674
b0 $
0#
#675
1#
#676
b1 $
0#
#677
1#
#678
b10 $
0#
#679
1#
#680
b11 $
0#
#681
1#
#682
b100 $
0#
#683
1#
#684
b101 $
0#
#685
1#
#686
b110 $
0#
#687
1#
#688
b111 $
0#
#689
1#
#690
b1000 $
0#
#691
1#
#692
b0 $
0#
#693
1#
#694
b1 $
0#
#695
1#
#696
b10 $
0#
#697
1#
#698
b11 $
0#
#699
1#
#700
b100 $
0#
#701
1#
#702
b101 $
0#
#703
1#
#704
b110 $
0#
#705
1#
#706
b111 $
0#
#707
1#
#708
b1000 $
0#
#709
1#
#710
b0 $
0#
#711
1#
#712
b1 $
0#
#713
1#
#714
b10 $
0#
#715
1#
#716
b11 $
0#
#717
1#
#718
b100 $
0#
#719
1#
#720
b101 $
0#
#721
1#
#722
b110 $
0#
#723
1#
#724
b111 $
0#
#725
1#
#726
b1000 $
0#
#727
1#
#728
b0 $
0#
#729
1#
#730
b1 $
0#
#731
1#
#732
b10 $
0#
#733
1#
#734
b11 $
0#
#735
1#
#736
b100 $
0#
#737
1#
#738
b101 $
0#
#739
1#
#740
b110 $
0#
#741
1#
#742
b111 $
0#
#743
1#
#744
b1000 $
0#
#745
1#
#746
b0 $
0#
#747
1#
#748
b1 $
0#
#749
1#
#750
b10 $
0#
#751
1#
#752
b11 $
0#
#753
1#
#754
b100 $
0#
#755
1#
#756
b101 $
0#
#757
1#
#758
b110 $
0#
#759
1#
#760
b111 $
0#
#761
1#
#762
b1000 $
0#
#763
1#
#764
b0 $
0#
#765
1#
#766
b1 $
0#
#767
1#
#768
b10 $
0#
#769
1#
#770
b11 $
0#
#771
1#
#772
b100 $
0#
#773
1#
#774
b101 $
0#
#775
1#
#776
b110 $
0#
#777
1#
#778
b111 $
0#
#779
1#
#780
b1000 $
0#
#781
1#
#782
b0 $
0#
#783
1#
#784
b1 $
0#
#785
1#
#786
b10 $
0#
#787
1#
#788
b11 $
0#
#789
1#
#790
b100 $
0#
#791
1#
#792
b101 $
0#
#793
1#
#794
b110 $
0#
#795
1#
#796
b111 $
0#
#797
1#
#798
b1000 $
0#
#799
1#
#800
b0 $
0#
#801
1#
#802
b1 $
0#
#803
1#
#804
b10 $
0#
#805
1#
#806
b11 $
0#
#807
1#
#808
b100 $
0#
#809
1#
#810
b101 $
0#
#811
1#
#812
b110 $
0#
#813
1#
#814
b111 $
0#
#815
1#
#816
b1000 $
0#
#817
1#
#818
b0 $
0#
#819
1#
#820
b1 $
0#
#821
1#
#822
b10 $
0#
#823
1#
#824
b11 $
0#
#825
1#
#826
b100 $
0#
#827
1#
#828
b101 $
0#
#829
1#
#830
b110 $
0#
#831
1#
#832
b111 $
0#
#833
1#
#834
b1000 $
0#
#835
1#
#836
b0 $
0#
#837
1#
#838
b1 $
0#
#839
1#
#840
b10 $
0#
#841
1#
#842
b11 $
0#
#843
1#
#844
b100 $
0#
#845
1#
#846
b101 $
0#
#847
1#
#848
b110 $
0#
#849
1#
#850
b111 $
0#
#851
1#
#852
b1000 $
0#
#853
1#
#854
b0 $
0#
#855
1#
#856
b1 $
0#
#857
1#
#858
b10 $
0#
#859
1#
#860
b11 $
0#
#861
1#
#862
b100 $
0#
#863
1#
#864
b101 $
0#
#865
1#
#866
b110 $
0#
#867
1#
#868
b111 $
0#
#869
1#
#870
b1000 $
0#
#871
1#
#872
b0 $
0#
#873
1#
#874
b1 $
0#
#875
1#
#876
b10 $
0#
#877
1#
#878
b11 $
0#
#879
1#
#880
b100 $
0#
#881
1#
#882
b101 $
0#
#883
1#
#884
b110 $
0#
#885
1#
#886
b111 $
0#
#887
1#
#888
b1000 $
0#
#889
1#
#890
b0 $
0#
#891
1#
#892
b1 $
0#
#893
1#
#894
b10 $
0#
#895
1#
#896
b11 $
0#
#897
1#
#898
b100 $
0#
#899
1#
#900
b101 $
0#
#901
1#
#902
b110 $
0#
#903
1#
#904
b111 $
0#
#905
1#
#906
b1000 $
0#
#907
1#
#908
b0 $
0#
#909
1#
#910
b1 $
0#
#911
1#
#912
b10 $
0#
#913
1#
#914
b11 $
0#
#915
1#
#916
b100 $
0#
#917
1#
#918
b101 $
0#
#919
1#
#920
b110 $
0#
#921
1#
#922
b111 $
0#
#923
1#
#924
b1000 $
0#
#925
1#
#926
b0 $
0#
#927
1#
#928
b1 $
0#
#929
1#
#930
b10 $
0#
#931
1#
#932
b11 $
0#
#933
1#
#934
b100 $
0#
#935
1#
#936
b101 $
0#
#937
1#
#938
b110 $
0#
#939
1#
#940
b111 $
0#
#941
1#
#942
b1000 $
0#
#943
1#
#944
b0 $
0#
#945
1#
#946
b1 $
0#
#947
1#
#948
b10 $
0#
#949
1#
#950
b11 $
0#
#951
1#
#952
b100 $
0#
#953
1#
#954
b101 $
0#
#955
1#
#956
b110 $
0#
#957
1#
#958
b111 $
0#
#959
1#
#960
b1000 $
0#
#961
1#
#962
b0 $
0#
#963
1#
#964
b1 $
0#
#965
1#
#966
b10 $
0#
#967
1#
#968
b11 $
0#
#969
1#
#970
b100 $
0#
#971
1#
#972
b101 $
0#
#973
1#
#974
b110 $
0#
#975
1#
#976
b111 $
0#
#977
1#
#978
b1000 $
0#
#979
1#
#980
b0 $
0#
#981
1#
#982
b1 $
0#
#983
1#
#984
b10 $
0#
#985
1#
#986
b11 $
0#
#987
1#
#988
b100 $
0#
#989
1#
#990
b101 $
0#
#991
1#
#992
b110 $
0#
#993
1#
#994
b111 $
0#
#995
1#
#996
b1000 $
0#
#997
1#
#998
b0 $
0#
#999
1#
#1000
b1 $
0#
#1001
1#
#1002
b10 $
0#
#1003
1#
#1004
b11 $
0#
#1005
1#
#1006
b100 $
0#
#1007
1#
#1008
b101 $
0#
#1009
1#
#1010
b110 $
0#
#1011
1#
#1012
b111 $
0#
#1013
1#
#1014
b1000 $
0#
#1015
1#
#1016
b0 $
0#
#1017
1#
#1018
b1 $
0#
#1019
1#
#1020
b10 $
0#
#1021
1#
#1022
b11 $
0#
#1023
1#
#1024
b100 $
0#
#1025
1#
#1026
b101 $
0#
#1027
1#
#1028
b110 $
0#
#1029
1#
#1030
b111 $
0#
#1031
1#
#1032
b1000 $
0#
#1033
1#
#1034
b0 $
0#
#1035
1#
#1036
b1 $
0#
#1037
1#
#1038
b10 $
0#
#1039
1#
#1040
b11 $
0#
#1041
1#
#1042
b100 $
0#
#1043
1#
#1044
b101 $
0#
#1045
1#
#1046
b110 $
0#
#1047
1#
#1048
b111 $
0#
#1049
1#
#1050
b1000 $
0#
#1051
1#
#1052
b0 $
0#
#1053
1#
#1054
b1 $
0#
#1055
1#
#1056
b10 $
0#
#1057
1#
#1058
b11 $
0#
#1059
1#
#1060
b100 $
0#
#1061
1#
#1062
b101 $
0#
#1063
1#
#1064
b110 $
0#
#1065
1#
#1066
b111 $
0#
#1067
1#
#1068
b1000 $
0#
#1069
1#
#1070
b0 $
0#
#1071
1#
#1072
b1 $
0#
#1073
1#
#1074
b10 $
0#
#1075
1#
#1076
b11 $
0#
#1077
1#
#1078
b100 $
0#
#1079
1#
#1080
b101 $
0#
#1081
1#
#1082
b110 $
0#
#1083
1#
#1084
b111 $
0#
#1085
1#
#1086
b1000 $
0#
#1087
1#
#1088
b0 $
0#
#1089
1#
#1090
b1 $
0#
#1091
1#
#1092
b10 $
0#
#1093
1#
#1094
b11 $
0#
#1095
1#
#1096
b100 $
0#
#1097
1#
#1098
b101 $
0#
#1099
1#
#1100
b110 $
0#
#1101
1#
#1102
b111 $
0#
#1103
1#
#1104
b1000 $
0#
#1105
1#
#1106
b0 $
0#
#1107
1#
#1108
b1 $
0#
#1109
1#
#1110
b10 $
0#
#1111
1#
#1112
b11 $
0#
#1113
1#
#1114
b100 $
0#
#1115
1#
#1116
b101 $
0#
#1117
1#
#1118
b110 $
0#
#1119
1#
#1120
b111 $
0#
#1121
1#
#1122
b1000 $
0#
#1123
1#
#1124
b0 $
0#
#1125
1#
#1126
b1 $
0#
#1127
1#
#1128
b10 $
0#
#1129
1#
#1130
b11 $
0#
#1131
1#
#1132
b100 $
0#
#1133
1#
#1134
b101 $
0#
#1135
1#
#1136
b110 $
0#
#1137
1#
#1138
b111 $
0#
#1139
1#
#1140
b1000 $
0#
#1141
1#
#1142
b0 $
0#
#1143
1#
#1144
b1 $
0#
#1145
1#
#1146
b10 $
0#
#1147
1#
#1148
b11 $
0#
#1149
1#
#1150
b100 $
0#
#1151
1#
#1152
b101 $
0#
#1153
1#
#1154
b110 $
0#
#1155
1#
#1156
b111 $
0#
#1157
1#
#1158
b1000 $
0#
#1159
1#
#1160
b0 $
0#
#1161
1#
#1162
b1 $
0#
#1163
1#
#1164
b10 $
0#
#1165
1#
#1166
b11 $
0#
#1167
1#
#1168
b100 $
0#
#1169
1#
#1170
b101 $
0#
#1171
1#
#1172
b110 $
0#
#1173
1#
#1174
b111 $
0#
#1175
1#
#1176
b1000 $
0#
#1177
1#
#1178
b0 $
0#
#1179
1#
#1180
b1 $
0#
#1181
1#
#1182
b10 $
0#
#1183
1#
#1184
b11 $
0#
#1185
1#
#1186
b100 $
0#
#1187
1#
#1188
b101 $
0#
#1189
1#
#1190
b110 $
0#
#1191
1#
#1192
b111 $
0#
#1193
1#
#1194
b1000 $
0#
#1195
1#
#1196
b0 $
0#
#1197
1#
#1198
b1 $
0#
#1199
1#
#1200
b10 $
0#
#1201
1#
#1202
b11 $
0#
#1203
1#
#1204
b100 $
0#
#1205
1#
#1206
b101 $
0#
#1207
1#
#1208
b110 $
0#
#1209
1#
#1210
b111 $
0#
#1211
1#
#1212
b1000 $
0#
#1213
1#
#1214
b0 $
0#
#1215
1#
#1216
b1 $
0#
#1217
1#
#1218
b10 $
0#
#1219
1#
#1220
b11 $
0#
#1221
1#
#1222
b100 $
0#
#1223
1#
#1224
b101 $
0#
#1225
1#
#1226
b110 $
0#
#1227
1#
#1228
b111 $
0#
#1229
1#
#1230
b1000 $
0#
#1231
1#
#1232
b0 $
0#
#1233
1#
#1234
b1 $
0#
#1235
1#
#1236
b10 $
0#
#1237
1#
#1238
b11 $
0#
#1239
1#
#1240
b100 $
0#
#1241
1#
#1242
b101 $
0#
#1243
1#
#1244
b110 $
0#
#1245
1#
#1246
b111 $
0#
#1247
1#
#1248
b1000 $
0#
#1249
1#
#1250
b0 $
0#
#1251
1#
#1252
b1 $
0#
#1253
1#
#1254
b10 $
0#
#1255
1#
#1256
b11 $
0#
#1257
1#
#1258
b100 $
0#
#1259
1#
#1260
b101 $
0#
#1261
1#
#1262
b110 $
0#
#1263
1#
#1264
b111 $
0#
#1265
1#
#1266
b1000 $
0#
#1267
1#
#1268
b0 $
0#
#1269
1#
#1270
b1 $
0#
#1271
1#
#1272
b10 $
0#
#1273
1#
#1274
b11 $
0#
#1275
1#
#1276
b100 $
0#
#1277
1#
#1278
b101 $
0#
#1279
1#
#1280
b110 $
0#
#1281
1#
#1282
b111 $
0#
#1283
1#
#1284
b1000 $
0#
#1285
1#
#1286
b0 $
0#
#1287
1#
#1288
b1 $
0#
#1289
1#
#1290
b10 $
0#
#1291
1#
#1292
b11 $
0#
#1293
1#
#1294
b100 $
0#
#1295
1#
#1296
b101 $
0#
#1297
1#
#1298
b110 $
0#
#1299
1#
#1300
b111 $
0#
#1301
1#
#1302
b1000 $
0#
#1303
1#
#1304
b0 $
0#
#1305
1#
#1306
b1 $
0#
#1307
1#
#1308
b10 $
0#
#1309
1#
#1310
b11 $
0#
#1311
1#
#1312
b100 $
0#
#1313
1#
#1314
b101 $
0#
#1315
1#
#1316
b110 $
0#
#1317
1#
#1318
b111 $
0#
#1319
1#
#1320
b1000 $
0#
#1321
1#
#1322
b0 $
0#
#1323
1#
#1324
b1 $
0#
#1325
1#
#1326
b10 $
0#
#1327
1#
#1328
b11 $
0#
#1329
1#
#1330
b100 $
0#
#1331
1#
#1332
b101 $
0#
#1333
1#
#1334
b110 $
0#
#1335
1#
#1336
b111 $
0#
#1337
1#
#1338
b1000 $
0#
#1339
1#
#1340
b0 $
0#
#1341
1#
#1342
b1 $
0#
#1343
1#
#1344
b10 $
0#
#1345
1#
#1346
b11 $
0#
#1347
1#
#1348
b100 $
0#
#1349
1#
#1350
b101 $
0#
#1351
1#
#1352
b110 $
0#
#1353
1#
#1354
b111 $
0#
#1355
1#
#1356
b1000 $
0#
#1357
1#
#1358
b0 $
0#
#1359
1#
#1360
b1 $
0#
#1361
1#
#1362
b10 $
0#
#1363
1#
#1364
b11 $
0#
#1365
1#
#1366
b100 $
0#
#1367
1#
#1368
b101 $
0#
#1369
1#
#1370
b110 $
0#
#1371
1#
#1372
b111 $
0#
#1373
1#
#1374
b1000 $
0#
#1375
1#
#1376
b0 $
0#
#1377
1#
#1378
b1 $
0#
#1379
1#
#1380
b10 $
0#
#1381
1#
#1382
b11 $
0#
#1383
1#
#1384
b100 $
0#
#1385
1#
#1386
b101 $
0#
#1387
1#
#1388
b110 $
0#
#1389
1#
#1390
b111 $
0#
#1391
1#
#1392
b1000 $
0#
#1393
1#
#1394
b0 $
0#
#1395
1#
#1396
b1 $
0#
#1397
1#
#1398
b10 $
0#
#1399
1#
#1400
b11 $
0#
#1401
1#
#1402
b100 $
0#
#1403
1#
#1404
b101 $
0#
#1405
1#
#1406
b110 $
0#
#1407
1#
#1408
b111 $
0#
#1409
1#
#1410
b1000 $
0#
#1411
1#
#1412
b0 $
0#
#1413
1#
#1414
b1 $
0#
#1415
1#
#1416
b10 $
0#
#1417
1#
#1418
b11 $
0#
#1419
1#
#1420
b100 $
0#
#1421
1#
#1422
b101 $
0#
#1423
1#
#1424
b110 $
0#
#1425
1#
#1426
b111 $
0#
#1427
1#
#1428
b1000 $
0#
#1429
1#
#1430
b0 $
0#
#1431
1#
#1432
b1 $
0#
#1433
1#
#1434
b10 $
0#
#1435
1#
#1436
b11 $
0#
#1437
1#
#1438
b100 $
0#
#1439
1#
#1440
b101 $
0#
#1441
1#
#1442
b110 $
0#
#1443
1#
#1444
b111 $
0#
#1445
1#
#1446
b1000 $
0#
#1447
1#
#1448
b0 $
0#
#1449
1#
#1450
b1 $
0#
#1451
1#
#1452
b10 $
0#
#1453
1#
#1454
b11 $
0#
#1455
1#
#1456
b100 $
0#
#1457
1#
#1458
b101 $
0#
#1459
1#
#1460
b110 $
0#
#1461
1#
#1462
b111 $
0#
#1463
1#
#1464
b1000 $
0#
#1465
1#
#1466
b0 $
0#
#1467
1#
#1468
b1 $
0#
#1469
1#
#1470
b10 $
0#
#1471
1#
#1472
b11 $
0#
#1473
1#
#1474
b100 $
0#
#1475
1#
#1476
b101 $
0#
#1477
1#
#1478
b110 $
0#
#1479
1#
#1480
b111 $
0#
#1481
1#
#1482
b1000 $
0#
